EESchema Schematic File Version 4
LIBS:oscboard-cache
EELAYER 29 0
EELAYER END
$Descr A4 11693 8268
encoding utf-8
Sheet 1 1
Title ""
Date ""
Rev ""
Comp ""
Comment1 ""
Comment2 ""
Comment3 ""
Comment4 ""
$EndDescr
$Comp
L power:GNDA #PWR04
U 1 1 5D5FCDAD
P 750 2200
F 0 "#PWR04" H 750 1950 50  0001 C CNN
F 1 "GNDA" H 755 2027 50  0000 C CNN
F 2 "" H 750 2200 50  0001 C CNN
F 3 "" H 750 2200 50  0001 C CNN
	1    750  2200
	1    0    0    -1  
$EndComp
Text Notes 2750 6000 0    50   ~ 0
High Impedance Input OPAmps\n
Text GLabel 1000 3800 0    50   Input ~ 0
ATT_1:1
$Comp
L Device:R R5
U 1 1 5D6988E4
P 1400 5000
F 0 "R5" V 1193 5000 50  0000 C CNN
F 1 "10M" V 1284 5000 50  0000 C CNN
F 2 "Resistors_SMD:R_0603" V 1330 5000 50  0001 C CNN
F 3 "~" H 1400 5000 50  0001 C CNN
	1    1400 5000
	0    1    1    0   
$EndComp
$Comp
L Device:R R6
U 1 1 5D698F37
P 1650 5250
F 0 "R6" H 1580 5204 50  0000 R CNN
F 1 "3.85M" H 1580 5295 50  0000 R CNN
F 2 "Resistors_SMD:R_0603" V 1580 5250 50  0001 C CNN
F 3 "~" H 1650 5250 50  0001 C CNN
	1    1650 5250
	-1   0    0    1   
$EndComp
$Comp
L Device:R R2
U 1 1 5D699600
P 1150 5250
F 0 "R2" H 1080 5204 50  0000 R CNN
F 1 "3.85M" H 1080 5295 50  0000 R CNN
F 2 "Resistors_SMD:R_0603" V 1080 5250 50  0001 C CNN
F 3 "~" H 1150 5250 50  0001 C CNN
	1    1150 5250
	-1   0    0    1   
$EndComp
$Comp
L power:GNDA #PWR010
U 1 1 5D699C04
P 1650 5400
F 0 "#PWR010" H 1650 5150 50  0001 C CNN
F 1 "GNDA" H 1655 5227 50  0000 C CNN
F 2 "" H 1650 5400 50  0001 C CNN
F 3 "" H 1650 5400 50  0001 C CNN
	1    1650 5400
	1    0    0    -1  
$EndComp
$Comp
L power:GNDA #PWR05
U 1 1 5D69A1D7
P 1150 5400
F 0 "#PWR05" H 1150 5150 50  0001 C CNN
F 1 "GNDA" H 1155 5227 50  0000 C CNN
F 2 "" H 1150 5400 50  0001 C CNN
F 3 "" H 1150 5400 50  0001 C CNN
	1    1150 5400
	1    0    0    -1  
$EndComp
Wire Wire Line
	1150 5100 1150 5000
Wire Wire Line
	1150 5000 1250 5000
Wire Wire Line
	1650 5100 1650 5000
Wire Wire Line
	1650 5000 1550 5000
Text GLabel 1050 5000 0    50   Input ~ 0
ATT_1:10
Wire Wire Line
	1050 5000 1150 5000
Connection ~ 1150 5000
Text GLabel 1750 5000 2    50   Input ~ 0
ATT_1:10_OUT
Text GLabel 1750 3800 2    50   Input ~ 0
ATT_1:1_OUT
Text Notes 650  3650 0    50   ~ 0
Attenuator
$Comp
L power:GNDA #PWR03
U 1 1 5D7BEC4D
P 900 6500
F 0 "#PWR03" H 900 6250 50  0001 C CNN
F 1 "GNDA" H 905 6327 50  0000 C CNN
F 2 "" H 900 6500 50  0001 C CNN
F 3 "" H 900 6500 50  0001 C CNN
	1    900  6500
	1    0    0    -1  
$EndComp
Text Notes 2800 6200 0    50   ~ 0
Input resistance: 500G\n
Text Notes 2800 6300 0    50   ~ 0
Input capacitance: 1.3pF\n
Wire Notes Line
	2750 6350 2750 6100
Wire Notes Line
	3750 6100 3750 6350
Text Notes 2800 6500 0    50   ~ 0
ADA4817
Text GLabel 6900 4900 0    50   Input ~ 0
OSC_AMP_OUT
Text GLabel 2400 1800 2    50   Input ~ 0
OSC_IN
Text GLabel 9650 4900 2    50   Input ~ 0
PRE_AMP_+
Text GLabel 9650 5600 2    50   Input ~ 0
PRE_AMP_-
Text GLabel 4700 6700 0    50   Input ~ 0
PRE_AMP_+
Text GLabel 4700 7600 0    50   Input ~ 0
PRE_AMP_-
$Comp
L Device:C C8
U 1 1 5D68D138
P 4950 7150
F 0 "C8" H 5065 7196 50  0000 L CNN
F 1 "3p" H 5065 7105 50  0000 L CNN
F 2 "Capacitors_SMD:C_0603" H 4988 7000 50  0001 C CNN
F 3 "~" H 4950 7150 50  0001 C CNN
	1    4950 7150
	1    0    0    -1  
$EndComp
$Comp
L Device:C C9
U 1 1 5D68D577
P 5950 7150
F 0 "C9" H 6065 7196 50  0000 L CNN
F 1 "3p" H 6065 7105 50  0000 L CNN
F 2 "Capacitors_SMD:C_0603" H 5988 7000 50  0001 C CNN
F 3 "~" H 5950 7150 50  0001 C CNN
	1    5950 7150
	1    0    0    -1  
$EndComp
$Comp
L Device:L L1
U 1 1 5D68DE50
P 5450 6700
F 0 "L1" V 5640 6700 50  0000 C CNN
F 1 "130n" V 5549 6700 50  0000 C CNN
F 2 "Inductors_SMD:L_0603" H 5450 6700 50  0001 C CNN
F 3 "~" H 5450 6700 50  0001 C CNN
	1    5450 6700
	0    -1   -1   0   
$EndComp
$Comp
L Device:L L2
U 1 1 5D68E2DC
P 5450 7600
F 0 "L2" V 5640 7600 50  0000 C CNN
F 1 "130n" V 5549 7600 50  0000 C CNN
F 2 "Inductors_SMD:L_0603" H 5450 7600 50  0001 C CNN
F 3 "~" H 5450 7600 50  0001 C CNN
	1    5450 7600
	0    -1   -1   0   
$EndComp
Wire Wire Line
	4950 7600 5300 7600
Wire Wire Line
	5600 7600 5950 7600
Wire Wire Line
	5950 6700 5600 6700
Wire Wire Line
	5300 6700 4950 6700
Text Notes 4200 6400 0    50   ~ 0
https://www.edn.com/Pdf/ViewPdf?contentItemId=4443021
Wire Wire Line
	4950 6700 4700 6700
Connection ~ 4950 6700
Wire Wire Line
	4700 7600 4950 7600
Connection ~ 4950 7600
Text GLabel 6550 6700 2    50   Input ~ 0
ADC_IN+
Text GLabel 6550 7600 2    50   Input ~ 0
ADC_IN-
Connection ~ 5950 6700
Connection ~ 5950 7600
Text Notes 4200 6300 0    50   ~ 0
Low Pass filter ~ 400 Mhz Cutoff
Wire Wire Line
	6300 6700 6300 6800
Wire Wire Line
	5950 6700 6300 6700
Wire Wire Line
	6300 7500 6300 7600
Wire Wire Line
	5950 7600 6300 7600
Wire Wire Line
	6550 6700 6300 6700
Connection ~ 6300 6700
Wire Wire Line
	6300 7600 6550 7600
Connection ~ 6300 7600
Wire Wire Line
	6300 7200 6300 7150
Wire Wire Line
	6300 7150 6550 7150
Connection ~ 6300 7150
Wire Wire Line
	6300 7150 6300 7100
Text GLabel 6550 7150 2    50   Input ~ 0
ADC_IN_M
Wire Wire Line
	5950 6700 5950 7000
Wire Wire Line
	5950 7300 5950 7600
Wire Wire Line
	4950 7300 4950 7600
Wire Wire Line
	4950 6700 4950 7000
$Comp
L Device:R R14
U 1 1 5D719EF8
P 6300 7350
F 0 "R14" H 6370 7396 50  0000 L CNN
F 1 "10K" H 6370 7305 50  0000 L CNN
F 2 "Resistors_SMD:R_0603" V 6230 7350 50  0001 C CNN
F 3 "~" H 6300 7350 50  0001 C CNN
	1    6300 7350
	1    0    0    -1  
$EndComp
$Comp
L Device:R R13
U 1 1 5D6C9C95
P 6300 6950
F 0 "R13" H 6370 6996 50  0000 L CNN
F 1 "10K" H 6370 6905 50  0000 L CNN
F 2 "Resistors_SMD:R_0603" V 6230 6950 50  0001 C CNN
F 3 "~" H 6300 6950 50  0001 C CNN
	1    6300 6950
	1    0    0    -1  
$EndComp
$Comp
L Device:R R4
U 1 1 5D7D97B5
P 1400 3800
F 0 "R4" V 1193 3800 50  0000 C CNN
F 1 "10M" V 1284 3800 50  0000 C CNN
F 2 "Resistors_SMD:R_0603" V 1330 3800 50  0001 C CNN
F 3 "~" H 1400 3800 50  0001 C CNN
	1    1400 3800
	0    1    1    0   
$EndComp
Wire Wire Line
	1000 3800 1150 3800
Text GLabel 1250 6800 0    50   Input ~ 0
OSC_ATT_OUT
Text GLabel 3200 6700 2    50   Input ~ 0
OSC_AMP_OUT
Wire Wire Line
	1550 3800 1700 3800
Wire Wire Line
	1750 5000 1650 5000
Connection ~ 1650 5000
$Comp
L lattice:AD8370 U4
U 1 1 5D8B16D9
P 8750 5250
F 0 "U4" H 8700 5865 50  0000 C CNN
F 1 "AD8370" H 8700 5774 50  0000 C CNN
F 2 "Housings_SSOP:TSSOP-16_4.4x5mm_Pitch0.65mm" H 8750 5250 50  0001 C CNN
F 3 "https://www.analog.com/media/en/technical-documentation/data-sheets/AD8370.pdf" H 8750 5250 50  0001 C CNN
	1    8750 5250
	1    0    0    -1  
$EndComp
Wire Wire Line
	8150 5700 8150 5600
Wire Wire Line
	8150 5600 8200 5600
$Comp
L Device:R R17
U 1 1 5D8BF340
P 8150 5850
F 0 "R17" H 8220 5896 50  0000 L CNN
F 1 "R" H 8220 5805 50  0000 L CNN
F 2 "Resistors_SMD:R_0603" V 8080 5850 50  0001 C CNN
F 3 "~" H 8150 5850 50  0001 C CNN
	1    8150 5850
	1    0    0    -1  
$EndComp
Wire Wire Line
	8150 6100 8150 6050
$Comp
L Device:R R15
U 1 1 5D8C455D
P 7100 5050
F 0 "R15" H 7170 5096 50  0000 L CNN
F 1 "R" H 7170 5005 50  0000 L CNN
F 2 "Resistors_SMD:R_0603" V 7030 5050 50  0001 C CNN
F 3 "~" H 7100 5050 50  0001 C CNN
	1    7100 5050
	1    0    0    -1  
$EndComp
Wire Wire Line
	6900 4900 7100 4900
Connection ~ 7100 4900
Wire Wire Line
	7100 4900 8200 4900
Wire Wire Line
	7100 5300 7100 5200
$Comp
L power:GNDA #PWR028
U 1 1 5D8CBC65
P 7100 5300
F 0 "#PWR028" H 7100 5050 50  0001 C CNN
F 1 "GNDA" H 7105 5127 50  0000 C CNN
F 2 "" H 7100 5300 50  0001 C CNN
F 3 "" H 7100 5300 50  0001 C CNN
	1    7100 5300
	1    0    0    -1  
$EndComp
$Comp
L power:GNDA #PWR037
U 1 1 5D8CBFB7
P 8150 6100
F 0 "#PWR037" H 8150 5850 50  0001 C CNN
F 1 "GNDA" H 8155 5927 50  0000 C CNN
F 2 "" H 8150 6100 50  0001 C CNN
F 3 "" H 8150 6100 50  0001 C CNN
	1    8150 6100
	1    0    0    -1  
$EndComp
Wire Wire Line
	8150 6050 8050 6050
Wire Wire Line
	8050 6050 8050 5500
Wire Wire Line
	8050 5500 8200 5500
Connection ~ 8150 6050
Wire Wire Line
	8150 6050 8150 6000
Wire Wire Line
	8050 5000 8050 5300
Connection ~ 8050 5500
Wire Wire Line
	9400 5000 9400 5500
Wire Wire Line
	8050 5000 8200 5000
Wire Wire Line
	9200 5000 9400 5000
Wire Wire Line
	9200 5500 9400 5500
Wire Wire Line
	8200 5400 8100 5400
Wire Wire Line
	8100 5400 8100 5100
Wire Wire Line
	9200 5400 9300 5400
Wire Wire Line
	8200 5100 8100 5100
Connection ~ 8100 5100
Wire Wire Line
	8100 5100 8100 4750
Wire Wire Line
	8050 5300 8200 5300
Connection ~ 8050 5300
Wire Wire Line
	8050 5300 8050 5500
$Comp
L Device:C C13
U 1 1 5D8EC267
P 7450 4300
F 0 "C13" H 7565 4346 50  0000 L CNN
F 1 "1u" H 7565 4255 50  0000 L CNN
F 2 "Capacitors_SMD:C_0603" H 7488 4150 50  0001 C CNN
F 3 "~" H 7450 4300 50  0001 C CNN
	1    7450 4300
	1    0    0    -1  
$EndComp
$Comp
L Device:C C15
U 1 1 5D8ED821
P 9850 4300
F 0 "C15" H 9965 4346 50  0000 L CNN
F 1 "1u" H 9965 4255 50  0000 L CNN
F 2 "Capacitors_SMD:C_0603" H 9888 4150 50  0001 C CNN
F 3 "~" H 9850 4300 50  0001 C CNN
	1    9850 4300
	1    0    0    -1  
$EndComp
$Comp
L power:GNDA #PWR034
U 1 1 5D8EE460
P 7450 4450
F 0 "#PWR034" H 7450 4200 50  0001 C CNN
F 1 "GNDA" H 7455 4277 50  0000 C CNN
F 2 "" H 7450 4450 50  0001 C CNN
F 3 "" H 7450 4450 50  0001 C CNN
	1    7450 4450
	1    0    0    -1  
$EndComp
$Comp
L power:GNDA #PWR044
U 1 1 5D8EE776
P 9850 4450
F 0 "#PWR044" H 9850 4200 50  0001 C CNN
F 1 "GNDA" H 9855 4277 50  0000 C CNN
F 2 "" H 9850 4450 50  0001 C CNN
F 3 "" H 9850 4450 50  0001 C CNN
	1    9850 4450
	1    0    0    -1  
$EndComp
$Comp
L Device:C C17
U 1 1 5D8F30C0
P 10150 4300
F 0 "C17" H 10265 4346 50  0000 L CNN
F 1 "1n" H 10265 4255 50  0000 L CNN
F 2 "Capacitors_SMD:C_0603" H 10188 4150 50  0001 C CNN
F 3 "~" H 10150 4300 50  0001 C CNN
	1    10150 4300
	1    0    0    -1  
$EndComp
$Comp
L power:GNDA #PWR049
U 1 1 5D8F30C6
P 10150 4450
F 0 "#PWR049" H 10150 4200 50  0001 C CNN
F 1 "GNDA" H 10155 4277 50  0000 C CNN
F 2 "" H 10150 4450 50  0001 C CNN
F 3 "" H 10150 4450 50  0001 C CNN
	1    10150 4450
	1    0    0    -1  
$EndComp
$Comp
L Device:C C11
U 1 1 5D8F5ED3
P 7150 4300
F 0 "C11" H 7265 4346 50  0000 L CNN
F 1 "1n" H 7265 4255 50  0000 L CNN
F 2 "Capacitors_SMD:C_0603" H 7188 4150 50  0001 C CNN
F 3 "~" H 7150 4300 50  0001 C CNN
	1    7150 4300
	1    0    0    -1  
$EndComp
$Comp
L power:GNDA #PWR030
U 1 1 5D8F5ED9
P 7150 4450
F 0 "#PWR030" H 7150 4200 50  0001 C CNN
F 1 "GNDA" H 7155 4277 50  0000 C CNN
F 2 "" H 7150 4450 50  0001 C CNN
F 3 "" H 7150 4450 50  0001 C CNN
	1    7150 4450
	1    0    0    -1  
$EndComp
$Comp
L Analog_ADC:AD9283 U3
U 1 1 5D68CC71
P 6900 2050
F 0 "U3" H 6900 3031 50  0000 C CNN
F 1 "AD9283" H 6900 2940 50  0000 C CNN
F 2 "lnboard:SSOP20" H 6900 2050 50  0001 C CNN
F 3 "https://www.analog.com/media/en/technical-documentation/data-sheets/AD9283.pdf" H 6900 2050 50  0001 C CNN
	1    6900 2050
	1    0    0    -1  
$EndComp
$Comp
L power:GNDA #PWR027
U 1 1 5D694EFE
P 6900 2950
F 0 "#PWR027" H 6900 2700 50  0001 C CNN
F 1 "GNDA" H 6905 2777 50  0000 C CNN
F 2 "" H 6900 2950 50  0001 C CNN
F 3 "" H 6900 2950 50  0001 C CNN
	1    6900 2950
	1    0    0    -1  
$EndComp
Wire Wire Line
	6900 2950 6900 2900
Wire Wire Line
	6900 2900 6800 2900
Wire Wire Line
	6800 2900 6800 2850
Wire Wire Line
	6900 2850 6900 2900
Connection ~ 6900 2900
Wire Wire Line
	6900 2900 7000 2900
Wire Wire Line
	7000 2900 7000 2850
Wire Wire Line
	6700 1250 6700 1200
Wire Wire Line
	6700 1200 6750 1200
Wire Wire Line
	6750 1200 6750 1150
Wire Wire Line
	6750 1200 6800 1200
Wire Wire Line
	6800 1200 6800 1250
Connection ~ 6750 1200
Wire Wire Line
	6800 1200 7000 1200
Wire Wire Line
	7000 1200 7000 1250
Connection ~ 6800 1200
$Comp
L Device:R R16
U 1 1 5D6BF7F7
P 7750 2800
F 0 "R16" H 7820 2846 50  0000 L CNN
F 1 "10K" H 7820 2755 50  0000 L CNN
F 2 "Resistors_SMD:R_0603" V 7680 2800 50  0001 C CNN
F 3 "~" H 7750 2800 50  0001 C CNN
	1    7750 2800
	1    0    0    -1  
$EndComp
Wire Wire Line
	7600 2550 7750 2550
Wire Wire Line
	7750 2550 7750 2650
$Comp
L power:GNDA #PWR035
U 1 1 5D6C20B2
P 7750 3050
F 0 "#PWR035" H 7750 2800 50  0001 C CNN
F 1 "GNDA" H 7755 2877 50  0000 C CNN
F 2 "" H 7750 3050 50  0001 C CNN
F 3 "" H 7750 3050 50  0001 C CNN
	1    7750 3050
	1    0    0    -1  
$EndComp
Wire Wire Line
	7750 3050 7750 2950
Text GLabel 7950 2450 2    50   Input ~ 0
ADC1_CLK
Wire Wire Line
	7950 2450 7600 2450
Entry Wire Line
	7850 1550 7950 1450
Entry Wire Line
	7850 1750 7950 1650
Entry Wire Line
	7850 1950 7950 1850
Entry Wire Line
	7850 2050 7950 1950
Entry Wire Line
	7850 2150 7950 2050
Entry Wire Line
	7850 2250 7950 2150
Entry Wire Line
	7850 1650 7950 1550
Entry Wire Line
	7850 1850 7950 1750
Text GLabel 7950 1350 1    50   Input ~ 0
ADC1_DATA[0:7]
Text GLabel 6050 1650 0    50   Input ~ 0
ADC_IN+
Wire Wire Line
	6050 1650 6200 1650
Text GLabel 6050 1850 0    50   Input ~ 0
ADC_IN-
Wire Wire Line
	6050 1850 6200 1850
$Comp
L Device:C C10
U 1 1 5D6F6554
P 6050 2750
F 0 "C10" H 6165 2796 50  0000 L CNN
F 1 "1uF" H 6165 2705 50  0000 L CNN
F 2 "Capacitors_SMD:C_0603" H 6088 2600 50  0001 C CNN
F 3 "~" H 6050 2750 50  0001 C CNN
	1    6050 2750
	1    0    0    -1  
$EndComp
Wire Wire Line
	6200 2450 6050 2450
Wire Wire Line
	6050 2450 6050 2600
$Comp
L power:GNDA #PWR025
U 1 1 5D6F9F5F
P 6050 3000
F 0 "#PWR025" H 6050 2750 50  0001 C CNN
F 1 "GNDA" H 6055 2827 50  0000 C CNN
F 2 "" H 6050 3000 50  0001 C CNN
F 3 "" H 6050 3000 50  0001 C CNN
	1    6050 3000
	1    0    0    -1  
$EndComp
Wire Wire Line
	6050 3000 6050 2900
$Comp
L power:+3.3VA #PWR023
U 1 1 5D700C9A
P 5650 3900
F 0 "#PWR023" H 5650 3750 50  0001 C CNN
F 1 "+3.3VA" H 5665 4073 50  0000 C CNN
F 2 "" H 5650 3900 50  0001 C CNN
F 3 "" H 5650 3900 50  0001 C CNN
	1    5650 3900
	1    0    0    -1  
$EndComp
$Comp
L power:+3.3VA #PWR026
U 1 1 5D7011F4
P 6750 1150
F 0 "#PWR026" H 6750 1000 50  0001 C CNN
F 1 "+3.3VA" H 6765 1323 50  0000 C CNN
F 2 "" H 6750 1150 50  0001 C CNN
F 3 "" H 6750 1150 50  0001 C CNN
	1    6750 1150
	1    0    0    -1  
$EndComp
$Comp
L power:+3.3VA #PWR036
U 1 1 5D70BB67
P 8100 4750
F 0 "#PWR036" H 8100 4600 50  0001 C CNN
F 1 "+3.3VA" H 8115 4923 50  0000 C CNN
F 2 "" H 8100 4750 50  0001 C CNN
F 3 "" H 8100 4750 50  0001 C CNN
	1    8100 4750
	1    0    0    -1  
$EndComp
$Comp
L power:+3.3VA #PWR040
U 1 1 5D70BDBD
P 9300 4750
F 0 "#PWR040" H 9300 4600 50  0001 C CNN
F 1 "+3.3VA" H 9315 4923 50  0000 C CNN
F 2 "" H 9300 4750 50  0001 C CNN
F 3 "" H 9300 4750 50  0001 C CNN
	1    9300 4750
	1    0    0    -1  
$EndComp
Wire Wire Line
	9300 4750 9300 5400
$Comp
L power:+3.3VA #PWR029
U 1 1 5D71E157
P 7150 4150
F 0 "#PWR029" H 7150 4000 50  0001 C CNN
F 1 "+3.3VA" H 7165 4323 50  0000 C CNN
F 2 "" H 7150 4150 50  0001 C CNN
F 3 "" H 7150 4150 50  0001 C CNN
	1    7150 4150
	1    0    0    -1  
$EndComp
$Comp
L power:+3.3VA #PWR033
U 1 1 5D71E3D6
P 7450 4150
F 0 "#PWR033" H 7450 4000 50  0001 C CNN
F 1 "+3.3VA" H 7465 4323 50  0000 C CNN
F 2 "" H 7450 4150 50  0001 C CNN
F 3 "" H 7450 4150 50  0001 C CNN
	1    7450 4150
	1    0    0    -1  
$EndComp
$Comp
L power:+3.3VA #PWR043
U 1 1 5D71E756
P 9850 4150
F 0 "#PWR043" H 9850 4000 50  0001 C CNN
F 1 "+3.3VA" H 9865 4323 50  0000 C CNN
F 2 "" H 9850 4150 50  0001 C CNN
F 3 "" H 9850 4150 50  0001 C CNN
	1    9850 4150
	1    0    0    -1  
$EndComp
$Comp
L power:+3.3VA #PWR048
U 1 1 5D71EAB4
P 10150 4150
F 0 "#PWR048" H 10150 4000 50  0001 C CNN
F 1 "+3.3VA" H 10165 4323 50  0000 C CNN
F 2 "" H 10150 4150 50  0001 C CNN
F 3 "" H 10150 4150 50  0001 C CNN
	1    10150 4150
	1    0    0    -1  
$EndComp
$Comp
L power:+3.3VA #PWR02
U 1 1 5D731AAA
P 900 5900
F 0 "#PWR02" H 900 5750 50  0001 C CNN
F 1 "+3.3VA" H 915 6073 50  0000 C CNN
F 2 "" H 900 5900 50  0001 C CNN
F 3 "" H 900 5900 50  0001 C CNN
	1    900  5900
	1    0    0    -1  
$EndComp
Wire Wire Line
	5650 4000 5650 3900
$Comp
L power:GNDA #PWR024
U 1 1 5D77A208
P 5650 4850
F 0 "#PWR024" H 5650 4600 50  0001 C CNN
F 1 "GNDA" H 5655 4677 50  0000 C CNN
F 2 "" H 5650 4850 50  0001 C CNN
F 3 "" H 5650 4850 50  0001 C CNN
	1    5650 4850
	1    0    0    -1  
$EndComp
Wire Wire Line
	5650 4850 5650 4700
$Comp
L Device:R R11
U 1 1 5D780729
P 5650 4150
F 0 "R11" H 5720 4196 50  0000 L CNN
F 1 "10K" H 5720 4105 50  0000 L CNN
F 2 "Resistors_SMD:R_0603" V 5580 4150 50  0001 C CNN
F 3 "~" H 5650 4150 50  0001 C CNN
	1    5650 4150
	1    0    0    -1  
$EndComp
$Comp
L Device:R R12
U 1 1 5D7809CF
P 5650 4550
F 0 "R12" H 5720 4596 50  0000 L CNN
F 1 "6.1K" H 5720 4505 50  0000 L CNN
F 2 "Resistors_SMD:R_0603" V 5580 4550 50  0001 C CNN
F 3 "~" H 5650 4550 50  0001 C CNN
	1    5650 4550
	1    0    0    -1  
$EndComp
Text Notes 4100 4250 0    50   ~ 0
VREF = +3.3V. Divider in case.
Wire Wire Line
	5650 4300 5650 4350
Wire Wire Line
	5650 4350 5900 4350
Connection ~ 5650 4350
Wire Wire Line
	5650 4350 5650 4400
Text Label 5900 4350 0    50   ~ 0
ADC_REF
Text Label 6000 2250 2    50   ~ 0
ADC_REF
Wire Wire Line
	6000 2250 6200 2250
$Comp
L Analog_ADC:AD9283 U5
U 1 1 5D7AE381
P 9550 2050
F 0 "U5" H 9550 3031 50  0000 C CNN
F 1 "AD9283" H 9550 2940 50  0000 C CNN
F 2 "lnboard:SSOP20" H 9550 2050 50  0001 C CNN
F 3 "https://www.analog.com/media/en/technical-documentation/data-sheets/AD9283.pdf" H 9550 2050 50  0001 C CNN
	1    9550 2050
	1    0    0    -1  
$EndComp
$Comp
L power:GNDA #PWR042
U 1 1 5D7AE387
P 9550 2950
F 0 "#PWR042" H 9550 2700 50  0001 C CNN
F 1 "GNDA" H 9555 2777 50  0000 C CNN
F 2 "" H 9550 2950 50  0001 C CNN
F 3 "" H 9550 2950 50  0001 C CNN
	1    9550 2950
	1    0    0    -1  
$EndComp
Wire Wire Line
	9550 2950 9550 2900
Wire Wire Line
	9550 2900 9450 2900
Wire Wire Line
	9450 2900 9450 2850
Wire Wire Line
	9550 2850 9550 2900
Connection ~ 9550 2900
Wire Wire Line
	9550 2900 9650 2900
Wire Wire Line
	9650 2900 9650 2850
Wire Wire Line
	9350 1250 9350 1200
Wire Wire Line
	9350 1200 9400 1200
Wire Wire Line
	9400 1200 9400 1150
Wire Wire Line
	9400 1200 9450 1200
Wire Wire Line
	9450 1200 9450 1250
Connection ~ 9400 1200
Wire Wire Line
	9450 1200 9650 1200
Wire Wire Line
	9650 1200 9650 1250
Connection ~ 9450 1200
$Comp
L Device:R R18
U 1 1 5D7AE39D
P 10400 2800
F 0 "R18" H 10470 2846 50  0000 L CNN
F 1 "10K" H 10470 2755 50  0000 L CNN
F 2 "Resistors_SMD:R_0603" V 10330 2800 50  0001 C CNN
F 3 "~" H 10400 2800 50  0001 C CNN
	1    10400 2800
	1    0    0    -1  
$EndComp
Wire Wire Line
	10250 2550 10400 2550
Wire Wire Line
	10400 2550 10400 2650
$Comp
L power:GNDA #PWR050
U 1 1 5D7AE3A5
P 10400 3050
F 0 "#PWR050" H 10400 2800 50  0001 C CNN
F 1 "GNDA" H 10405 2877 50  0000 C CNN
F 2 "" H 10400 3050 50  0001 C CNN
F 3 "" H 10400 3050 50  0001 C CNN
	1    10400 3050
	1    0    0    -1  
$EndComp
Wire Wire Line
	10400 3050 10400 2950
Text GLabel 10600 2450 2    50   Input ~ 0
ADC2_CLK
Wire Wire Line
	10600 2450 10250 2450
Text GLabel 8700 1650 0    50   Input ~ 0
ADC_IN+
Wire Wire Line
	8700 1650 8850 1650
Text GLabel 8700 1850 0    50   Input ~ 0
ADC_IN-
Wire Wire Line
	8700 1850 8850 1850
$Comp
L Device:C C14
U 1 1 5D7AE3C3
P 8700 2750
F 0 "C14" H 8815 2796 50  0000 L CNN
F 1 "1uF" H 8815 2705 50  0000 L CNN
F 2 "Capacitors_SMD:C_0603" H 8738 2600 50  0001 C CNN
F 3 "~" H 8700 2750 50  0001 C CNN
	1    8700 2750
	1    0    0    -1  
$EndComp
Wire Wire Line
	8850 2450 8700 2450
Wire Wire Line
	8700 2450 8700 2600
$Comp
L power:GNDA #PWR039
U 1 1 5D7AE3CB
P 8700 3000
F 0 "#PWR039" H 8700 2750 50  0001 C CNN
F 1 "GNDA" H 8705 2827 50  0000 C CNN
F 2 "" H 8700 3000 50  0001 C CNN
F 3 "" H 8700 3000 50  0001 C CNN
	1    8700 3000
	1    0    0    -1  
$EndComp
Wire Wire Line
	8700 3000 8700 2900
$Comp
L power:+3.3VA #PWR041
U 1 1 5D7AE3D2
P 9400 1150
F 0 "#PWR041" H 9400 1000 50  0001 C CNN
F 1 "+3.3VA" H 9415 1323 50  0000 C CNN
F 2 "" H 9400 1150 50  0001 C CNN
F 3 "" H 9400 1150 50  0001 C CNN
	1    9400 1150
	1    0    0    -1  
$EndComp
Text Label 8650 2250 2    50   ~ 0
ADC_REF
Wire Wire Line
	8650 2250 8850 2250
Text Label 7650 1550 0    50   ~ 0
A1_D0
Text Label 7650 1650 0    50   ~ 0
A1_D1
Text Label 7650 1750 0    50   ~ 0
A1_D2
Text Label 7650 1850 0    50   ~ 0
A1_D3
Text Label 7650 1950 0    50   ~ 0
A1_D4
Text Label 7650 2050 0    50   ~ 0
A1_D5
Text Label 7650 2150 0    50   ~ 0
A1_D6
Text Label 7650 2250 0    50   ~ 0
A1_D7
Wire Wire Line
	7600 1550 7850 1550
Wire Wire Line
	7600 1650 7850 1650
Wire Wire Line
	7600 1750 7850 1750
Wire Wire Line
	7600 1850 7850 1850
Wire Wire Line
	7600 1950 7850 1950
Wire Wire Line
	7600 2050 7850 2050
Wire Wire Line
	7600 2150 7850 2150
Wire Wire Line
	7600 2250 7850 2250
Entry Wire Line
	10500 1550 10600 1450
Entry Wire Line
	10500 1750 10600 1650
Entry Wire Line
	10500 1950 10600 1850
Entry Wire Line
	10500 2050 10600 1950
Entry Wire Line
	10500 2150 10600 2050
Entry Wire Line
	10500 2250 10600 2150
Entry Wire Line
	10500 1650 10600 1550
Entry Wire Line
	10500 1850 10600 1750
Text GLabel 10600 1350 1    50   Input ~ 0
ADC2_DATA[0:7]
Text Label 10300 1550 0    50   ~ 0
A2_D0
Text Label 10300 1650 0    50   ~ 0
A2_D1
Text Label 10300 1750 0    50   ~ 0
A2_D2
Text Label 10300 1850 0    50   ~ 0
A2_D3
Text Label 10300 1950 0    50   ~ 0
A2_D4
Text Label 10300 2050 0    50   ~ 0
A2_D5
Text Label 10300 2150 0    50   ~ 0
A2_D6
Text Label 10300 2250 0    50   ~ 0
A2_D7
Wire Wire Line
	10250 1550 10500 1550
Wire Wire Line
	10250 1650 10500 1650
Wire Wire Line
	10250 1750 10500 1750
Wire Wire Line
	10250 1850 10500 1850
Wire Wire Line
	10250 1950 10500 1950
Wire Wire Line
	10250 2050 10500 2050
Wire Wire Line
	10250 2150 10500 2150
Wire Wire Line
	10250 2250 10500 2250
Text GLabel 5150 4350 0    50   Input ~ 0
ADC_IN_M
$Comp
L Device:R R10
U 1 1 5D813F93
P 5400 4350
F 0 "R10" V 5193 4350 50  0000 C CNN
F 1 "0" V 5284 4350 50  0000 C CNN
F 2 "Resistors_SMD:R_0603" V 5330 4350 50  0001 C CNN
F 3 "~" H 5400 4350 50  0001 C CNN
	1    5400 4350
	0    1    1    0   
$EndComp
Wire Wire Line
	5650 4350 5550 4350
Wire Wire Line
	5250 4350 5150 4350
$Comp
L Device:C C16
U 1 1 5D8276C3
P 9900 1000
F 0 "C16" H 10015 1046 50  0000 L CNN
F 1 "100n" H 10015 955 50  0000 L CNN
F 2 "Capacitors_SMD:C_0603" H 9938 850 50  0001 C CNN
F 3 "~" H 9900 1000 50  0001 C CNN
	1    9900 1000
	1    0    0    -1  
$EndComp
$Comp
L power:GNDA #PWR046
U 1 1 5D8276C9
P 9900 1150
F 0 "#PWR046" H 9900 900 50  0001 C CNN
F 1 "GNDA" H 9905 977 50  0000 C CNN
F 2 "" H 9900 1150 50  0001 C CNN
F 3 "" H 9900 1150 50  0001 C CNN
	1    9900 1150
	1    0    0    -1  
$EndComp
$Comp
L Device:C C12
U 1 1 5D8276CF
P 7250 1000
F 0 "C12" H 7365 1046 50  0000 L CNN
F 1 "100n" H 7365 955 50  0000 L CNN
F 2 "Capacitors_SMD:C_0603" H 7288 850 50  0001 C CNN
F 3 "~" H 7250 1000 50  0001 C CNN
	1    7250 1000
	1    0    0    -1  
$EndComp
$Comp
L power:GNDA #PWR032
U 1 1 5D8276D5
P 7250 1150
F 0 "#PWR032" H 7250 900 50  0001 C CNN
F 1 "GNDA" H 7255 977 50  0000 C CNN
F 2 "" H 7250 1150 50  0001 C CNN
F 3 "" H 7250 1150 50  0001 C CNN
	1    7250 1150
	1    0    0    -1  
$EndComp
$Comp
L power:+3.3VA #PWR031
U 1 1 5D8276DB
P 7250 850
F 0 "#PWR031" H 7250 700 50  0001 C CNN
F 1 "+3.3VA" H 7265 1023 50  0000 C CNN
F 2 "" H 7250 850 50  0001 C CNN
F 3 "" H 7250 850 50  0001 C CNN
	1    7250 850 
	1    0    0    -1  
$EndComp
$Comp
L power:+3.3VA #PWR045
U 1 1 5D8276E1
P 9900 850
F 0 "#PWR045" H 9900 700 50  0001 C CNN
F 1 "+3.3VA" H 9915 1023 50  0000 C CNN
F 2 "" H 9900 850 50  0001 C CNN
F 3 "" H 9900 850 50  0001 C CNN
	1    9900 850 
	1    0    0    -1  
$EndComp
Wire Wire Line
	1900 6700 1750 6700
$Comp
L power:+3.3VA #PWR016
U 1 1 5D67F759
P 2450 6200
F 0 "#PWR016" H 2450 6050 50  0001 C CNN
F 1 "+3.3VA" H 2465 6373 50  0000 C CNN
F 2 "" H 2450 6200 50  0001 C CNN
F 3 "" H 2450 6200 50  0001 C CNN
	1    2450 6200
	1    0    0    -1  
$EndComp
$Comp
L power:GNDA #PWR015
U 1 1 5D6800A3
P 2300 7300
F 0 "#PWR015" H 2300 7050 50  0001 C CNN
F 1 "GNDA" H 2305 7127 50  0000 C CNN
F 2 "" H 2300 7300 50  0001 C CNN
F 3 "" H 2300 7300 50  0001 C CNN
	1    2300 7300
	1    0    0    -1  
$EndComp
Wire Wire Line
	2350 7250 2300 7250
Wire Wire Line
	2300 7250 2300 7300
Wire Wire Line
	2300 7250 2250 7250
Connection ~ 2300 7250
$Comp
L Device:R R7
U 1 1 5D68D5B3
P 1850 6250
F 0 "R7" H 1920 6296 50  0000 L CNN
F 1 "10K" H 1920 6205 50  0000 L CNN
F 2 "Resistors_SMD:R_0603" V 1780 6250 50  0001 C CNN
F 3 "~" H 1850 6250 50  0001 C CNN
	1    1850 6250
	1    0    0    -1  
$EndComp
$Comp
L power:+3.3VA #PWR011
U 1 1 5D68F791
P 1850 6050
F 0 "#PWR011" H 1850 5900 50  0001 C CNN
F 1 "+3.3VA" H 1865 6223 50  0000 C CNN
F 2 "" H 1850 6050 50  0001 C CNN
F 3 "" H 1850 6050 50  0001 C CNN
	1    1850 6050
	1    0    0    -1  
$EndComp
Wire Wire Line
	1850 6050 1850 6100
Wire Wire Line
	3200 6700 2750 6700
$Comp
L Relay:IM00 K2
U 1 1 5D6FDC9E
P 4350 1900
F 0 "K2" V 3583 1900 50  0000 C CNN
F 1 "IM00" V 3674 1900 50  0000 C CNN
F 2 "Relays_THT:Relay_DPDT_AXICOM_IMSeries_Pitch5.08mm" H 4150 1900 50  0001 C CNN
F 3 "http://www.te.com/commerce/DocumentDelivery/DDEController?Action=srchrtrv&DocNm=108-98001&DocType=SS&DocLang=EN" H 4150 1900 50  0001 C CNN
	1    4350 1900
	0    1    1    0   
$EndComp
Text GLabel 4650 1800 2    50   Input ~ 0
ATT_1:10
Text GLabel 4650 2000 2    50   Input ~ 0
ATT_1:1
Text GLabel 4650 2200 2    50   Input ~ 0
ATT_1:10_OUT
Text GLabel 4650 2400 2    50   Input ~ 0
ATT_1:1_OUT
Text GLabel 4050 2300 0    50   Input ~ 0
OSC_ATT_OUT
Text GLabel 4050 1900 0    50   Input ~ 0
OSC_IN
Text GLabel 3500 750  0    50   Input ~ 0
ATT_REALY_CTRL
$Comp
L power:+3.3V #PWR022
U 1 1 5D765F9A
P 4850 1400
F 0 "#PWR022" H 4850 1250 50  0001 C CNN
F 1 "+3.3V" H 4865 1573 50  0000 C CNN
F 2 "" H 4850 1400 50  0001 C CNN
F 3 "" H 4850 1400 50  0001 C CNN
	1    4850 1400
	1    0    0    -1  
$EndComp
Wire Wire Line
	4850 1400 4850 1500
Wire Wire Line
	4850 1500 4750 1500
$Comp
L Device:Q_NPN_BEC Q2
U 1 1 5D76D067
P 3550 1400
F 0 "Q2" V 3785 1400 50  0000 C CNN
F 1 "Q_NPN_BEC" V 3876 1400 50  0000 C CNN
F 2 "TO_SOT_Packages_SMD:SOT-23" H 3750 1500 50  0001 C CNN
F 3 "~" H 3550 1400 50  0001 C CNN
	1    3550 1400
	0    1    1    0   
$EndComp
$Comp
L Device:R R9
U 1 1 5D76F14B
P 3550 1000
F 0 "R9" H 3620 1046 50  0000 L CNN
F 1 "R" H 3620 955 50  0000 L CNN
F 2 "Resistors_SMD:R_0603" V 3480 1000 50  0001 C CNN
F 3 "~" H 3550 1000 50  0001 C CNN
	1    3550 1000
	1    0    0    -1  
$EndComp
Wire Wire Line
	3500 750  3550 750 
Wire Wire Line
	3550 750  3550 850 
Wire Wire Line
	3550 1200 3550 1150
$Comp
L Device:R R8
U 1 1 5D77D135
P 3200 1350
F 0 "R8" H 3270 1396 50  0000 L CNN
F 1 "R" H 3270 1305 50  0000 L CNN
F 2 "Resistors_SMD:R_0603" V 3130 1350 50  0001 C CNN
F 3 "~" H 3200 1350 50  0001 C CNN
	1    3200 1350
	1    0    0    -1  
$EndComp
Wire Wire Line
	3350 1500 3200 1500
Wire Wire Line
	3200 1200 3200 1150
Wire Wire Line
	3200 1150 3550 1150
Connection ~ 3550 1150
$Comp
L Device:D D3
U 1 1 5D78AE62
P 4350 950
F 0 "D3" H 4350 734 50  0000 C CNN
F 1 "D" H 4350 825 50  0000 C CNN
F 2 "Diodes_SMD:D_0603" H 4350 950 50  0001 C CNN
F 3 "~" H 4350 950 50  0001 C CNN
	1    4350 950 
	-1   0    0    1   
$EndComp
Wire Wire Line
	3750 1500 3950 1500
Wire Wire Line
	3950 1500 3950 950 
Wire Wire Line
	3950 950  4200 950 
Connection ~ 3950 1500
Wire Wire Line
	3950 1500 4050 1500
Wire Wire Line
	4500 950  4750 950 
Wire Wire Line
	4750 950  4750 1500
Connection ~ 4750 1500
Wire Wire Line
	4750 1500 4650 1500
$Comp
L power:GND #PWR01
U 1 1 5D7B6D4A
P 850 1500
F 0 "#PWR01" H 850 1250 50  0001 C CNN
F 1 "GND" V 855 1372 50  0000 R CNN
F 2 "" H 850 1500 50  0001 C CNN
F 3 "" H 850 1500 50  0001 C CNN
	1    850  1500
	0    1    1    0   
$EndComp
$Comp
L Relay:IM00 K1
U 1 1 5D7B6D50
P 2100 1900
F 0 "K1" V 1333 1900 50  0000 C CNN
F 1 "IM00" V 1424 1900 50  0000 C CNN
F 2 "Relays_THT:Relay_DPDT_AXICOM_IMSeries_Pitch5.08mm" H 1900 1900 50  0001 C CNN
F 3 "http://www.te.com/commerce/DocumentDelivery/DDEController?Action=srchrtrv&DocNm=108-98001&DocType=SS&DocLang=EN" H 1900 1900 50  0001 C CNN
	1    2100 1900
	0    1    1    0   
$EndComp
Text GLabel 1250 750  0    50   Input ~ 0
ACDC_REALY_CTRL
$Comp
L power:+3.3V #PWR017
U 1 1 5D7B6D5D
P 2600 1400
F 0 "#PWR017" H 2600 1250 50  0001 C CNN
F 1 "+3.3V" H 2615 1573 50  0000 C CNN
F 2 "" H 2600 1400 50  0001 C CNN
F 3 "" H 2600 1400 50  0001 C CNN
	1    2600 1400
	1    0    0    -1  
$EndComp
Wire Wire Line
	2600 1400 2600 1500
Wire Wire Line
	2600 1500 2500 1500
$Comp
L Device:Q_NPN_BEC Q1
U 1 1 5D7B6D65
P 1300 1400
F 0 "Q1" V 1535 1400 50  0000 C CNN
F 1 "Q_NPN_BEC" V 1626 1400 50  0000 C CNN
F 2 "TO_SOT_Packages_SMD:SOT-23" H 1500 1500 50  0001 C CNN
F 3 "~" H 1300 1400 50  0001 C CNN
	1    1300 1400
	0    1    1    0   
$EndComp
$Comp
L Device:R R3
U 1 1 5D7B6D6B
P 1300 1000
F 0 "R3" H 1370 1046 50  0000 L CNN
F 1 "R" H 1370 955 50  0000 L CNN
F 2 "Resistors_SMD:R_0603" V 1230 1000 50  0001 C CNN
F 3 "~" H 1300 1000 50  0001 C CNN
	1    1300 1000
	1    0    0    -1  
$EndComp
Wire Wire Line
	1250 750  1300 750 
Wire Wire Line
	1300 750  1300 850 
Wire Wire Line
	1300 1200 1300 1150
$Comp
L Device:R R1
U 1 1 5D7B6D74
P 950 1350
F 0 "R1" H 1020 1396 50  0000 L CNN
F 1 "R" H 1020 1305 50  0000 L CNN
F 2 "Resistors_SMD:R_0603" V 880 1350 50  0001 C CNN
F 3 "~" H 950 1350 50  0001 C CNN
	1    950  1350
	1    0    0    -1  
$EndComp
Wire Wire Line
	1100 1500 950  1500
Wire Wire Line
	950  1200 950  1150
Wire Wire Line
	950  1150 1300 1150
Connection ~ 1300 1150
$Comp
L Device:D D2
U 1 1 5D7B6D80
P 2100 950
F 0 "D2" H 2100 734 50  0000 C CNN
F 1 "D" H 2100 825 50  0000 C CNN
F 2 "Diodes_SMD:D_0603" H 2100 950 50  0001 C CNN
F 3 "~" H 2100 950 50  0001 C CNN
	1    2100 950 
	-1   0    0    1   
$EndComp
Wire Wire Line
	1500 1500 1700 1500
Wire Wire Line
	1700 1500 1700 950 
Wire Wire Line
	1700 950  1950 950 
Connection ~ 1700 1500
Wire Wire Line
	1700 1500 1800 1500
Wire Wire Line
	2250 950  2500 950 
Wire Wire Line
	2500 950  2500 1500
Connection ~ 2500 1500
Wire Wire Line
	2500 1500 2400 1500
Wire Wire Line
	850  1500 950  1500
Connection ~ 950  1500
$Comp
L power:GND #PWR019
U 1 1 5D93304E
P 3050 1500
F 0 "#PWR019" H 3050 1250 50  0001 C CNN
F 1 "GND" V 3055 1372 50  0000 R CNN
F 2 "" H 3050 1500 50  0001 C CNN
F 3 "" H 3050 1500 50  0001 C CNN
	1    3050 1500
	0    1    1    0   
$EndComp
Wire Wire Line
	3200 1500 3050 1500
Connection ~ 3200 1500
Wire Notes Line
	500  7750 4000 7750
Wire Notes Line
	4050 5950 4050 7750
Wire Notes Line
	4050 7750 6950 7750
Wire Notes Line
	6950 7750 6950 5950
Wire Notes Line
	6950 5950 4050 5950
Wire Notes Line
	5400 550  5400 3450
Wire Notes Line
	5400 3450 11150 3450
Wire Notes Line
	11150 3450 11150 550 
Wire Notes Line
	11150 550  5400 550 
Wire Notes Line
	500  3450 5350 3450
Wire Notes Line
	5350 3450 5350 550 
Wire Notes Line
	5350 550  500  550 
Wire Notes Line
	500  550  500  3450
Entry Wire Line
	8250 10400 8150 10300
Entry Wire Line
	8250 10700 8150 10600
Entry Wire Line
	8250 11000 8150 10900
Entry Wire Line
	8250 11100 8150 11000
Entry Wire Line
	8250 11300 8150 11200
Entry Wire Line
	8250 11400 8150 11300
Entry Wire Line
	8250 10500 8150 10400
Entry Wire Line
	8250 10800 8150 10700
Text GLabel 8150 10200 0    50   Input ~ 0
ADC2_DATA[0:7]
Text Label 8350 10400 2    50   ~ 0
A2_D0
Text Label 8350 10500 2    50   ~ 0
A2_D1
Text Label 8350 10700 2    50   ~ 0
A2_D2
Text Label 8350 10800 2    50   ~ 0
A2_D3
Text Label 8350 11000 2    50   ~ 0
A2_D4
Text Label 8350 11100 2    50   ~ 0
A2_D5
Text Label 8350 11300 2    50   ~ 0
A2_D6
Text Label 8350 11400 2    50   ~ 0
A2_D7
Wire Wire Line
	8500 10400 8250 10400
Wire Wire Line
	8500 10500 8250 10500
Wire Wire Line
	8500 10700 8250 10700
Wire Wire Line
	8500 10800 8250 10800
Wire Wire Line
	8500 11000 8250 11000
Wire Wire Line
	8500 11100 8250 11100
Wire Wire Line
	8500 11400 8250 11400
Entry Wire Line
	8250 11600 8150 11500
Entry Wire Line
	8250 11900 8150 11800
Entry Wire Line
	8250 12200 8150 12100
Entry Wire Line
	8250 12300 8150 12200
Entry Wire Line
	8250 12500 8150 12400
Entry Wire Line
	8250 12600 8150 12500
Entry Wire Line
	8250 11700 8150 11600
Entry Wire Line
	8250 12000 8150 11900
Text GLabel 8150 11400 0    50   Input ~ 0
ADC1_DATA[0:7]
Text Label 8350 11600 2    50   ~ 0
A1_D0
Text Label 8350 11700 2    50   ~ 0
A1_D1
Text Label 8350 11900 2    50   ~ 0
A1_D2
Text Label 8350 12000 2    50   ~ 0
A1_D3
Text Label 8350 12200 2    50   ~ 0
A1_D4
Text Label 8350 12300 2    50   ~ 0
A1_D5
Text Label 8350 12500 2    50   ~ 0
A1_D6
Text Label 8350 12600 2    50   ~ 0
A1_D7
Wire Wire Line
	8500 11600 8250 11600
Wire Wire Line
	8500 11700 8250 11700
Wire Wire Line
	8500 11900 8250 11900
Wire Wire Line
	8500 12000 8250 12000
Wire Wire Line
	8500 12200 8250 12200
Wire Wire Line
	8500 12300 8250 12300
Wire Wire Line
	8500 12500 8250 12500
Wire Wire Line
	8500 12600 8250 12600
Text GLabel 8200 9500 0    50   Input ~ 0
ATT_REALY_CTRL
Text GLabel 8200 9600 0    50   Input ~ 0
ACDC_REALY_CTRL
Text GLabel 8200 9200 0    50   Input ~ 0
ADC2_CLK
Text GLabel 8200 9100 0    50   Input ~ 0
ADC1_CLK
Text GLabel 9650 5200 2    50   Input ~ 0
PWR_AMP_CLK
Text GLabel 9650 5100 2    50   Input ~ 0
PWR_AMP_DATA
Text GLabel 9650 5300 2    50   Input ~ 0
PWR_AMP_LATCH
Text GLabel 8200 9900 0    50   Input ~ 0
PWR_AMP_CLK
Text GLabel 8200 10100 0    50   Input ~ 0
PWR_AMP_DATA
Text GLabel 8200 9800 0    50   Input ~ 0
PWR_AMP_LATCH
Wire Wire Line
	8200 9100 8500 9100
Wire Wire Line
	8500 9200 8200 9200
Wire Wire Line
	8200 9500 8500 9500
Wire Wire Line
	8500 9600 8200 9600
Wire Wire Line
	8200 9800 8500 9800
Wire Wire Line
	8500 9900 8200 9900
Wire Wire Line
	8200 10100 8500 10100
Wire Wire Line
	9200 5600 9650 5600
Wire Wire Line
	9650 5300 9200 5300
Wire Wire Line
	9200 5200 9650 5200
Wire Wire Line
	9650 5100 9200 5100
Wire Wire Line
	9200 4900 9650 4900
Wire Notes Line
	2750 6100 3750 6100
Wire Notes Line
	2750 6350 3750 6350
$Comp
L Device:C C1
U 1 1 5D855F6A
P 1400 4000
F 0 "C1" V 1350 4100 50  0000 C CNN
F 1 "C" V 1450 4100 50  0000 C CNN
F 2 "Capacitors_SMD:C_0603" H 1438 3850 50  0001 C CNN
F 3 "~" H 1400 4000 50  0001 C CNN
	1    1400 4000
	0    1    1    0   
$EndComp
Wire Wire Line
	1250 4000 1150 4000
Wire Wire Line
	1150 4000 1150 3800
Connection ~ 1150 3800
Wire Wire Line
	1150 3800 1250 3800
Wire Wire Line
	1550 4000 1700 4000
Wire Wire Line
	1700 4000 1700 3800
Connection ~ 1700 3800
Wire Wire Line
	1700 3800 1750 3800
$Comp
L Device:C C6
U 1 1 5D872447
P 1900 4000
F 0 "C6" V 1850 4100 50  0000 C CNN
F 1 "C" V 1950 4100 50  0000 C CNN
F 2 "Capacitors_SMD:C_0603" H 1938 3850 50  0001 C CNN
F 3 "~" H 1900 4000 50  0001 C CNN
	1    1900 4000
	0    1    1    0   
$EndComp
Wire Wire Line
	1750 4000 1700 4000
Connection ~ 1700 4000
$Comp
L power:GNDA #PWR013
U 1 1 5D8810F9
P 2150 4000
F 0 "#PWR013" H 2150 3750 50  0001 C CNN
F 1 "GNDA" H 2155 3827 50  0000 C CNN
F 2 "" H 2150 4000 50  0001 C CNN
F 3 "" H 2150 4000 50  0001 C CNN
	1    2150 4000
	0    -1   -1   0   
$EndComp
Wire Wire Line
	2150 4000 2050 4000
$Comp
L Device:C C2
U 1 1 5D89FAD2
P 1400 4200
F 0 "C2" V 1350 4300 50  0000 C CNN
F 1 "C" V 1450 4300 50  0000 C CNN
F 2 "Capacitors_SMD:C_0603" H 1438 4050 50  0001 C CNN
F 3 "~" H 1400 4200 50  0001 C CNN
	1    1400 4200
	0    1    1    0   
$EndComp
Wire Wire Line
	1250 4200 1150 4200
Wire Wire Line
	1150 4200 1150 4000
Connection ~ 1150 4000
Wire Wire Line
	1550 4200 1700 4200
Wire Wire Line
	1700 4200 1700 4000
$Comp
L Device:C C4
U 1 1 5D8F7D7F
P 1400 4650
F 0 "C4" V 1350 4750 50  0000 C CNN
F 1 "C" V 1450 4750 50  0000 C CNN
F 2 "Capacitors_SMD:C_0603" H 1438 4500 50  0001 C CNN
F 3 "~" H 1400 4650 50  0001 C CNN
	1    1400 4650
	0    1    1    0   
$EndComp
$Comp
L Device:C C3
U 1 1 5D8F813E
P 1400 4450
F 0 "C3" V 1350 4550 50  0000 C CNN
F 1 "C" V 1450 4550 50  0000 C CNN
F 2 "Capacitors_SMD:C_0603" H 1438 4300 50  0001 C CNN
F 3 "~" H 1400 4450 50  0001 C CNN
	1    1400 4450
	0    1    1    0   
$EndComp
Wire Wire Line
	1150 5000 1150 4650
Wire Wire Line
	1150 4650 1250 4650
Wire Wire Line
	1150 4650 1150 4450
Wire Wire Line
	1150 4450 1250 4450
Connection ~ 1150 4650
Wire Wire Line
	1550 4450 1650 4450
Wire Wire Line
	1650 4450 1650 4650
Wire Wire Line
	1550 4650 1650 4650
Wire Wire Line
	1650 4650 1650 4800
Connection ~ 1650 4650
$Comp
L Device:C C5
U 1 1 5D949217
P 1850 4800
F 0 "C5" V 1800 4900 50  0000 C CNN
F 1 "C" V 1900 4900 50  0000 C CNN
F 2 "Capacitors_SMD:C_0603" H 1888 4650 50  0001 C CNN
F 3 "~" H 1850 4800 50  0001 C CNN
	1    1850 4800
	0    1    1    0   
$EndComp
$Comp
L power:GNDA #PWR012
U 1 1 5D94921D
P 2100 4800
F 0 "#PWR012" H 2100 4550 50  0001 C CNN
F 1 "GNDA" H 2105 4627 50  0000 C CNN
F 2 "" H 2100 4800 50  0001 C CNN
F 3 "" H 2100 4800 50  0001 C CNN
	1    2100 4800
	0    -1   -1   0   
$EndComp
Wire Wire Line
	2100 4800 2000 4800
Wire Wire Line
	1700 4800 1650 4800
Connection ~ 1650 4800
Wire Wire Line
	1650 4800 1650 5000
$Comp
L Diode:BAT54S D1
U 1 1 5D97236B
P 900 6200
F 0 "D1" V 946 6288 50  0000 L CNN
F 1 "BAT54S" V 855 6288 50  0000 L CNN
F 2 "TO_SOT_Packages_SMD:SOT-23" H 975 6325 50  0001 L CNN
F 3 "https://www.diodes.com/assets/Datasheets/ds11005.pdf" H 780 6200 50  0001 C CNN
	1    900  6200
	0    -1   -1   0   
$EndComp
Wire Wire Line
	1250 6800 1350 6800
Wire Wire Line
	1100 6200 1350 6200
Wire Wire Line
	1350 6200 1350 6800
Connection ~ 1350 6800
Wire Wire Line
	1350 6800 1900 6800
Text Label 9400 5950 0    50   ~ 0
ADC_REF
Wire Wire Line
	9400 5950 9400 5500
Connection ~ 9400 5500
Wire Notes Line
	4000 3500 500  3500
Wire Notes Line
	4000 3500 4000 7750
Wire Notes Line
	500  3500 500  7750
$Comp
L lattice:ADA4817 U1
U 1 1 5DA39052
P 2350 6700
F 0 "U1" H 2794 6721 50  0000 L CNN
F 1 "ADA4817" H 2794 6630 50  0000 L CNN
F 2 "Housings_SOIC:SOIC-8-1EP_3.9x4.9mm_Pitch1.27mm" H 2100 7050 50  0001 C CNN
F 3 "https://www.analog.com/media/en/technical-documentation/data-sheets/ADA4817-1_4817-2.pdf" H 2100 7050 50  0001 C CNN
	1    2350 6700
	1    0    0    -1  
$EndComp
Wire Wire Line
	1900 6600 1750 6600
Wire Wire Line
	1750 6600 1750 6700
Wire Wire Line
	1900 6500 1850 6500
Wire Wire Line
	1850 6500 1850 6400
$Comp
L lattice:LPC-FMC-Zedboard_Counter U2
U 1 1 5D8C913D
P 3600 10950
F 0 "U2" H 3600 13125 50  0000 C CNN
F 1 "LPC-FMC-Zedboard_Counter" H 3600 13034 50  0000 C CNN
F 2 "Connectors:FMC_LPC_ASP-134604-01" H 3250 8900 50  0001 C CNN
F 3 "" H 3600 10950 50  0001 C CNN
	1    3600 10950
	1    0    0    -1  
$EndComp
$Comp
L lattice:LPC-FMC-Zedboard_Counter U2
U 2 1 5D8CA9D9
P 9150 10950
F 0 "U2" H 9150 13125 50  0000 C CNN
F 1 "LPC-FMC-Zedboard_Counter" H 9150 13034 50  0000 C CNN
F 2 "Connectors:FMC_LPC_ASP-134604-01" H 8800 8900 50  0001 C CNN
F 3 "" H 9150 10950 50  0001 C CNN
	2    9150 10950
	1    0    0    -1  
$EndComp
$Comp
L power:GNDA #PWR07
U 1 1 5D8DACAC
P 1300 9200
F 0 "#PWR07" H 1300 8950 50  0001 C CNN
F 1 "GNDA" H 1305 9027 50  0000 C CNN
F 2 "" H 1300 9200 50  0001 C CNN
F 3 "" H 1300 9200 50  0001 C CNN
	1    1300 9200
	1    0    0    -1  
$EndComp
$Comp
L power:GND #PWR09
U 1 1 5D8F6EF4
P 1600 9200
F 0 "#PWR09" H 1600 8950 50  0001 C CNN
F 1 "GND" H 1605 9027 50  0000 C CNN
F 2 "" H 1600 9200 50  0001 C CNN
F 3 "" H 1600 9200 50  0001 C CNN
	1    1600 9200
	1    0    0    -1  
$EndComp
$Comp
L power:+3.3V #PWR06
U 1 1 5D8F7D3C
P 1300 8900
F 0 "#PWR06" H 1300 8750 50  0001 C CNN
F 1 "+3.3V" H 1315 9073 50  0000 C CNN
F 2 "" H 1300 8900 50  0001 C CNN
F 3 "" H 1300 8900 50  0001 C CNN
	1    1300 8900
	1    0    0    -1  
$EndComp
$Comp
L power:+3.3VA #PWR08
U 1 1 5D8F8B77
P 1600 8900
F 0 "#PWR08" H 1600 8750 50  0001 C CNN
F 1 "+3.3VA" H 1615 9073 50  0000 C CNN
F 2 "" H 1600 8900 50  0001 C CNN
F 3 "" H 1600 8900 50  0001 C CNN
	1    1600 8900
	1    0    0    -1  
$EndComp
Wire Wire Line
	1300 9200 1300 9100
Wire Wire Line
	1300 9100 1600 9100
Wire Wire Line
	1600 9100 1600 9200
Wire Wire Line
	1600 8900 1600 9000
Wire Wire Line
	1600 9000 1300 9000
Wire Wire Line
	1300 9000 1300 8900
$Comp
L power:GND #PWR018
U 1 1 5D91F0D4
P 2800 13050
F 0 "#PWR018" H 2800 12800 50  0001 C CNN
F 1 "GND" H 2805 12877 50  0000 C CNN
F 2 "" H 2800 13050 50  0001 C CNN
F 3 "" H 2800 13050 50  0001 C CNN
	1    2800 13050
	1    0    0    -1  
$EndComp
$Comp
L power:+3.3V #PWR021
U 1 1 5D9239A0
P 4800 12000
F 0 "#PWR021" H 4800 11850 50  0001 C CNN
F 1 "+3.3V" H 4815 12173 50  0000 C CNN
F 2 "" H 4800 12000 50  0001 C CNN
F 3 "" H 4800 12000 50  0001 C CNN
	1    4800 12000
	1    0    0    -1  
$EndComp
Wire Wire Line
	2800 13050 2800 12900
Wire Wire Line
	2800 12900 2950 12900
Wire Wire Line
	2800 12900 2800 12700
Wire Wire Line
	2800 12700 2950 12700
Connection ~ 2800 12900
Wire Wire Line
	2800 12700 2800 12500
Wire Wire Line
	2800 9000 2950 9000
Connection ~ 2800 12700
Wire Wire Line
	2950 9300 2800 9300
Connection ~ 2800 9300
Wire Wire Line
	2800 9300 2800 9000
Wire Wire Line
	2950 9400 2800 9400
Connection ~ 2800 9400
Wire Wire Line
	2800 9400 2800 9300
Wire Wire Line
	2950 9800 2800 9800
Connection ~ 2800 9800
Wire Wire Line
	2800 9800 2800 9700
Wire Wire Line
	2950 9700 2800 9700
Connection ~ 2800 9700
Wire Wire Line
	2800 9700 2800 9400
Wire Wire Line
	2950 10100 2800 10100
Connection ~ 2800 10100
Wire Wire Line
	2800 10100 2800 9800
Wire Wire Line
	2950 10200 2800 10200
Connection ~ 2800 10200
Wire Wire Line
	2800 10200 2800 10100
Wire Wire Line
	2950 10500 2800 10500
Connection ~ 2800 10500
Wire Wire Line
	2800 10500 2800 10200
Wire Wire Line
	2950 10600 2800 10600
Connection ~ 2800 10600
Wire Wire Line
	2800 10600 2800 10500
Wire Wire Line
	2950 10900 2800 10900
Connection ~ 2800 10900
Wire Wire Line
	2800 10900 2800 10600
Wire Wire Line
	2950 11000 2800 11000
Connection ~ 2800 11000
Wire Wire Line
	2800 11000 2800 10900
Wire Wire Line
	2950 11300 2800 11300
Connection ~ 2800 11300
Wire Wire Line
	2800 11300 2800 11000
Wire Wire Line
	2950 11400 2800 11400
Connection ~ 2800 11400
Wire Wire Line
	2800 11400 2800 11300
Wire Wire Line
	2950 11700 2800 11700
Connection ~ 2800 11700
Wire Wire Line
	2800 11700 2800 11400
Wire Wire Line
	2950 11800 2800 11800
Connection ~ 2800 11800
Wire Wire Line
	2800 11800 2800 11700
Wire Wire Line
	2950 12100 2800 12100
Connection ~ 2800 12100
Wire Wire Line
	2800 12100 2800 11800
Wire Wire Line
	2950 12200 2800 12200
Connection ~ 2800 12200
Wire Wire Line
	2800 12200 2800 12100
Wire Wire Line
	2950 12300 2800 12300
Connection ~ 2800 12300
Wire Wire Line
	2800 12300 2800 12200
Wire Wire Line
	2950 12500 2800 12500
Connection ~ 2800 12500
Wire Wire Line
	2800 12500 2800 12300
Wire Wire Line
	4800 12000 4800 12100
Wire Wire Line
	4800 12100 4250 12100
Wire Wire Line
	4250 12500 4800 12500
Wire Wire Line
	4800 12500 4800 12100
Connection ~ 4800 12100
Wire Wire Line
	4250 12700 4800 12700
Wire Wire Line
	4800 12700 4800 12500
Connection ~ 4800 12500
Wire Wire Line
	4250 12900 4800 12900
Wire Wire Line
	4800 12900 4800 12700
Connection ~ 4800 12700
$Comp
L power:GND #PWR020
U 1 1 5DB4F58F
P 4400 13050
F 0 "#PWR020" H 4400 12800 50  0001 C CNN
F 1 "GND" H 4405 12877 50  0000 C CNN
F 2 "" H 4400 13050 50  0001 C CNN
F 3 "" H 4400 13050 50  0001 C CNN
	1    4400 13050
	1    0    0    -1  
$EndComp
Wire Wire Line
	4250 12800 4400 12800
Wire Wire Line
	4400 12800 4400 13050
Wire Wire Line
	4250 12600 4400 12600
Wire Wire Line
	4400 12600 4400 12800
Connection ~ 4400 12800
Wire Wire Line
	4400 9100 4250 9100
Wire Wire Line
	4400 9100 4400 9200
Connection ~ 4400 12600
Wire Wire Line
	4250 12400 4400 12400
Connection ~ 4400 12400
Wire Wire Line
	4400 12400 4400 12600
Wire Wire Line
	4250 11700 4400 11700
Connection ~ 4400 11700
Wire Wire Line
	4400 11700 4400 12400
Wire Wire Line
	4250 11400 4400 11400
Connection ~ 4400 11400
Wire Wire Line
	4400 11400 4400 11700
Wire Wire Line
	4250 11100 4400 11100
Connection ~ 4400 11100
Wire Wire Line
	4400 11100 4400 11400
Wire Wire Line
	4250 10800 4400 10800
Connection ~ 4400 10800
Wire Wire Line
	4400 10800 4400 11100
Wire Wire Line
	4250 10500 4400 10500
Connection ~ 4400 10500
Wire Wire Line
	4400 10500 4400 10800
Wire Wire Line
	4250 10200 4400 10200
Connection ~ 4400 10200
Wire Wire Line
	4400 10200 4400 10500
Wire Wire Line
	4250 9900 4400 9900
Connection ~ 4400 9900
Wire Wire Line
	4400 9900 4400 10200
Wire Wire Line
	4250 9600 4400 9600
Connection ~ 4400 9600
Wire Wire Line
	4400 9600 4400 9900
Wire Wire Line
	4250 9500 4400 9500
Connection ~ 4400 9500
Wire Wire Line
	4400 9500 4400 9600
Wire Wire Line
	4250 9200 4400 9200
Connection ~ 4400 9200
Wire Wire Line
	4400 9200 4400 9500
$Comp
L power:+3.3V #PWR014
U 1 1 5DCE52DD
P 2200 12750
F 0 "#PWR014" H 2200 12600 50  0001 C CNN
F 1 "+3.3V" H 2215 12923 50  0000 C CNN
F 2 "" H 2200 12750 50  0001 C CNN
F 3 "" H 2200 12750 50  0001 C CNN
	1    2200 12750
	1    0    0    -1  
$EndComp
Wire Wire Line
	2200 12800 2200 12750
$Comp
L power:GND #PWR038
U 1 1 5DD07320
P 8400 13000
F 0 "#PWR038" H 8400 12750 50  0001 C CNN
F 1 "GND" H 8405 12827 50  0000 C CNN
F 2 "" H 8400 13000 50  0001 C CNN
F 3 "" H 8400 13000 50  0001 C CNN
	1    8400 13000
	1    0    0    -1  
$EndComp
Wire Wire Line
	8400 13000 8400 12900
Wire Wire Line
	8400 12900 8500 12900
Wire Wire Line
	8400 12900 8400 12700
Wire Wire Line
	8400 9000 8500 9000
Connection ~ 8400 12900
Connection ~ 8400 9300
Wire Wire Line
	8400 9300 8400 9000
Wire Wire Line
	8400 9400 8500 9400
Connection ~ 8400 9400
Wire Wire Line
	8400 9400 8400 9300
Connection ~ 8400 9700
Wire Wire Line
	8400 9700 8400 9400
Wire Wire Line
	8500 9300 8400 9300
Wire Wire Line
	8400 9700 8500 9700
Wire Wire Line
	8400 10000 8500 10000
Connection ~ 8400 10000
Wire Wire Line
	8400 10000 8400 9700
Wire Wire Line
	8500 10300 8400 10300
Connection ~ 8400 10300
Wire Wire Line
	8400 10300 8400 10000
Wire Wire Line
	8400 10600 8500 10600
Connection ~ 8400 10600
Wire Wire Line
	8400 10600 8400 10300
Wire Wire Line
	8500 10900 8400 10900
Wire Wire Line
	8400 10900 8400 10600
Wire Wire Line
	8500 11200 8400 11200
Wire Wire Line
	8500 11500 8400 11500
Wire Wire Line
	8500 11800 8400 11800
Connection ~ 8400 11800
Wire Wire Line
	8400 11800 8400 11500
Wire Wire Line
	8500 12100 8400 12100
Connection ~ 8400 12100
Wire Wire Line
	8400 12100 8400 11800
Wire Wire Line
	8500 12400 8400 12400
Connection ~ 8400 12400
Wire Wire Line
	8400 12400 8400 12100
Wire Wire Line
	8500 12700 8400 12700
Connection ~ 8400 12700
Wire Wire Line
	8400 12700 8400 12400
$Comp
L power:GND #PWR047
U 1 1 5DF2535B
P 9900 13000
F 0 "#PWR047" H 9900 12750 50  0001 C CNN
F 1 "GND" H 9905 12827 50  0000 C CNN
F 2 "" H 9900 13000 50  0001 C CNN
F 3 "" H 9900 13000 50  0001 C CNN
	1    9900 13000
	1    0    0    -1  
$EndComp
Wire Wire Line
	9900 13000 9900 12800
Wire Wire Line
	9900 12800 9800 12800
Wire Wire Line
	9800 12500 9900 12500
Wire Wire Line
	9900 12500 9900 12800
Connection ~ 9900 12800
Wire Wire Line
	9900 12500 9900 12200
Wire Wire Line
	9900 12200 9800 12200
Connection ~ 9900 12500
Wire Wire Line
	9900 12200 9900 11900
Wire Wire Line
	9900 11900 9800 11900
Connection ~ 9900 12200
Wire Wire Line
	9900 11900 9900 11600
Wire Wire Line
	9900 11600 9800 11600
Connection ~ 9900 11900
Wire Wire Line
	9800 11300 9900 11300
Wire Wire Line
	9900 11300 9900 11600
Connection ~ 9900 11600
Wire Wire Line
	9900 11000 9800 11000
Connection ~ 9900 11300
Wire Wire Line
	9800 10700 9900 10700
Wire Wire Line
	9900 10700 9900 11000
Connection ~ 9900 11000
Wire Wire Line
	9900 11000 9900 11300
Wire Wire Line
	9900 10700 9900 10400
Wire Wire Line
	9900 10400 9800 10400
Connection ~ 9900 10700
Wire Wire Line
	9800 10100 9900 10100
Wire Wire Line
	9900 10100 9900 10400
Connection ~ 9900 10400
Wire Wire Line
	9900 10100 9900 9800
Wire Wire Line
	9900 9200 9800 9200
Connection ~ 9900 10100
Wire Wire Line
	9800 9800 9900 9800
Connection ~ 9900 9800
Wire Wire Line
	9900 9800 9900 9500
Wire Wire Line
	9800 9500 9900 9500
Connection ~ 9900 9500
Wire Wire Line
	9900 9500 9900 9200
Wire Wire Line
	2950 12800 2200 12800
$Comp
L Connector:Conn_Coaxial J1
U 1 1 5E616A18
P 750 1900
F 0 "J1" H 678 2138 50  0000 C CNN
F 1 "Conn_Coaxial" H 678 2047 50  0000 C CNN
F 2 "Connectors:bnc-ci" H 750 1900 50  0001 C CNN
F 3 " ~" H 750 1900 50  0001 C CNN
	1    750  1900
	-1   0    0    -1  
$EndComp
Wire Wire Line
	750  2200 750  2100
Wire Wire Line
	2400 2000 2700 2000
Wire Wire Line
	3100 2000 3000 2000
Text GLabel 3100 2000 2    50   Input ~ 0
OSC_IN
$Comp
L Device:C C7
U 1 1 5D62ECE3
P 2850 2000
F 0 "C7" V 3102 2000 50  0000 C CNN
F 1 "0.1uF" V 3011 2000 50  0000 C CNN
F 2 "Capacitors_SMD:C_0603" H 2888 1850 50  0001 C CNN
F 3 "~" H 2850 2000 50  0001 C CNN
	1    2850 2000
	0    -1   -1   0   
$EndComp
Wire Wire Line
	1800 1900 950  1900
Wire Wire Line
	8250 11300 8500 11300
Wire Wire Line
	8400 10900 8400 11200
Connection ~ 8400 10900
Wire Wire Line
	8400 11500 8400 11200
Wire Bus Line
	7950 1350 7950 2150
Wire Bus Line
	10600 1350 10600 2150
Wire Bus Line
	8150 10200 8150 11300
Wire Bus Line
	8150 11400 8150 12500
Connection ~ 8400 11500
Connection ~ 8400 11200
$EndSCHEMATC
