EESchema Schematic File Version 4
LIBS:lnboard-cache
EELAYER 29 0
EELAYER END
$Descr A4 11693 8268
encoding utf-8
Sheet 2 5
Title ""
Date ""
Rev ""
Comp ""
Comment1 ""
Comment2 ""
Comment3 ""
Comment4 ""
$EndDescr
Text GLabel 5300 1850 2    50   BiDi ~ 0
TCK
Text GLabel 5300 1950 2    50   BiDi ~ 0
TDO
Text GLabel 5300 2050 2    50   BiDi ~ 0
TDI
Text GLabel 5300 2150 2    50   BiDi ~ 0
TMS
Wire Wire Line
	5100 1850 5300 1850
Wire Wire Line
	5300 1950 5100 1950
Wire Wire Line
	5100 2050 5300 2050
Wire Wire Line
	5300 2150 5100 2150
Wire Wire Line
	2700 2050 2350 2050
Wire Wire Line
	2350 2050 2350 1000
Wire Wire Line
	3700 1000 3700 1550
Wire Wire Line
	3800 1550 3800 1000
Wire Wire Line
	3800 1000 3700 1000
Connection ~ 3700 1000
Wire Wire Line
	3900 1550 3900 1000
Wire Wire Line
	3900 1000 3800 1000
Connection ~ 3800 1000
$Comp
L power:+3.3V #PWR?
U 1 1 5D66A61D
P 2650 1250
F 0 "#PWR?" H 2650 1100 50  0001 C CNN
F 1 "+3.3V" H 2665 1423 50  0000 C CNN
F 2 "" H 2650 1250 50  0001 C CNN
F 3 "" H 2650 1250 50  0001 C CNN
	1    2650 1250
	1    0    0    -1  
$EndComp
Wire Wire Line
	3500 1550 3500 1450
Wire Wire Line
	3500 1450 3400 1450
Wire Wire Line
	2650 1450 2650 1250
Wire Wire Line
	2650 1450 2650 1850
Wire Wire Line
	2650 1850 2700 1850
Connection ~ 2650 1450
Wire Wire Line
	3400 1550 3400 1450
Connection ~ 3400 1450
Wire Wire Line
	3400 1450 2650 1450
Text Label 1000 900  2    50   ~ 0
FTDI_VCC
$Comp
L power:+3.3V #PWR?
U 1 1 5D66D97E
P 1200 850
F 0 "#PWR?" H 1200 700 50  0001 C CNN
F 1 "+3.3V" H 1215 1023 50  0000 C CNN
F 2 "" H 1200 850 50  0001 C CNN
F 3 "" H 1200 850 50  0001 C CNN
	1    1200 850 
	1    0    0    -1  
$EndComp
Wire Wire Line
	1200 850  1200 900 
Wire Wire Line
	1200 900  1000 900 
Wire Wire Line
	4100 1550 4100 1450
Wire Wire Line
	4100 1450 4200 1450
Wire Wire Line
	4200 1550 4200 1450
Connection ~ 4200 1450
Wire Wire Line
	4200 1450 4250 1450
Wire Wire Line
	4250 1450 4300 1450
Wire Wire Line
	4300 1450 4300 1550
Connection ~ 4250 1450
Wire Wire Line
	4300 1450 4400 1450
Wire Wire Line
	4400 1450 4400 1550
Connection ~ 4300 1450
Wire Wire Line
	2600 5550 2600 6050
Wire Wire Line
	2700 5550 2600 5550
Wire Wire Line
	4200 5950 4200 6050
Wire Wire Line
	4200 6050 4100 6050
Connection ~ 4100 6050
Wire Wire Line
	4100 5950 4100 6050
Wire Wire Line
	4100 6050 4000 6050
Connection ~ 4000 6050
Wire Wire Line
	4000 5950 4000 6050
Wire Wire Line
	4000 6050 3900 6050
Connection ~ 3900 6050
Wire Wire Line
	3900 5950 3900 6050
Wire Wire Line
	3900 6050 3800 6050
Connection ~ 3800 6050
Wire Wire Line
	3800 5950 3800 6050
Wire Wire Line
	3700 6050 3800 6050
Connection ~ 3700 6050
Wire Wire Line
	3700 5950 3700 6050
Wire Wire Line
	3600 6050 3700 6050
Connection ~ 3600 6050
Wire Wire Line
	3600 5950 3600 6050
Wire Wire Line
	3500 6050 3600 6050
Connection ~ 3500 6050
Wire Wire Line
	3500 5950 3500 6050
Wire Wire Line
	3800 6050 3800 6150
Wire Wire Line
	2600 6050 3300 6050
Wire Wire Line
	3300 6050 3500 6050
Connection ~ 3300 6050
Wire Wire Line
	3300 5950 3300 6050
$Comp
L power:GND #PWR01
U 1 1 5D8D4ECB
P 3800 6150
F 0 "#PWR01" H 3800 5900 50  0001 C CNN
F 1 "GND" H 3805 5977 50  0000 C CNN
F 2 "" H 3800 6150 50  0001 C CNN
F 3 "" H 3800 6150 50  0001 C CNN
	1    3800 6150
	1    0    0    -1  
$EndComp
Connection ~ 2150 4650
Wire Wire Line
	2150 4550 2150 4650
Wire Wire Line
	2050 4650 2150 4650
Wire Wire Line
	1700 4650 1750 4650
$Comp
L Device:R R?
U 1 1 5D68FF50
P 1900 4650
F 0 "R?" V 1800 4800 50  0000 C CNN
F 1 "2.2K" V 1800 4650 50  0000 C CNN
F 2 "" V 1830 4650 50  0001 C CNN
F 3 "~" H 1900 4650 50  0001 C CNN
	1    1900 4650
	0    -1   -1   0   
$EndComp
Wire Wire Line
	900  4550 850  4550
Text Label 850  4550 2    50   ~ 0
FTDI_VCC
Wire Wire Line
	2550 4250 2550 4450
Wire Wire Line
	1700 4000 1700 4250
Wire Wire Line
	800  4000 1700 4000
Wire Wire Line
	800  4450 800  4000
Wire Wire Line
	900  4450 800  4450
Wire Wire Line
	2250 4450 1700 4450
Wire Wire Line
	2250 4550 2250 4450
Wire Wire Line
	2700 4550 2250 4550
Wire Wire Line
	2550 4450 2700 4450
Text Label 850  5100 2    50   ~ 0
FTDI_VCC
$Comp
L Memory_EEPROM:93CxxC U2
U 1 1 5D591500
P 1300 4550
F 0 "U2" H 1300 5031 50  0000 C CNN
F 1 "93CxxC" H 1300 4940 50  0000 C CNN
F 2 "" H 1300 4550 50  0001 C CNN
F 3 "http://ww1.microchip.com/downloads/en/DeviceDoc/20001749K.pdf" H 1300 4550 50  0001 C CNN
	1    1300 4550
	1    0    0    -1  
$EndComp
Wire Wire Line
	1700 4250 2550 4250
Wire Wire Line
	1950 4550 2150 4550
Wire Wire Line
	1700 4550 1950 4550
Connection ~ 1950 4550
Connection ~ 2550 4250
Connection ~ 2250 4450
Wire Wire Line
	2150 4650 2700 4650
Wire Wire Line
	1950 4100 1950 4550
Wire Wire Line
	2250 4450 2250 4100
Wire Wire Line
	2550 4100 2550 4250
Connection ~ 2250 3750
Wire Wire Line
	2550 3750 2550 3800
Wire Wire Line
	2250 3750 2550 3750
Connection ~ 2150 3750
Wire Wire Line
	2250 3750 2250 3800
Wire Wire Line
	2150 3750 2250 3750
Wire Wire Line
	2150 3750 2150 3650
Wire Wire Line
	1950 3750 2150 3750
Wire Wire Line
	1950 3800 1950 3750
$Comp
L Device:R R?
U 1 1 5D674C42
P 2550 3950
F 0 "R?" H 2620 3996 50  0000 L CNN
F 1 "10K" H 2620 3905 50  0000 L CNN
F 2 "" V 2480 3950 50  0001 C CNN
F 3 "~" H 2550 3950 50  0001 C CNN
	1    2550 3950
	1    0    0    -1  
$EndComp
$Comp
L Device:R R?
U 1 1 5D67489A
P 1950 3950
F 0 "R?" H 2020 3996 50  0000 L CNN
F 1 "10K" H 2020 3905 50  0000 L CNN
F 2 "" V 1880 3950 50  0001 C CNN
F 3 "~" H 1950 3950 50  0001 C CNN
	1    1950 3950
	1    0    0    -1  
$EndComp
$Comp
L Device:R R?
U 1 1 5D67465E
P 2250 3950
F 0 "R?" H 2320 3996 50  0000 L CNN
F 1 "10K" H 2320 3905 50  0000 L CNN
F 2 "" V 2180 3950 50  0001 C CNN
F 3 "~" H 2250 3950 50  0001 C CNN
	1    2250 3950
	1    0    0    -1  
$EndComp
Text Label 2150 3650 2    50   ~ 0
FTDI_VCC
Connection ~ 2550 3750
Wire Wire Line
	2550 3700 2550 3750
Wire Wire Line
	2550 3350 2550 3400
$Comp
L Device:R R?
U 1 1 5D6B4E7C
P 2550 3550
F 0 "R?" H 2620 3596 50  0000 L CNN
F 1 "10K" H 2620 3505 50  0000 L CNN
F 2 "" V 2480 3550 50  0001 C CNN
F 3 "~" H 2550 3550 50  0001 C CNN
	1    2550 3550
	1    0    0    -1  
$EndComp
Wire Wire Line
	2700 3350 2550 3350
Wire Wire Line
	2650 3150 2700 3150
$Comp
L power:GND #PWR?
U 1 1 5D6BB0DA
P 2250 3150
F 0 "#PWR?" H 2250 2900 50  0001 C CNN
F 1 "GND" H 2255 2977 50  0000 C CNN
F 2 "" H 2250 3150 50  0001 C CNN
F 3 "" H 2250 3150 50  0001 C CNN
	1    2250 3150
	0    1    1    0   
$EndComp
$Comp
L Device:R R?
U 1 1 5D6BC226
P 2500 3150
F 0 "R?" V 2400 3150 50  0000 C CNN
F 1 "12K" V 2600 3150 50  0000 C CNN
F 2 "" V 2430 3150 50  0001 C CNN
F 3 "~" H 2500 3150 50  0001 C CNN
	1    2500 3150
	0    1    1    0   
$EndComp
Wire Wire Line
	2250 3150 2350 3150
Wire Wire Line
	2550 2950 2700 2950
Wire Wire Line
	2700 2850 2550 2850
Text GLabel 2550 2850 0    50   Input ~ 0
FTDI_DM
Text GLabel 2550 2950 0    50   Input ~ 0
FTDI_DP
Wire Wire Line
	2100 5850 1850 5850
Connection ~ 2100 5850
$Comp
L power:GND #PWR?
U 1 1 5D6AD68E
P 2100 5850
F 0 "#PWR?" H 2100 5600 50  0001 C CNN
F 1 "GND" H 2105 5677 50  0000 C CNN
F 2 "" H 2100 5850 50  0001 C CNN
F 3 "" H 2100 5850 50  0001 C CNN
	1    2100 5850
	1    0    0    -1  
$EndComp
Wire Wire Line
	1850 5850 1850 5750
Wire Wire Line
	2350 5850 2100 5850
Wire Wire Line
	2350 5750 2350 5850
Wire Wire Line
	2350 5350 2700 5350
Connection ~ 2350 5350
Wire Wire Line
	2350 5450 2350 5350
Connection ~ 1850 5350
Wire Wire Line
	1850 4950 2700 4950
Wire Wire Line
	1850 5350 1850 4950
Wire Wire Line
	1850 5350 2000 5350
Wire Wire Line
	1850 5350 1850 5450
$Comp
L Device:C C?
U 1 1 5D6A37A2
P 2350 5600
F 0 "C?" H 2450 5650 50  0000 L CNN
F 1 "27p" H 2450 5550 50  0000 L CNN
F 2 "" H 2388 5450 50  0001 C CNN
F 3 "~" H 2350 5600 50  0001 C CNN
	1    2350 5600
	1    0    0    -1  
$EndComp
$Comp
L Device:C C?
U 1 1 5D6A329E
P 1850 5600
F 0 "C?" H 1965 5646 50  0000 L CNN
F 1 "27p" H 1965 5555 50  0000 L CNN
F 2 "" H 1888 5450 50  0001 C CNN
F 3 "~" H 1850 5600 50  0001 C CNN
	1    1850 5600
	1    0    0    -1  
$EndComp
Wire Wire Line
	2300 5350 2350 5350
$Comp
L Device:Crystal Y?
U 1 1 5D69E873
P 2150 5350
F 0 "Y?" H 2150 5618 50  0000 C CNN
F 1 "Crystal" H 2150 5527 50  0000 C CNN
F 2 "" H 2150 5350 50  0001 C CNN
F 3 "~" H 2150 5350 50  0001 C CNN
	1    2150 5350
	1    0    0    -1  
$EndComp
$Comp
L Interface_USB:FT2232H U3
U 1 1 5D8D1498
P 3900 3750
F 0 "U3" H 3900 6131 50  0000 C CNN
F 1 "FT2232H" H 3900 6040 50  0000 C CNN
F 2 "Housings_QFP:TQFP-64_10x10mm_Pitch0.5mm" H 3900 3750 50  0001 C CNN
F 3 "http://www.ftdichip.com/Products/ICs/FT2232H.html" H 3900 3750 50  0001 C CNN
	1    3900 3750
	1    0    0    -1  
$EndComp
Text GLabel 5350 3650 2    50   Input ~ 0
FTDI_TXD
Text GLabel 5350 3750 2    50   Input ~ 0
FTDI_RXD
Wire Wire Line
	5350 3650 5100 3650
Wire Wire Line
	5100 3750 5350 3750
$Comp
L Device:R R?
U 1 1 5D7970C7
P 5500 4650
F 0 "R?" H 5570 4696 50  0000 L CNN
F 1 "220R" H 5250 4600 50  0000 L CNN
F 2 "" V 5430 4650 50  0001 C CNN
F 3 "~" H 5500 4650 50  0001 C CNN
	1    5500 4650
	1    0    0    -1  
$EndComp
$Comp
L Device:R R?
U 1 1 5D797367
P 5750 4650
F 0 "R?" H 5820 4696 50  0000 L CNN
F 1 "220R" H 5820 4605 50  0000 L CNN
F 2 "" V 5680 4650 50  0001 C CNN
F 3 "~" H 5750 4650 50  0001 C CNN
	1    5750 4650
	1    0    0    -1  
$EndComp
Wire Wire Line
	5500 4850 5500 4800
Wire Wire Line
	5100 4850 5500 4850
Wire Wire Line
	5750 4950 5750 4800
Wire Wire Line
	5100 4950 5750 4950
Text Label 5500 4150 1    50   ~ 0
FTDI_VCC
Text Label 5750 4150 1    50   ~ 0
FTDI_VCC
Text GLabel 1200 900  3    50   Input ~ 0
JTAG_VCC
$Comp
L Device:LED D?
U 1 1 5D938FD0
P 5750 4350
F 0 "D?" V 5789 4233 50  0000 R CNN
F 1 "LED" V 5698 4233 50  0000 R CNN
F 2 "" H 5750 4350 50  0001 C CNN
F 3 "~" H 5750 4350 50  0001 C CNN
	1    5750 4350
	0    -1   -1   0   
$EndComp
$Comp
L Device:LED D?
U 1 1 5D93949A
P 5500 4350
F 0 "D?" V 5539 4233 50  0000 R CNN
F 1 "LED" V 5448 4233 50  0000 R CNN
F 2 "" H 5500 4350 50  0001 C CNN
F 3 "~" H 5500 4350 50  0001 C CNN
	1    5500 4350
	0    -1   -1   0   
$EndComp
Wire Wire Line
	5500 4200 5500 4150
Wire Wire Line
	5750 4150 5750 4200
Wire Wire Line
	2350 1000 3700 1000
$Comp
L power:GND #PWR?
U 1 1 5D95240D
P 2050 2500
F 0 "#PWR?" H 2050 2250 50  0001 C CNN
F 1 "GND" H 2055 2327 50  0000 C CNN
F 2 "" H 2050 2500 50  0001 C CNN
F 3 "" H 2050 2500 50  0001 C CNN
	1    2050 2500
	1    0    0    -1  
$EndComp
$Comp
L Device:C C?
U 1 1 5D952713
P 2050 2250
F 0 "C?" H 2165 2296 50  0000 L CNN
F 1 "4.7u" H 2165 2205 50  0000 L CNN
F 2 "" H 2088 2100 50  0001 C CNN
F 3 "~" H 2050 2250 50  0001 C CNN
	1    2050 2250
	1    0    0    -1  
$EndComp
Wire Wire Line
	2050 2500 2050 2450
Wire Wire Line
	2050 2100 2050 2050
Wire Wire Line
	2050 2050 2350 2050
Connection ~ 2350 2050
$Comp
L Device:C C?
U 1 1 5D959872
P 1650 2250
F 0 "C?" H 1765 2296 50  0000 L CNN
F 1 "100n" H 1765 2205 50  0000 L CNN
F 2 "" H 1688 2100 50  0001 C CNN
F 3 "~" H 1650 2250 50  0001 C CNN
	1    1650 2250
	1    0    0    -1  
$EndComp
$Comp
L Device:C C?
U 1 1 5D959D39
P 1250 2250
F 0 "C?" H 1365 2296 50  0000 L CNN
F 1 "100n" H 1365 2205 50  0000 L CNN
F 2 "" H 1288 2100 50  0001 C CNN
F 3 "~" H 1250 2250 50  0001 C CNN
	1    1250 2250
	1    0    0    -1  
$EndComp
$Comp
L Device:C C?
U 1 1 5D95A07D
P 850 2250
F 0 "C?" H 965 2296 50  0000 L CNN
F 1 "100n" H 965 2205 50  0000 L CNN
F 2 "" H 888 2100 50  0001 C CNN
F 3 "~" H 850 2250 50  0001 C CNN
	1    850  2250
	1    0    0    -1  
$EndComp
Wire Wire Line
	2050 2450 1650 2450
Wire Wire Line
	850  2450 850  2400
Connection ~ 2050 2450
Wire Wire Line
	2050 2450 2050 2400
Wire Wire Line
	1250 2400 1250 2450
Connection ~ 1250 2450
Wire Wire Line
	1250 2450 850  2450
Wire Wire Line
	1650 2450 1650 2400
Connection ~ 1650 2450
Wire Wire Line
	1650 2450 1250 2450
Wire Wire Line
	2050 2050 1650 2050
Wire Wire Line
	850  2050 850  2100
Connection ~ 2050 2050
Wire Wire Line
	1250 2100 1250 2050
Connection ~ 1250 2050
Wire Wire Line
	1250 2050 850  2050
Wire Wire Line
	1650 2050 1650 2100
Connection ~ 1650 2050
Wire Wire Line
	1650 2050 1250 2050
$Comp
L power:GND #PWR?
U 1 1 5D979BAB
P 6000 1400
F 0 "#PWR?" H 6000 1150 50  0001 C CNN
F 1 "GND" H 6005 1227 50  0000 C CNN
F 2 "" H 6000 1400 50  0001 C CNN
F 3 "" H 6000 1400 50  0001 C CNN
	1    6000 1400
	1    0    0    -1  
$EndComp
$Comp
L Device:C C?
U 1 1 5D979BB1
P 6000 1150
F 0 "C?" H 6115 1196 50  0000 L CNN
F 1 "4.7u" H 6115 1105 50  0000 L CNN
F 2 "" H 6038 1000 50  0001 C CNN
F 3 "~" H 6000 1150 50  0001 C CNN
	1    6000 1150
	1    0    0    -1  
$EndComp
Wire Wire Line
	6000 1400 6000 1350
$Comp
L Device:C C?
U 1 1 5D979BB8
P 5600 1150
F 0 "C?" H 5715 1196 50  0000 L CNN
F 1 "100n" H 5715 1105 50  0000 L CNN
F 2 "" H 5638 1000 50  0001 C CNN
F 3 "~" H 5600 1150 50  0001 C CNN
	1    5600 1150
	1    0    0    -1  
$EndComp
$Comp
L Device:C C?
U 1 1 5D979BBE
P 5200 1150
F 0 "C?" H 5315 1196 50  0000 L CNN
F 1 "100n" H 5315 1105 50  0000 L CNN
F 2 "" H 5238 1000 50  0001 C CNN
F 3 "~" H 5200 1150 50  0001 C CNN
	1    5200 1150
	1    0    0    -1  
$EndComp
$Comp
L Device:C C?
U 1 1 5D979BC4
P 4800 1150
F 0 "C?" H 4915 1196 50  0000 L CNN
F 1 "100n" H 4915 1105 50  0000 L CNN
F 2 "" H 4838 1000 50  0001 C CNN
F 3 "~" H 4800 1150 50  0001 C CNN
	1    4800 1150
	1    0    0    -1  
$EndComp
Wire Wire Line
	6000 1350 5600 1350
Wire Wire Line
	4800 1350 4800 1300
Connection ~ 6000 1350
Wire Wire Line
	6000 1350 6000 1300
Wire Wire Line
	5200 1300 5200 1350
Connection ~ 5200 1350
Wire Wire Line
	5200 1350 4800 1350
Wire Wire Line
	5600 1350 5600 1300
Connection ~ 5600 1350
Wire Wire Line
	5600 1350 5200 1350
Text Label 4250 900  1    50   ~ 0
FTDI_VCC
Wire Wire Line
	4250 900  4250 950 
Wire Wire Line
	4250 950  4800 950 
Wire Wire Line
	4800 950  4800 1000
Connection ~ 4250 950 
Wire Wire Line
	4250 950  4250 1450
Wire Wire Line
	4800 950  5200 950 
Wire Wire Line
	5200 950  5200 1000
Connection ~ 4800 950 
Wire Wire Line
	5200 950  5600 950 
Wire Wire Line
	5600 950  5600 1000
Connection ~ 5200 950 
Wire Wire Line
	5600 950  6000 950 
Wire Wire Line
	6000 950  6000 1000
Connection ~ 5600 950 
$Comp
L power:GND #PWR?
U 1 1 5D672985
P 1300 4850
F 0 "#PWR?" H 1300 4600 50  0001 C CNN
F 1 "GND" H 1305 4677 50  0000 C CNN
F 2 "" H 1300 4850 50  0001 C CNN
F 3 "" H 1300 4850 50  0001 C CNN
	1    1300 4850
	1    0    0    -1  
$EndComp
$Comp
L Device:C C?
U 1 1 5D9A88DE
P 850 5350
F 0 "C?" H 965 5396 50  0000 L CNN
F 1 "100n" H 965 5305 50  0000 L CNN
F 2 "" H 888 5200 50  0001 C CNN
F 3 "~" H 850 5350 50  0001 C CNN
	1    850  5350
	1    0    0    -1  
$EndComp
$Comp
L power:GND #PWR?
U 1 1 5D9A91B3
P 850 5500
F 0 "#PWR?" H 850 5250 50  0001 C CNN
F 1 "GND" H 855 5327 50  0000 C CNN
F 2 "" H 850 5500 50  0001 C CNN
F 3 "" H 850 5500 50  0001 C CNN
	1    850  5500
	1    0    0    -1  
$EndComp
Wire Wire Line
	850  5200 850  5100
$EndSCHEMATC
