EESchema Schematic File Version 4
LIBS:lnboard-cache
EELAYER 29 0
EELAYER END
$Descr A4 11693 8268
encoding utf-8
Sheet 5 5
Title ""
Date ""
Rev ""
Comp ""
Comment1 ""
Comment2 ""
Comment3 ""
Comment4 ""
$EndDescr
$Comp
L lattice:LFE2-6E U?
U 2 1 5D64B52C
P 15500 6200
AR Path="/5D57F3A9/5D64B52C" Ref="U?"  Part="2" 
AR Path="/5D57F3A9/5E15E027/5D64B52C" Ref="U5"  Part="2" 
F 0 "U5" H 16078 6521 50  0000 L CNN
F 1 "LFE2-6E" H 16078 6430 50  0000 L CNN
F 2 "Housings_QFP:TQFP-144_20x20mm_Pitch0.5mm" H 15450 7250 50  0001 C CNN
F 3 "https://cz.mouser.com/datasheet/2/225/DS1006-1489590.pdf" H 15450 6850 50  0001 C CNN
	2    15500 6200
	1    0    0    -1  
$EndComp
$Comp
L lattice:LFE2-6E U?
U 7 1 5D64B53E
P 15550 2700
AR Path="/5D57F3A9/5D64B53E" Ref="U?"  Part="7" 
AR Path="/5D57F3A9/5E15E027/5D64B53E" Ref="U5"  Part="7" 
F 0 "U5" H 16128 2971 50  0000 L CNN
F 1 "LFE2-6E" H 16128 2880 50  0000 L CNN
F 2 "Housings_QFP:TQFP-144_20x20mm_Pitch0.5mm" H 15500 3750 50  0001 C CNN
F 3 "https://cz.mouser.com/datasheet/2/225/DS1006-1489590.pdf" H 15500 3350 50  0001 C CNN
	7    15550 2700
	1    0    0    -1  
$EndComp
$Comp
L lattice:LFE2-6E U?
U 5 1 5D64B538
P 15550 4250
AR Path="/5D57F3A9/5D64B538" Ref="U?"  Part="5" 
AR Path="/5D57F3A9/5E15E027/5D64B538" Ref="U5"  Part="5" 
F 0 "U5" H 16128 4571 50  0000 L CNN
F 1 "LFE2-6E" H 16128 4480 50  0000 L CNN
F 2 "Housings_QFP:TQFP-144_20x20mm_Pitch0.5mm" H 15500 5300 50  0001 C CNN
F 3 "https://cz.mouser.com/datasheet/2/225/DS1006-1489590.pdf" H 15500 4900 50  0001 C CNN
	5    15550 4250
	1    0    0    -1  
$EndComp
$Comp
L lattice:LFE2-6E U?
U 4 1 5D64B532
P -9450 2300
AR Path="/5D57F3A9/5D64B532" Ref="U?"  Part="4" 
AR Path="/5D57F3A9/5E15E027/5D64B532" Ref="U5"  Part="4" 
F 0 "U5" H -8872 2871 50  0000 L CNN
F 1 "LFE2-6E" H -8872 2780 50  0000 L CNN
F 2 "Housings_QFP:TQFP-144_20x20mm_Pitch0.5mm" H -9500 3350 50  0001 C CNN
F 3 "https://cz.mouser.com/datasheet/2/225/DS1006-1489590.pdf" H -9500 2950 50  0001 C CNN
	4    -9450 2300
	1    0    0    -1  
$EndComp
$Comp
L lattice:LFE2-6E U?
U 8 1 5D64B544
P -6250 4850
AR Path="/5D57F3A9/5D64B544" Ref="U?"  Part="8" 
AR Path="/5D57F3A9/5E15E027/5D64B544" Ref="U5"  Part="8" 
F 0 "U5" H -5672 5121 50  0000 L CNN
F 1 "LFE2-6E" H -5672 5030 50  0000 L CNN
F 2 "Housings_QFP:TQFP-144_20x20mm_Pitch0.5mm" H -6300 5900 50  0001 C CNN
F 3 "https://cz.mouser.com/datasheet/2/225/DS1006-1489590.pdf" H -6300 5500 50  0001 C CNN
	8    -6250 4850
	1    0    0    -1  
$EndComp
$Comp
L lattice:LFE2-6E U?
U 3 1 5D64B54A
P -6150 2100
AR Path="/5D57F3A9/5D64B54A" Ref="U?"  Part="3" 
AR Path="/5D57F3A9/5D74FCF3/5D64B54A" Ref="U?"  Part="3" 
AR Path="/5D57F3A9/5E15E027/5D64B54A" Ref="U5"  Part="3" 
F 0 "U5" H -5572 1921 50  0000 L CNN
F 1 "LFE2-6E" H -5572 1830 50  0000 L CNN
F 2 "Housings_QFP:TQFP-144_20x20mm_Pitch0.5mm" H -6200 3150 50  0001 C CNN
F 3 "https://cz.mouser.com/datasheet/2/225/DS1006-1489590.pdf" H -6200 2750 50  0001 C CNN
	3    -6150 2100
	1    0    0    -1  
$EndComp
Wire Wire Line
	-10250 2150 -10400 2150
$Comp
L power:+3.3V #PWR053
U 1 1 5D8C4CC3
P -10400 2150
F 0 "#PWR053" H -10400 2000 50  0001 C CNN
F 1 "+3.3V" V -10385 2278 50  0000 L CNN
F 2 "" H -10400 2150 50  0001 C CNN
F 3 "" H -10400 2150 50  0001 C CNN
	1    -10400 2150
	0    -1   -1   0   
$EndComp
Wire Wire Line
	14750 4500 14600 4500
$Comp
L power:+3.3V #PWR057
U 1 1 5D8BB4F8
P 14600 4500
F 0 "#PWR057" H 14600 4350 50  0001 C CNN
F 1 "+3.3V" V 14615 4628 50  0000 L CNN
F 2 "" H 14600 4500 50  0001 C CNN
F 3 "" H 14600 4500 50  0001 C CNN
	1    14600 4500
	0    -1   -1   0   
$EndComp
Wire Wire Line
	14750 3150 14600 3150
$Comp
L power:+3.3V #PWR056
U 1 1 5D8B3610
P 14600 3150
F 0 "#PWR056" H 14600 3000 50  0001 C CNN
F 1 "+3.3V" V 14615 3278 50  0000 L CNN
F 2 "" H 14600 3150 50  0001 C CNN
F 3 "" H 14600 3150 50  0001 C CNN
	1    14600 3150
	0    -1   -1   0   
$EndComp
Wire Wire Line
	-7050 5200 -7200 5200
$Comp
L power:+3.3V #PWR055
U 1 1 5D8AA6C8
P -7200 5200
F 0 "#PWR055" H -7200 5050 50  0001 C CNN
F 1 "+3.3V" V -7185 5328 50  0000 L CNN
F 2 "" H -7200 5200 50  0001 C CNN
F 3 "" H -7200 5200 50  0001 C CNN
	1    -7200 5200
	0    -1   -1   0   
$EndComp
Wire Wire Line
	14700 6450 14550 6450
$Comp
L power:+3.3V #PWR058
U 1 1 5D8CD0D6
P 14550 6450
F 0 "#PWR058" H 14550 6300 50  0001 C CNN
F 1 "+3.3V" V 14565 6578 50  0000 L CNN
F 2 "" H 14550 6450 50  0001 C CNN
F 3 "" H 14550 6450 50  0001 C CNN
	1    14550 6450
	0    -1   -1   0   
$EndComp
$Comp
L power:+3.3V #PWR054
U 1 1 5E261ED3
P -7100 3450
F 0 "#PWR054" H -7100 3300 50  0001 C CNN
F 1 "+3.3V" V -7085 3578 50  0000 L CNN
F 2 "" H -7100 3450 50  0001 C CNN
F 3 "" H -7100 3450 50  0001 C CNN
	1    -7100 3450
	0    -1   -1   0   
$EndComp
Wire Wire Line
	-6950 3450 -7100 3450
$Comp
L Connector_Generic:Conn_01x02 J4
U 1 1 5D5EC562
P 750 2000
F 0 "J4" H 668 1675 50  0000 C CNN
F 1 "OSC_CH1" H 668 1766 50  0000 C CNN
F 2 "" H 750 2000 50  0001 C CNN
F 3 "~" H 750 2000 50  0001 C CNN
	1    750  2000
	-1   0    0    1   
$EndComp
Wire Wire Line
	1150 2000 950  2000
$Comp
L power:GNDA #PWR061
U 1 1 5D5FCDAD
P 1150 2400
F 0 "#PWR061" H 1150 2150 50  0001 C CNN
F 1 "GNDA" H 1155 2227 50  0000 C CNN
F 2 "" H 1150 2400 50  0001 C CNN
F 3 "" H 1150 2400 50  0001 C CNN
	1    1150 2400
	1    0    0    -1  
$EndComp
Text Notes 2750 6000 0    50   ~ 0
High Impedance Input OPAmps\n
Text GLabel 1000 3800 0    50   Input ~ 0
ATT_1:1
$Comp
L Device:R R53
U 1 1 5D6988E4
P 1400 5000
F 0 "R53" V 1193 5000 50  0000 C CNN
F 1 "10M" V 1284 5000 50  0000 C CNN
F 2 "" V 1330 5000 50  0001 C CNN
F 3 "~" H 1400 5000 50  0001 C CNN
	1    1400 5000
	0    1    1    0   
$EndComp
$Comp
L Device:R R54
U 1 1 5D698F37
P 1650 5250
F 0 "R54" H 1580 5204 50  0000 R CNN
F 1 "3.85M" H 1580 5295 50  0000 R CNN
F 2 "" V 1580 5250 50  0001 C CNN
F 3 "~" H 1650 5250 50  0001 C CNN
	1    1650 5250
	-1   0    0    1   
$EndComp
$Comp
L Device:R R50
U 1 1 5D699600
P 1150 5250
F 0 "R50" H 1080 5204 50  0000 R CNN
F 1 "3.85M" H 1080 5295 50  0000 R CNN
F 2 "" V 1080 5250 50  0001 C CNN
F 3 "~" H 1150 5250 50  0001 C CNN
	1    1150 5250
	-1   0    0    1   
$EndComp
$Comp
L power:GNDA #PWR064
U 1 1 5D699C04
P 1650 5400
F 0 "#PWR064" H 1650 5150 50  0001 C CNN
F 1 "GNDA" H 1655 5227 50  0000 C CNN
F 2 "" H 1650 5400 50  0001 C CNN
F 3 "" H 1650 5400 50  0001 C CNN
	1    1650 5400
	1    0    0    -1  
$EndComp
$Comp
L power:GNDA #PWR060
U 1 1 5D69A1D7
P 1150 5400
F 0 "#PWR060" H 1150 5150 50  0001 C CNN
F 1 "GNDA" H 1155 5227 50  0000 C CNN
F 2 "" H 1150 5400 50  0001 C CNN
F 3 "" H 1150 5400 50  0001 C CNN
	1    1150 5400
	1    0    0    -1  
$EndComp
Wire Wire Line
	1150 5100 1150 5000
Wire Wire Line
	1150 5000 1250 5000
Wire Wire Line
	1650 5100 1650 5000
Wire Wire Line
	1650 5000 1550 5000
Text GLabel 1050 5000 0    50   Input ~ 0
ATT_1:10
Wire Wire Line
	1050 5000 1150 5000
Connection ~ 1150 5000
Text GLabel 1750 5000 2    50   Input ~ 0
ATT_1:10_OUT
Text GLabel 1750 3800 2    50   Input ~ 0
ATT_1:1_OUT
Text Notes 650  3650 0    50   ~ 0
Attenuator
$Comp
L power:GNDA #PWR063
U 1 1 5D7BEC4D
P 900 6500
F 0 "#PWR063" H 900 6250 50  0001 C CNN
F 1 "GNDA" H 905 6327 50  0000 C CNN
F 2 "" H 900 6500 50  0001 C CNN
F 3 "" H 900 6500 50  0001 C CNN
	1    900  6500
	1    0    0    -1  
$EndComp
Text Notes 2800 6200 0    50   ~ 0
Input resistance: 500G\n
Text Notes 2800 6300 0    50   ~ 0
Input capacitance: 1.3pF\n
Wire Notes Line
	2750 6350 2750 6100
Wire Notes Line
	3750 6100 3750 6350
Text Notes 2800 6500 0    50   ~ 0
ADA4817
Text GLabel 6900 4900 0    50   Input ~ 0
OSC_AMP_OUT
Text GLabel 2400 1800 2    50   Input ~ 0
OSC_IN
$Comp
L Device:C C28
U 1 1 5D62ECE3
P 2850 2000
F 0 "C28" V 3102 2000 50  0000 C CNN
F 1 "0.1uF" V 3011 2000 50  0000 C CNN
F 2 "" H 2888 1850 50  0001 C CNN
F 3 "~" H 2850 2000 50  0001 C CNN
	1    2850 2000
	0    -1   -1   0   
$EndComp
Text GLabel 3100 2000 2    50   Input ~ 0
OSC_IN
Wire Wire Line
	3100 2000 3000 2000
Wire Wire Line
	2400 2000 2700 2000
Text GLabel 9650 4900 2    50   Input ~ 0
PRE_AMP_+
Text GLabel 9650 5600 2    50   Input ~ 0
PRE_AMP_-
Text GLabel 4700 6700 0    50   Input ~ 0
PRE_AMP_+
Text GLabel 4700 7600 0    50   Input ~ 0
PRE_AMP_-
$Comp
L Device:C C29
U 1 1 5D68D138
P 4950 7150
F 0 "C29" H 5065 7196 50  0000 L CNN
F 1 "3p" H 5065 7105 50  0000 L CNN
F 2 "" H 4988 7000 50  0001 C CNN
F 3 "~" H 4950 7150 50  0001 C CNN
	1    4950 7150
	1    0    0    -1  
$EndComp
$Comp
L Device:C C30
U 1 1 5D68D577
P 5950 7150
F 0 "C30" H 6065 7196 50  0000 L CNN
F 1 "3p" H 6065 7105 50  0000 L CNN
F 2 "" H 5988 7000 50  0001 C CNN
F 3 "~" H 5950 7150 50  0001 C CNN
	1    5950 7150
	1    0    0    -1  
$EndComp
$Comp
L Device:L L1
U 1 1 5D68DE50
P 5450 6700
F 0 "L1" V 5640 6700 50  0000 C CNN
F 1 "130n" V 5549 6700 50  0000 C CNN
F 2 "" H 5450 6700 50  0001 C CNN
F 3 "~" H 5450 6700 50  0001 C CNN
	1    5450 6700
	0    -1   -1   0   
$EndComp
$Comp
L Device:L L2
U 1 1 5D68E2DC
P 5450 7600
F 0 "L2" V 5640 7600 50  0000 C CNN
F 1 "130n" V 5549 7600 50  0000 C CNN
F 2 "" H 5450 7600 50  0001 C CNN
F 3 "~" H 5450 7600 50  0001 C CNN
	1    5450 7600
	0    -1   -1   0   
$EndComp
Wire Wire Line
	4950 7600 5300 7600
Wire Wire Line
	5600 7600 5950 7600
Wire Wire Line
	5950 6700 5600 6700
Wire Wire Line
	5300 6700 4950 6700
Text Notes 4200 6400 0    50   ~ 0
https://www.edn.com/Pdf/ViewPdf?contentItemId=4443021
Wire Wire Line
	4950 6700 4700 6700
Connection ~ 4950 6700
Wire Wire Line
	4700 7600 4950 7600
Connection ~ 4950 7600
Text GLabel 6550 6700 2    50   Input ~ 0
ADC_IN+
Text GLabel 6550 7600 2    50   Input ~ 0
ADC_IN-
Connection ~ 5950 6700
Connection ~ 5950 7600
Text Notes 4200 6300 0    50   ~ 0
Low Pass filter ~ 400 Mhz Cutoff
Wire Wire Line
	6300 6700 6300 6800
Wire Wire Line
	5950 6700 6300 6700
Wire Wire Line
	6300 7500 6300 7600
Wire Wire Line
	5950 7600 6300 7600
Wire Wire Line
	6550 6700 6300 6700
Connection ~ 6300 6700
Wire Wire Line
	6300 7600 6550 7600
Connection ~ 6300 7600
Wire Wire Line
	6300 7200 6300 7150
Wire Wire Line
	6300 7150 6550 7150
Connection ~ 6300 7150
Wire Wire Line
	6300 7150 6300 7100
Text GLabel 6550 7150 2    50   Input ~ 0
ADC_IN_M
Wire Wire Line
	5950 6700 5950 7000
Wire Wire Line
	5950 7300 5950 7600
Wire Wire Line
	4950 7300 4950 7600
Wire Wire Line
	4950 6700 4950 7000
$Comp
L Device:R R62
U 1 1 5D719EF8
P 6300 7350
F 0 "R62" H 6370 7396 50  0000 L CNN
F 1 "10K" H 6370 7305 50  0000 L CNN
F 2 "" V 6230 7350 50  0001 C CNN
F 3 "~" H 6300 7350 50  0001 C CNN
	1    6300 7350
	1    0    0    -1  
$EndComp
$Comp
L Device:R R61
U 1 1 5D6C9C95
P 6300 6950
F 0 "R61" H 6370 6996 50  0000 L CNN
F 1 "10K" H 6370 6905 50  0000 L CNN
F 2 "" V 6230 6950 50  0001 C CNN
F 3 "~" H 6300 6950 50  0001 C CNN
	1    6300 6950
	1    0    0    -1  
$EndComp
Wire Wire Line
	1150 2000 1150 2400
$Comp
L Device:R R52
U 1 1 5D7D97B5
P 1400 3800
F 0 "R52" V 1193 3800 50  0000 C CNN
F 1 "10M" V 1284 3800 50  0000 C CNN
F 2 "" V 1330 3800 50  0001 C CNN
F 3 "~" H 1400 3800 50  0001 C CNN
	1    1400 3800
	0    1    1    0   
$EndComp
Wire Wire Line
	1000 3800 1150 3800
Text GLabel 1250 6800 0    50   Input ~ 0
OSC_ATT_OUT
Text GLabel 3200 6700 2    50   Input ~ 0
OSC_AMP_OUT
Wire Wire Line
	1550 3800 1700 3800
Wire Wire Line
	1750 5000 1650 5000
Connection ~ 1650 5000
$Comp
L lattice:AD8370 U11
U 1 1 5D8B16D9
P 8750 5250
F 0 "U11" H 8700 5865 50  0000 C CNN
F 1 "AD8370" H 8700 5774 50  0000 C CNN
F 2 "Housings_SSOP:TSSOP-16_4.4x5mm_Pitch0.65mm" H 8750 5250 50  0001 C CNN
F 3 "https://www.analog.com/media/en/technical-documentation/data-sheets/AD8370.pdf" H 8750 5250 50  0001 C CNN
	1    8750 5250
	1    0    0    -1  
$EndComp
Wire Wire Line
	8150 5700 8150 5600
Wire Wire Line
	8150 5600 8200 5600
$Comp
L Device:R R65
U 1 1 5D8BF340
P 8150 5850
F 0 "R65" H 8220 5896 50  0000 L CNN
F 1 "R" H 8220 5805 50  0000 L CNN
F 2 "" V 8080 5850 50  0001 C CNN
F 3 "~" H 8150 5850 50  0001 C CNN
	1    8150 5850
	1    0    0    -1  
$EndComp
Wire Wire Line
	8150 6100 8150 6050
$Comp
L Device:R R63
U 1 1 5D8C455D
P 7100 5050
F 0 "R63" H 7170 5096 50  0000 L CNN
F 1 "R" H 7170 5005 50  0000 L CNN
F 2 "" V 7030 5050 50  0001 C CNN
F 3 "~" H 7100 5050 50  0001 C CNN
	1    7100 5050
	1    0    0    -1  
$EndComp
Wire Wire Line
	6900 4900 7100 4900
Connection ~ 7100 4900
Wire Wire Line
	7100 4900 8200 4900
Wire Wire Line
	7100 5300 7100 5200
$Comp
L power:GNDA #PWR076
U 1 1 5D8CBC65
P 7100 5300
F 0 "#PWR076" H 7100 5050 50  0001 C CNN
F 1 "GNDA" H 7105 5127 50  0000 C CNN
F 2 "" H 7100 5300 50  0001 C CNN
F 3 "" H 7100 5300 50  0001 C CNN
	1    7100 5300
	1    0    0    -1  
$EndComp
$Comp
L power:GNDA #PWR085
U 1 1 5D8CBFB7
P 8150 6100
F 0 "#PWR085" H 8150 5850 50  0001 C CNN
F 1 "GNDA" H 8155 5927 50  0000 C CNN
F 2 "" H 8150 6100 50  0001 C CNN
F 3 "" H 8150 6100 50  0001 C CNN
	1    8150 6100
	1    0    0    -1  
$EndComp
Wire Wire Line
	8150 6050 8050 6050
Wire Wire Line
	8050 6050 8050 5500
Wire Wire Line
	8050 5500 8200 5500
Connection ~ 8150 6050
Wire Wire Line
	8150 6050 8150 6000
Wire Wire Line
	8050 5000 8050 5300
Connection ~ 8050 5500
Wire Wire Line
	9400 5000 9400 5500
Wire Wire Line
	8050 5000 8200 5000
Wire Wire Line
	9200 5000 9400 5000
Wire Wire Line
	9200 5500 9400 5500
Wire Wire Line
	8200 5400 8100 5400
Wire Wire Line
	8100 5400 8100 5100
Wire Wire Line
	9200 5400 9300 5400
Wire Wire Line
	8200 5100 8100 5100
Connection ~ 8100 5100
Wire Wire Line
	8100 5100 8100 4750
Wire Wire Line
	8050 5300 8200 5300
Connection ~ 8050 5300
Wire Wire Line
	8050 5300 8050 5500
$Comp
L Device:C C34
U 1 1 5D8EC267
P 7450 4300
F 0 "C34" H 7565 4346 50  0000 L CNN
F 1 "1u" H 7565 4255 50  0000 L CNN
F 2 "" H 7488 4150 50  0001 C CNN
F 3 "~" H 7450 4300 50  0001 C CNN
	1    7450 4300
	1    0    0    -1  
$EndComp
$Comp
L Device:C C36
U 1 1 5D8ED821
P 9850 4300
F 0 "C36" H 9965 4346 50  0000 L CNN
F 1 "1u" H 9965 4255 50  0000 L CNN
F 2 "" H 9888 4150 50  0001 C CNN
F 3 "~" H 9850 4300 50  0001 C CNN
	1    9850 4300
	1    0    0    -1  
$EndComp
$Comp
L power:GNDA #PWR082
U 1 1 5D8EE460
P 7450 4450
F 0 "#PWR082" H 7450 4200 50  0001 C CNN
F 1 "GNDA" H 7455 4277 50  0000 C CNN
F 2 "" H 7450 4450 50  0001 C CNN
F 3 "" H 7450 4450 50  0001 C CNN
	1    7450 4450
	1    0    0    -1  
$EndComp
$Comp
L power:GNDA #PWR092
U 1 1 5D8EE776
P 9850 4450
F 0 "#PWR092" H 9850 4200 50  0001 C CNN
F 1 "GNDA" H 9855 4277 50  0000 C CNN
F 2 "" H 9850 4450 50  0001 C CNN
F 3 "" H 9850 4450 50  0001 C CNN
	1    9850 4450
	1    0    0    -1  
$EndComp
$Comp
L Device:C C38
U 1 1 5D8F30C0
P 10150 4300
F 0 "C38" H 10265 4346 50  0000 L CNN
F 1 "1n" H 10265 4255 50  0000 L CNN
F 2 "" H 10188 4150 50  0001 C CNN
F 3 "~" H 10150 4300 50  0001 C CNN
	1    10150 4300
	1    0    0    -1  
$EndComp
$Comp
L power:GNDA #PWR096
U 1 1 5D8F30C6
P 10150 4450
F 0 "#PWR096" H 10150 4200 50  0001 C CNN
F 1 "GNDA" H 10155 4277 50  0000 C CNN
F 2 "" H 10150 4450 50  0001 C CNN
F 3 "" H 10150 4450 50  0001 C CNN
	1    10150 4450
	1    0    0    -1  
$EndComp
$Comp
L Device:C C32
U 1 1 5D8F5ED3
P 7150 4300
F 0 "C32" H 7265 4346 50  0000 L CNN
F 1 "1n" H 7265 4255 50  0000 L CNN
F 2 "" H 7188 4150 50  0001 C CNN
F 3 "~" H 7150 4300 50  0001 C CNN
	1    7150 4300
	1    0    0    -1  
$EndComp
$Comp
L power:GNDA #PWR078
U 1 1 5D8F5ED9
P 7150 4450
F 0 "#PWR078" H 7150 4200 50  0001 C CNN
F 1 "GNDA" H 7155 4277 50  0000 C CNN
F 2 "" H 7150 4450 50  0001 C CNN
F 3 "" H 7150 4450 50  0001 C CNN
	1    7150 4450
	1    0    0    -1  
$EndComp
$Comp
L Analog_ADC:AD9283 U10
U 1 1 5D68CC71
P 6900 2050
F 0 "U10" H 6900 3031 50  0000 C CNN
F 1 "AD9283" H 6900 2940 50  0000 C CNN
F 2 "lnboard:SSOP20" H 6900 2050 50  0001 C CNN
F 3 "https://www.analog.com/media/en/technical-documentation/data-sheets/AD9283.pdf" H 6900 2050 50  0001 C CNN
	1    6900 2050
	1    0    0    -1  
$EndComp
$Comp
L power:GNDA #PWR075
U 1 1 5D694EFE
P 6900 2950
F 0 "#PWR075" H 6900 2700 50  0001 C CNN
F 1 "GNDA" H 6905 2777 50  0000 C CNN
F 2 "" H 6900 2950 50  0001 C CNN
F 3 "" H 6900 2950 50  0001 C CNN
	1    6900 2950
	1    0    0    -1  
$EndComp
Wire Wire Line
	6900 2950 6900 2900
Wire Wire Line
	6900 2900 6800 2900
Wire Wire Line
	6800 2900 6800 2850
Wire Wire Line
	6900 2850 6900 2900
Connection ~ 6900 2900
Wire Wire Line
	6900 2900 7000 2900
Wire Wire Line
	7000 2900 7000 2850
Wire Wire Line
	6700 1250 6700 1200
Wire Wire Line
	6700 1200 6750 1200
Wire Wire Line
	6750 1200 6750 1150
Wire Wire Line
	6750 1200 6800 1200
Wire Wire Line
	6800 1200 6800 1250
Connection ~ 6750 1200
Wire Wire Line
	6800 1200 7000 1200
Wire Wire Line
	7000 1200 7000 1250
Connection ~ 6800 1200
$Comp
L Device:R R64
U 1 1 5D6BF7F7
P 7750 2800
F 0 "R64" H 7820 2846 50  0000 L CNN
F 1 "10K" H 7820 2755 50  0000 L CNN
F 2 "" V 7680 2800 50  0001 C CNN
F 3 "~" H 7750 2800 50  0001 C CNN
	1    7750 2800
	1    0    0    -1  
$EndComp
Wire Wire Line
	7600 2550 7750 2550
Wire Wire Line
	7750 2550 7750 2650
$Comp
L power:GNDA #PWR083
U 1 1 5D6C20B2
P 7750 3050
F 0 "#PWR083" H 7750 2800 50  0001 C CNN
F 1 "GNDA" H 7755 2877 50  0000 C CNN
F 2 "" H 7750 3050 50  0001 C CNN
F 3 "" H 7750 3050 50  0001 C CNN
	1    7750 3050
	1    0    0    -1  
$EndComp
Wire Wire Line
	7750 3050 7750 2950
Text GLabel 7950 2450 2    50   Input ~ 0
ADC1_CLK
Wire Wire Line
	7950 2450 7600 2450
Entry Wire Line
	7850 1550 7950 1450
Entry Wire Line
	7850 1750 7950 1650
Entry Wire Line
	7850 1950 7950 1850
Entry Wire Line
	7850 2050 7950 1950
Entry Wire Line
	7850 2150 7950 2050
Entry Wire Line
	7850 2250 7950 2150
Entry Wire Line
	7850 1650 7950 1550
Entry Wire Line
	7850 1850 7950 1750
Text GLabel 7950 1350 1    50   Input ~ 0
ADC1_DATA[0:7]
Text GLabel 6050 1650 0    50   Input ~ 0
ADC_IN+
Wire Wire Line
	6050 1650 6200 1650
Text GLabel 6050 1850 0    50   Input ~ 0
ADC_IN-
Wire Wire Line
	6050 1850 6200 1850
$Comp
L Device:C C31
U 1 1 5D6F6554
P 6050 2750
F 0 "C31" H 6165 2796 50  0000 L CNN
F 1 "1uF" H 6165 2705 50  0000 L CNN
F 2 "" H 6088 2600 50  0001 C CNN
F 3 "~" H 6050 2750 50  0001 C CNN
	1    6050 2750
	1    0    0    -1  
$EndComp
Wire Wire Line
	6200 2450 6050 2450
Wire Wire Line
	6050 2450 6050 2600
$Comp
L power:GNDA #PWR073
U 1 1 5D6F9F5F
P 6050 3000
F 0 "#PWR073" H 6050 2750 50  0001 C CNN
F 1 "GNDA" H 6055 2827 50  0000 C CNN
F 2 "" H 6050 3000 50  0001 C CNN
F 3 "" H 6050 3000 50  0001 C CNN
	1    6050 3000
	1    0    0    -1  
$EndComp
Wire Wire Line
	6050 3000 6050 2900
$Comp
L power:+3.3VA #PWR071
U 1 1 5D700C9A
P 5650 3900
F 0 "#PWR071" H 5650 3750 50  0001 C CNN
F 1 "+3.3VA" H 5665 4073 50  0000 C CNN
F 2 "" H 5650 3900 50  0001 C CNN
F 3 "" H 5650 3900 50  0001 C CNN
	1    5650 3900
	1    0    0    -1  
$EndComp
$Comp
L power:+3.3VA #PWR074
U 1 1 5D7011F4
P 6750 1150
F 0 "#PWR074" H 6750 1000 50  0001 C CNN
F 1 "+3.3VA" H 6765 1323 50  0000 C CNN
F 2 "" H 6750 1150 50  0001 C CNN
F 3 "" H 6750 1150 50  0001 C CNN
	1    6750 1150
	1    0    0    -1  
$EndComp
$Comp
L power:+3.3VA #PWR084
U 1 1 5D70BB67
P 8100 4750
F 0 "#PWR084" H 8100 4600 50  0001 C CNN
F 1 "+3.3VA" H 8115 4923 50  0000 C CNN
F 2 "" H 8100 4750 50  0001 C CNN
F 3 "" H 8100 4750 50  0001 C CNN
	1    8100 4750
	1    0    0    -1  
$EndComp
$Comp
L power:+3.3VA #PWR087
U 1 1 5D70BDBD
P 9300 4750
F 0 "#PWR087" H 9300 4600 50  0001 C CNN
F 1 "+3.3VA" H 9315 4923 50  0000 C CNN
F 2 "" H 9300 4750 50  0001 C CNN
F 3 "" H 9300 4750 50  0001 C CNN
	1    9300 4750
	1    0    0    -1  
$EndComp
Wire Wire Line
	9300 4750 9300 5400
$Comp
L power:+3.3VA #PWR077
U 1 1 5D71E157
P 7150 4150
F 0 "#PWR077" H 7150 4000 50  0001 C CNN
F 1 "+3.3VA" H 7165 4323 50  0000 C CNN
F 2 "" H 7150 4150 50  0001 C CNN
F 3 "" H 7150 4150 50  0001 C CNN
	1    7150 4150
	1    0    0    -1  
$EndComp
$Comp
L power:+3.3VA #PWR081
U 1 1 5D71E3D6
P 7450 4150
F 0 "#PWR081" H 7450 4000 50  0001 C CNN
F 1 "+3.3VA" H 7465 4323 50  0000 C CNN
F 2 "" H 7450 4150 50  0001 C CNN
F 3 "" H 7450 4150 50  0001 C CNN
	1    7450 4150
	1    0    0    -1  
$EndComp
$Comp
L power:+3.3VA #PWR091
U 1 1 5D71E756
P 9850 4150
F 0 "#PWR091" H 9850 4000 50  0001 C CNN
F 1 "+3.3VA" H 9865 4323 50  0000 C CNN
F 2 "" H 9850 4150 50  0001 C CNN
F 3 "" H 9850 4150 50  0001 C CNN
	1    9850 4150
	1    0    0    -1  
$EndComp
$Comp
L power:+3.3VA #PWR095
U 1 1 5D71EAB4
P 10150 4150
F 0 "#PWR095" H 10150 4000 50  0001 C CNN
F 1 "+3.3VA" H 10165 4323 50  0000 C CNN
F 2 "" H 10150 4150 50  0001 C CNN
F 3 "" H 10150 4150 50  0001 C CNN
	1    10150 4150
	1    0    0    -1  
$EndComp
$Comp
L power:+3.3VA #PWR062
U 1 1 5D731AAA
P 900 5900
F 0 "#PWR062" H 900 5750 50  0001 C CNN
F 1 "+3.3VA" H 915 6073 50  0000 C CNN
F 2 "" H 900 5900 50  0001 C CNN
F 3 "" H 900 5900 50  0001 C CNN
	1    900  5900
	1    0    0    -1  
$EndComp
Wire Wire Line
	5650 4000 5650 3900
$Comp
L power:GNDA #PWR072
U 1 1 5D77A208
P 5650 4850
F 0 "#PWR072" H 5650 4600 50  0001 C CNN
F 1 "GNDA" H 5655 4677 50  0000 C CNN
F 2 "" H 5650 4850 50  0001 C CNN
F 3 "" H 5650 4850 50  0001 C CNN
	1    5650 4850
	1    0    0    -1  
$EndComp
Wire Wire Line
	5650 4850 5650 4700
$Comp
L Device:R R59
U 1 1 5D780729
P 5650 4150
F 0 "R59" H 5720 4196 50  0000 L CNN
F 1 "10K" H 5720 4105 50  0000 L CNN
F 2 "" V 5580 4150 50  0001 C CNN
F 3 "~" H 5650 4150 50  0001 C CNN
	1    5650 4150
	1    0    0    -1  
$EndComp
$Comp
L Device:R R60
U 1 1 5D7809CF
P 5650 4550
F 0 "R60" H 5720 4596 50  0000 L CNN
F 1 "6.1K" H 5720 4505 50  0000 L CNN
F 2 "" V 5580 4550 50  0001 C CNN
F 3 "~" H 5650 4550 50  0001 C CNN
	1    5650 4550
	1    0    0    -1  
$EndComp
Text Notes 4100 4250 0    50   ~ 0
VREF = +3.3V. Divider in case.
Wire Wire Line
	5650 4300 5650 4350
Wire Wire Line
	5650 4350 5900 4350
Connection ~ 5650 4350
Wire Wire Line
	5650 4350 5650 4400
Text Label 5900 4350 0    50   ~ 0
ADC_REF
Text Label 6000 2250 2    50   ~ 0
ADC_REF
Wire Wire Line
	6000 2250 6200 2250
$Comp
L Analog_ADC:AD9283 U12
U 1 1 5D7AE381
P 9550 2050
F 0 "U12" H 9550 3031 50  0000 C CNN
F 1 "AD9283" H 9550 2940 50  0000 C CNN
F 2 "lnboard:SSOP20" H 9550 2050 50  0001 C CNN
F 3 "https://www.analog.com/media/en/technical-documentation/data-sheets/AD9283.pdf" H 9550 2050 50  0001 C CNN
	1    9550 2050
	1    0    0    -1  
$EndComp
$Comp
L power:GNDA #PWR090
U 1 1 5D7AE387
P 9550 2950
F 0 "#PWR090" H 9550 2700 50  0001 C CNN
F 1 "GNDA" H 9555 2777 50  0000 C CNN
F 2 "" H 9550 2950 50  0001 C CNN
F 3 "" H 9550 2950 50  0001 C CNN
	1    9550 2950
	1    0    0    -1  
$EndComp
Wire Wire Line
	9550 2950 9550 2900
Wire Wire Line
	9550 2900 9450 2900
Wire Wire Line
	9450 2900 9450 2850
Wire Wire Line
	9550 2850 9550 2900
Connection ~ 9550 2900
Wire Wire Line
	9550 2900 9650 2900
Wire Wire Line
	9650 2900 9650 2850
Wire Wire Line
	9350 1250 9350 1200
Wire Wire Line
	9350 1200 9400 1200
Wire Wire Line
	9400 1200 9400 1150
Wire Wire Line
	9400 1200 9450 1200
Wire Wire Line
	9450 1200 9450 1250
Connection ~ 9400 1200
Wire Wire Line
	9450 1200 9650 1200
Wire Wire Line
	9650 1200 9650 1250
Connection ~ 9450 1200
$Comp
L Device:R R66
U 1 1 5D7AE39D
P 10400 2800
F 0 "R66" H 10470 2846 50  0000 L CNN
F 1 "10K" H 10470 2755 50  0000 L CNN
F 2 "" V 10330 2800 50  0001 C CNN
F 3 "~" H 10400 2800 50  0001 C CNN
	1    10400 2800
	1    0    0    -1  
$EndComp
Wire Wire Line
	10250 2550 10400 2550
Wire Wire Line
	10400 2550 10400 2650
$Comp
L power:GNDA #PWR097
U 1 1 5D7AE3A5
P 10400 3050
F 0 "#PWR097" H 10400 2800 50  0001 C CNN
F 1 "GNDA" H 10405 2877 50  0000 C CNN
F 2 "" H 10400 3050 50  0001 C CNN
F 3 "" H 10400 3050 50  0001 C CNN
	1    10400 3050
	1    0    0    -1  
$EndComp
Wire Wire Line
	10400 3050 10400 2950
Text GLabel 10600 2450 2    50   Input ~ 0
ADC2_CLK
Wire Wire Line
	10600 2450 10250 2450
Text GLabel 8700 1650 0    50   Input ~ 0
ADC_IN+
Wire Wire Line
	8700 1650 8850 1650
Text GLabel 8700 1850 0    50   Input ~ 0
ADC_IN-
Wire Wire Line
	8700 1850 8850 1850
$Comp
L Device:C C35
U 1 1 5D7AE3C3
P 8700 2750
F 0 "C35" H 8815 2796 50  0000 L CNN
F 1 "1uF" H 8815 2705 50  0000 L CNN
F 2 "" H 8738 2600 50  0001 C CNN
F 3 "~" H 8700 2750 50  0001 C CNN
	1    8700 2750
	1    0    0    -1  
$EndComp
Wire Wire Line
	8850 2450 8700 2450
Wire Wire Line
	8700 2450 8700 2600
$Comp
L power:GNDA #PWR086
U 1 1 5D7AE3CB
P 8700 3000
F 0 "#PWR086" H 8700 2750 50  0001 C CNN
F 1 "GNDA" H 8705 2827 50  0000 C CNN
F 2 "" H 8700 3000 50  0001 C CNN
F 3 "" H 8700 3000 50  0001 C CNN
	1    8700 3000
	1    0    0    -1  
$EndComp
Wire Wire Line
	8700 3000 8700 2900
$Comp
L power:+3.3VA #PWR088
U 1 1 5D7AE3D2
P 9400 1150
F 0 "#PWR088" H 9400 1000 50  0001 C CNN
F 1 "+3.3VA" H 9415 1323 50  0000 C CNN
F 2 "" H 9400 1150 50  0001 C CNN
F 3 "" H 9400 1150 50  0001 C CNN
	1    9400 1150
	1    0    0    -1  
$EndComp
Text Label 8650 2250 2    50   ~ 0
ADC_REF
Wire Wire Line
	8650 2250 8850 2250
Text Label 7650 1550 0    50   ~ 0
D0
Text Label 7650 1650 0    50   ~ 0
D1
Text Label 7650 1750 0    50   ~ 0
D2
Text Label 7650 1850 0    50   ~ 0
D3
Text Label 7650 1950 0    50   ~ 0
D4
Text Label 7650 2050 0    50   ~ 0
D5
Text Label 7650 2150 0    50   ~ 0
D6
Text Label 7650 2250 0    50   ~ 0
D7
Wire Wire Line
	7600 1550 7850 1550
Wire Wire Line
	7600 1650 7850 1650
Wire Wire Line
	7600 1750 7850 1750
Wire Wire Line
	7600 1850 7850 1850
Wire Wire Line
	7600 1950 7850 1950
Wire Wire Line
	7600 2050 7850 2050
Wire Wire Line
	7600 2150 7850 2150
Wire Wire Line
	7600 2250 7850 2250
Entry Wire Line
	10500 1550 10600 1450
Entry Wire Line
	10500 1750 10600 1650
Entry Wire Line
	10500 1950 10600 1850
Entry Wire Line
	10500 2050 10600 1950
Entry Wire Line
	10500 2150 10600 2050
Entry Wire Line
	10500 2250 10600 2150
Entry Wire Line
	10500 1650 10600 1550
Entry Wire Line
	10500 1850 10600 1750
Text GLabel 10600 1350 1    50   Input ~ 0
ADC2_DATA[0:7]
Text Label 10300 1550 0    50   ~ 0
D0
Text Label 10300 1650 0    50   ~ 0
D1
Text Label 10300 1750 0    50   ~ 0
D2
Text Label 10300 1850 0    50   ~ 0
D3
Text Label 10300 1950 0    50   ~ 0
D4
Text Label 10300 2050 0    50   ~ 0
D5
Text Label 10300 2150 0    50   ~ 0
D6
Text Label 10300 2250 0    50   ~ 0
D7
Wire Wire Line
	10250 1550 10500 1550
Wire Wire Line
	10250 1650 10500 1650
Wire Wire Line
	10250 1750 10500 1750
Wire Wire Line
	10250 1850 10500 1850
Wire Wire Line
	10250 1950 10500 1950
Wire Wire Line
	10250 2050 10500 2050
Wire Wire Line
	10250 2150 10500 2150
Wire Wire Line
	10250 2250 10500 2250
Text GLabel 5150 4350 0    50   Input ~ 0
ADC_IN_M
$Comp
L Device:R R58
U 1 1 5D813F93
P 5400 4350
F 0 "R58" V 5193 4350 50  0000 C CNN
F 1 "0" V 5284 4350 50  0000 C CNN
F 2 "" V 5330 4350 50  0001 C CNN
F 3 "~" H 5400 4350 50  0001 C CNN
	1    5400 4350
	0    1    1    0   
$EndComp
Wire Wire Line
	5650 4350 5550 4350
Wire Wire Line
	5250 4350 5150 4350
$Comp
L Device:C C37
U 1 1 5D8276C3
P 9900 1000
F 0 "C37" H 10015 1046 50  0000 L CNN
F 1 "100n" H 10015 955 50  0000 L CNN
F 2 "" H 9938 850 50  0001 C CNN
F 3 "~" H 9900 1000 50  0001 C CNN
	1    9900 1000
	1    0    0    -1  
$EndComp
$Comp
L power:GNDA #PWR094
U 1 1 5D8276C9
P 9900 1150
F 0 "#PWR094" H 9900 900 50  0001 C CNN
F 1 "GNDA" H 9905 977 50  0000 C CNN
F 2 "" H 9900 1150 50  0001 C CNN
F 3 "" H 9900 1150 50  0001 C CNN
	1    9900 1150
	1    0    0    -1  
$EndComp
$Comp
L Device:C C33
U 1 1 5D8276CF
P 7250 1000
F 0 "C33" H 7365 1046 50  0000 L CNN
F 1 "100n" H 7365 955 50  0000 L CNN
F 2 "" H 7288 850 50  0001 C CNN
F 3 "~" H 7250 1000 50  0001 C CNN
	1    7250 1000
	1    0    0    -1  
$EndComp
$Comp
L power:GNDA #PWR080
U 1 1 5D8276D5
P 7250 1150
F 0 "#PWR080" H 7250 900 50  0001 C CNN
F 1 "GNDA" H 7255 977 50  0000 C CNN
F 2 "" H 7250 1150 50  0001 C CNN
F 3 "" H 7250 1150 50  0001 C CNN
	1    7250 1150
	1    0    0    -1  
$EndComp
$Comp
L power:+3.3VA #PWR079
U 1 1 5D8276DB
P 7250 850
F 0 "#PWR079" H 7250 700 50  0001 C CNN
F 1 "+3.3VA" H 7265 1023 50  0000 C CNN
F 2 "" H 7250 850 50  0001 C CNN
F 3 "" H 7250 850 50  0001 C CNN
	1    7250 850 
	1    0    0    -1  
$EndComp
$Comp
L power:+3.3VA #PWR093
U 1 1 5D8276E1
P 9900 850
F 0 "#PWR093" H 9900 700 50  0001 C CNN
F 1 "+3.3VA" H 9915 1023 50  0000 C CNN
F 2 "" H 9900 850 50  0001 C CNN
F 3 "" H 9900 850 50  0001 C CNN
	1    9900 850 
	1    0    0    -1  
$EndComp
Wire Wire Line
	1900 6700 1750 6700
$Comp
L power:+3.3VA #PWR067
U 1 1 5D67F759
P 2450 6200
F 0 "#PWR067" H 2450 6050 50  0001 C CNN
F 1 "+3.3VA" H 2465 6373 50  0000 C CNN
F 2 "" H 2450 6200 50  0001 C CNN
F 3 "" H 2450 6200 50  0001 C CNN
	1    2450 6200
	1    0    0    -1  
$EndComp
$Comp
L power:GNDA #PWR066
U 1 1 5D6800A3
P 2300 7300
F 0 "#PWR066" H 2300 7050 50  0001 C CNN
F 1 "GNDA" H 2305 7127 50  0000 C CNN
F 2 "" H 2300 7300 50  0001 C CNN
F 3 "" H 2300 7300 50  0001 C CNN
	1    2300 7300
	1    0    0    -1  
$EndComp
Wire Wire Line
	2350 7250 2300 7250
Wire Wire Line
	2300 7250 2300 7300
Wire Wire Line
	2300 7250 2250 7250
Connection ~ 2300 7250
$Comp
L Device:R R55
U 1 1 5D68D5B3
P 1850 6250
F 0 "R55" H 1920 6296 50  0000 L CNN
F 1 "10K" H 1920 6205 50  0000 L CNN
F 2 "" V 1780 6250 50  0001 C CNN
F 3 "~" H 1850 6250 50  0001 C CNN
	1    1850 6250
	1    0    0    -1  
$EndComp
$Comp
L power:+3.3VA #PWR065
U 1 1 5D68F791
P 1850 6050
F 0 "#PWR065" H 1850 5900 50  0001 C CNN
F 1 "+3.3VA" H 1865 6223 50  0000 C CNN
F 2 "" H 1850 6050 50  0001 C CNN
F 3 "" H 1850 6050 50  0001 C CNN
	1    1850 6050
	1    0    0    -1  
$EndComp
Wire Wire Line
	1850 6050 1850 6100
Wire Wire Line
	3200 6700 2750 6700
$Comp
L Relay:IM00 K2
U 1 1 5D6FDC9E
P 4350 1900
F 0 "K2" V 3583 1900 50  0000 C CNN
F 1 "IM00" V 3674 1900 50  0000 C CNN
F 2 "Relays_THT:Relay_DPDT_AXICOM_IMSeries_Pitch5.08mm" H 4150 1900 50  0001 C CNN
F 3 "http://www.te.com/commerce/DocumentDelivery/DDEController?Action=srchrtrv&DocNm=108-98001&DocType=SS&DocLang=EN" H 4150 1900 50  0001 C CNN
	1    4350 1900
	0    1    1    0   
$EndComp
Text GLabel 4650 1800 2    50   Input ~ 0
ATT_1:10
Text GLabel 4650 2000 2    50   Input ~ 0
ATT_1:1
Text GLabel 4650 2200 2    50   Input ~ 0
ATT_1:10_OUT
Text GLabel 4650 2400 2    50   Input ~ 0
ATT_1:1_OUT
Text GLabel 4050 2300 0    50   Input ~ 0
OSC_ATT_OUT
Text GLabel 4050 1900 0    50   Input ~ 0
OSC_IN
Text GLabel 3500 750  0    50   Input ~ 0
ATT_REALY_CTRL
$Comp
L power:+3.3V #PWR070
U 1 1 5D765F9A
P 4850 1400
F 0 "#PWR070" H 4850 1250 50  0001 C CNN
F 1 "+3.3V" H 4865 1573 50  0000 C CNN
F 2 "" H 4850 1400 50  0001 C CNN
F 3 "" H 4850 1400 50  0001 C CNN
	1    4850 1400
	1    0    0    -1  
$EndComp
Wire Wire Line
	4850 1400 4850 1500
Wire Wire Line
	4850 1500 4750 1500
$Comp
L Device:Q_NPN_BEC Q4
U 1 1 5D76D067
P 3550 1400
F 0 "Q4" V 3785 1400 50  0000 C CNN
F 1 "Q_NPN_BEC" V 3876 1400 50  0000 C CNN
F 2 "" H 3750 1500 50  0001 C CNN
F 3 "~" H 3550 1400 50  0001 C CNN
	1    3550 1400
	0    1    1    0   
$EndComp
$Comp
L Device:R R57
U 1 1 5D76F14B
P 3550 1000
F 0 "R57" H 3620 1046 50  0000 L CNN
F 1 "R" H 3620 955 50  0000 L CNN
F 2 "" V 3480 1000 50  0001 C CNN
F 3 "~" H 3550 1000 50  0001 C CNN
	1    3550 1000
	1    0    0    -1  
$EndComp
Wire Wire Line
	3500 750  3550 750 
Wire Wire Line
	3550 750  3550 850 
Wire Wire Line
	3550 1200 3550 1150
$Comp
L Device:R R56
U 1 1 5D77D135
P 3200 1350
F 0 "R56" H 3270 1396 50  0000 L CNN
F 1 "R" H 3270 1305 50  0000 L CNN
F 2 "" V 3130 1350 50  0001 C CNN
F 3 "~" H 3200 1350 50  0001 C CNN
	1    3200 1350
	1    0    0    -1  
$EndComp
Wire Wire Line
	3350 1500 3200 1500
Wire Wire Line
	3200 1200 3200 1150
Wire Wire Line
	3200 1150 3550 1150
Connection ~ 3550 1150
$Comp
L Device:D D8
U 1 1 5D78AE62
P 4350 950
F 0 "D8" H 4350 734 50  0000 C CNN
F 1 "D" H 4350 825 50  0000 C CNN
F 2 "" H 4350 950 50  0001 C CNN
F 3 "~" H 4350 950 50  0001 C CNN
	1    4350 950 
	-1   0    0    1   
$EndComp
Wire Wire Line
	3750 1500 3950 1500
Wire Wire Line
	3950 1500 3950 950 
Wire Wire Line
	3950 950  4200 950 
Connection ~ 3950 1500
Wire Wire Line
	3950 1500 4050 1500
Wire Wire Line
	4500 950  4750 950 
Wire Wire Line
	4750 950  4750 1500
Connection ~ 4750 1500
Wire Wire Line
	4750 1500 4650 1500
$Comp
L power:GND #PWR059
U 1 1 5D7B6D4A
P 850 1500
F 0 "#PWR059" H 850 1250 50  0001 C CNN
F 1 "GND" V 855 1372 50  0000 R CNN
F 2 "" H 850 1500 50  0001 C CNN
F 3 "" H 850 1500 50  0001 C CNN
	1    850  1500
	0    1    1    0   
$EndComp
$Comp
L Relay:IM00 K1
U 1 1 5D7B6D50
P 2100 1900
F 0 "K1" V 1333 1900 50  0000 C CNN
F 1 "IM00" V 1424 1900 50  0000 C CNN
F 2 "Relays_THT:Relay_DPDT_AXICOM_IMSeries_Pitch5.08mm" H 1900 1900 50  0001 C CNN
F 3 "http://www.te.com/commerce/DocumentDelivery/DDEController?Action=srchrtrv&DocNm=108-98001&DocType=SS&DocLang=EN" H 1900 1900 50  0001 C CNN
	1    2100 1900
	0    1    1    0   
$EndComp
Text GLabel 1250 750  0    50   Input ~ 0
ACDC_REALY_CTRL
$Comp
L power:+3.3V #PWR068
U 1 1 5D7B6D5D
P 2600 1400
F 0 "#PWR068" H 2600 1250 50  0001 C CNN
F 1 "+3.3V" H 2615 1573 50  0000 C CNN
F 2 "" H 2600 1400 50  0001 C CNN
F 3 "" H 2600 1400 50  0001 C CNN
	1    2600 1400
	1    0    0    -1  
$EndComp
Wire Wire Line
	2600 1400 2600 1500
Wire Wire Line
	2600 1500 2500 1500
$Comp
L Device:Q_NPN_BEC Q3
U 1 1 5D7B6D65
P 1300 1400
F 0 "Q3" V 1535 1400 50  0000 C CNN
F 1 "Q_NPN_BEC" V 1626 1400 50  0000 C CNN
F 2 "" H 1500 1500 50  0001 C CNN
F 3 "~" H 1300 1400 50  0001 C CNN
	1    1300 1400
	0    1    1    0   
$EndComp
$Comp
L Device:R R51
U 1 1 5D7B6D6B
P 1300 1000
F 0 "R51" H 1370 1046 50  0000 L CNN
F 1 "R" H 1370 955 50  0000 L CNN
F 2 "" V 1230 1000 50  0001 C CNN
F 3 "~" H 1300 1000 50  0001 C CNN
	1    1300 1000
	1    0    0    -1  
$EndComp
Wire Wire Line
	1250 750  1300 750 
Wire Wire Line
	1300 750  1300 850 
Wire Wire Line
	1300 1200 1300 1150
$Comp
L Device:R R49
U 1 1 5D7B6D74
P 950 1350
F 0 "R49" H 1020 1396 50  0000 L CNN
F 1 "R" H 1020 1305 50  0000 L CNN
F 2 "" V 880 1350 50  0001 C CNN
F 3 "~" H 950 1350 50  0001 C CNN
	1    950  1350
	1    0    0    -1  
$EndComp
Wire Wire Line
	1100 1500 950  1500
Wire Wire Line
	950  1200 950  1150
Wire Wire Line
	950  1150 1300 1150
Connection ~ 1300 1150
$Comp
L Device:D D7
U 1 1 5D7B6D80
P 2100 950
F 0 "D7" H 2100 734 50  0000 C CNN
F 1 "D" H 2100 825 50  0000 C CNN
F 2 "" H 2100 950 50  0001 C CNN
F 3 "~" H 2100 950 50  0001 C CNN
	1    2100 950 
	-1   0    0    1   
$EndComp
Wire Wire Line
	1500 1500 1700 1500
Wire Wire Line
	1700 1500 1700 950 
Wire Wire Line
	1700 950  1950 950 
Connection ~ 1700 1500
Wire Wire Line
	1700 1500 1800 1500
Wire Wire Line
	2250 950  2500 950 
Wire Wire Line
	2500 950  2500 1500
Connection ~ 2500 1500
Wire Wire Line
	2500 1500 2400 1500
Wire Wire Line
	1800 1900 950  1900
Wire Wire Line
	850  1500 950  1500
Connection ~ 950  1500
$Comp
L power:GND #PWR069
U 1 1 5D93304E
P 3050 1500
F 0 "#PWR069" H 3050 1250 50  0001 C CNN
F 1 "GND" V 3055 1372 50  0000 R CNN
F 2 "" H 3050 1500 50  0001 C CNN
F 3 "" H 3050 1500 50  0001 C CNN
	1    3050 1500
	0    1    1    0   
$EndComp
Wire Wire Line
	3200 1500 3050 1500
Connection ~ 3200 1500
Wire Notes Line
	500  7750 4000 7750
Wire Notes Line
	4050 5950 4050 7750
Wire Notes Line
	4050 7750 6950 7750
Wire Notes Line
	6950 7750 6950 5950
Wire Notes Line
	6950 5950 4050 5950
Wire Notes Line
	5400 550  5400 3450
Wire Notes Line
	5400 3450 11150 3450
Wire Notes Line
	11150 3450 11150 550 
Wire Notes Line
	11150 550  5400 550 
Wire Notes Line
	500  3450 5350 3450
Wire Notes Line
	5350 3450 5350 550 
Wire Notes Line
	5350 550  500  550 
Wire Notes Line
	500  550  500  3450
Entry Wire Line
	14500 2050 14400 1950
Entry Wire Line
	14500 2250 14400 2150
Entry Wire Line
	14500 2450 14400 2350
Entry Wire Line
	14500 2550 14400 2450
Entry Wire Line
	14500 2650 14400 2550
Entry Wire Line
	14500 2750 14400 2650
Entry Wire Line
	14500 2150 14400 2050
Entry Wire Line
	14500 2350 14400 2250
Text GLabel 14400 1850 0    50   Input ~ 0
ADC2_DATA[0:7]
Text Label 14700 2050 2    50   ~ 0
D0
Text Label 14700 2150 2    50   ~ 0
D1
Text Label 14700 2250 2    50   ~ 0
D2
Text Label 14700 2350 2    50   ~ 0
D3
Text Label 14700 2450 2    50   ~ 0
D4
Text Label 14700 2550 2    50   ~ 0
D5
Text Label 14700 2650 2    50   ~ 0
D6
Text Label 14700 2750 2    50   ~ 0
D7
Wire Wire Line
	14750 2050 14500 2050
Wire Wire Line
	14750 2150 14500 2150
Wire Wire Line
	14750 2250 14500 2250
Wire Wire Line
	14750 2350 14500 2350
Wire Wire Line
	14750 2450 14500 2450
Wire Wire Line
	14750 2550 14500 2550
Wire Wire Line
	14750 2650 14500 2650
Wire Wire Line
	14750 2750 14500 2750
Entry Wire Line
	14500 3600 14400 3500
Entry Wire Line
	14500 3800 14400 3700
Entry Wire Line
	14500 4000 14400 3900
Entry Wire Line
	14500 4100 14400 4000
Entry Wire Line
	14500 4200 14400 4100
Entry Wire Line
	14500 4300 14400 4200
Entry Wire Line
	14500 3700 14400 3600
Entry Wire Line
	14500 3900 14400 3800
Text GLabel 14400 3400 0    50   Input ~ 0
ADC1_DATA[0:7]
Text Label 14700 3600 2    50   ~ 0
D0
Text Label 14700 3700 2    50   ~ 0
D1
Text Label 14700 3800 2    50   ~ 0
D2
Text Label 14700 3900 2    50   ~ 0
D3
Text Label 14700 4000 2    50   ~ 0
D4
Text Label 14700 4100 2    50   ~ 0
D5
Text Label 14700 4200 2    50   ~ 0
D6
Text Label 14700 4300 2    50   ~ 0
D7
Wire Wire Line
	14750 3600 14500 3600
Wire Wire Line
	14750 3700 14500 3700
Wire Wire Line
	14750 3800 14500 3800
Wire Wire Line
	14750 3900 14500 3900
Wire Wire Line
	14750 4000 14500 4000
Wire Wire Line
	14750 4100 14500 4100
Wire Wire Line
	14750 4200 14500 4200
Wire Wire Line
	14750 4300 14500 4300
Text GLabel 14400 5750 0    50   Input ~ 0
ATT_REALY_CTRL
Text GLabel 14400 5850 0    50   Input ~ 0
ACDC_REALY_CTRL
Text GLabel 14400 5650 0    50   Input ~ 0
ADC2_CLK
Text GLabel 14400 5550 0    50   Input ~ 0
ADC1_CLK
Text GLabel 9650 5200 2    50   Input ~ 0
PWR_AMP_CLK
Text GLabel 9650 5100 2    50   Input ~ 0
PWR_AMP_DATA
Text GLabel 9650 5300 2    50   Input ~ 0
PWR_AMP_LATCH
Text GLabel 14400 6050 0    50   Input ~ 0
PWR_AMP_CLK
Text GLabel 14400 6150 0    50   Input ~ 0
PWR_AMP_DATA
Text GLabel 14400 5950 0    50   Input ~ 0
PWR_AMP_LATCH
Wire Wire Line
	14400 5550 14700 5550
Wire Wire Line
	14700 5650 14400 5650
Wire Wire Line
	14400 5750 14700 5750
Wire Wire Line
	14700 5850 14400 5850
Wire Wire Line
	14400 5950 14700 5950
Wire Wire Line
	14700 6050 14400 6050
Wire Wire Line
	14400 6150 14700 6150
Wire Wire Line
	9200 5600 9650 5600
Wire Wire Line
	9650 5300 9200 5300
Wire Wire Line
	9200 5200 9650 5200
Wire Wire Line
	9650 5100 9200 5100
Wire Wire Line
	9200 4900 9650 4900
Wire Notes Line
	2750 6100 3750 6100
Wire Notes Line
	2750 6350 3750 6350
$Comp
L Device:C C?
U 1 1 5D855F6A
P 1400 4000
F 0 "C?" V 1350 4100 50  0000 C CNN
F 1 "C" V 1450 4100 50  0000 C CNN
F 2 "" H 1438 3850 50  0001 C CNN
F 3 "~" H 1400 4000 50  0001 C CNN
	1    1400 4000
	0    1    1    0   
$EndComp
Wire Wire Line
	1250 4000 1150 4000
Wire Wire Line
	1150 4000 1150 3800
Connection ~ 1150 3800
Wire Wire Line
	1150 3800 1250 3800
Wire Wire Line
	1550 4000 1700 4000
Wire Wire Line
	1700 4000 1700 3800
Connection ~ 1700 3800
Wire Wire Line
	1700 3800 1750 3800
$Comp
L Device:C C?
U 1 1 5D872447
P 1900 4000
F 0 "C?" V 1850 4100 50  0000 C CNN
F 1 "C" V 1950 4100 50  0000 C CNN
F 2 "" H 1938 3850 50  0001 C CNN
F 3 "~" H 1900 4000 50  0001 C CNN
	1    1900 4000
	0    1    1    0   
$EndComp
Wire Wire Line
	1750 4000 1700 4000
Connection ~ 1700 4000
$Comp
L power:GNDA #PWR?
U 1 1 5D8810F9
P 2150 4000
F 0 "#PWR?" H 2150 3750 50  0001 C CNN
F 1 "GNDA" H 2155 3827 50  0000 C CNN
F 2 "" H 2150 4000 50  0001 C CNN
F 3 "" H 2150 4000 50  0001 C CNN
	1    2150 4000
	0    -1   -1   0   
$EndComp
Wire Wire Line
	2150 4000 2050 4000
$Comp
L Device:C C?
U 1 1 5D89FAD2
P 1400 4200
F 0 "C?" V 1350 4300 50  0000 C CNN
F 1 "C" V 1450 4300 50  0000 C CNN
F 2 "" H 1438 4050 50  0001 C CNN
F 3 "~" H 1400 4200 50  0001 C CNN
	1    1400 4200
	0    1    1    0   
$EndComp
Wire Wire Line
	1250 4200 1150 4200
Wire Wire Line
	1150 4200 1150 4000
Connection ~ 1150 4000
Wire Wire Line
	1550 4200 1700 4200
Wire Wire Line
	1700 4200 1700 4000
$Comp
L Device:C C?
U 1 1 5D8F7D7F
P 1400 4650
F 0 "C?" V 1350 4750 50  0000 C CNN
F 1 "C" V 1450 4750 50  0000 C CNN
F 2 "" H 1438 4500 50  0001 C CNN
F 3 "~" H 1400 4650 50  0001 C CNN
	1    1400 4650
	0    1    1    0   
$EndComp
$Comp
L Device:C C?
U 1 1 5D8F813E
P 1400 4450
F 0 "C?" V 1350 4550 50  0000 C CNN
F 1 "C" V 1450 4550 50  0000 C CNN
F 2 "" H 1438 4300 50  0001 C CNN
F 3 "~" H 1400 4450 50  0001 C CNN
	1    1400 4450
	0    1    1    0   
$EndComp
Wire Wire Line
	1150 5000 1150 4650
Wire Wire Line
	1150 4650 1250 4650
Wire Wire Line
	1150 4650 1150 4450
Wire Wire Line
	1150 4450 1250 4450
Connection ~ 1150 4650
Wire Wire Line
	1550 4450 1650 4450
Wire Wire Line
	1650 4450 1650 4650
Wire Wire Line
	1550 4650 1650 4650
Wire Wire Line
	1650 4650 1650 4800
Connection ~ 1650 4650
$Comp
L Device:C C?
U 1 1 5D949217
P 1850 4800
F 0 "C?" V 1800 4900 50  0000 C CNN
F 1 "C" V 1900 4900 50  0000 C CNN
F 2 "" H 1888 4650 50  0001 C CNN
F 3 "~" H 1850 4800 50  0001 C CNN
	1    1850 4800
	0    1    1    0   
$EndComp
$Comp
L power:GNDA #PWR?
U 1 1 5D94921D
P 2100 4800
F 0 "#PWR?" H 2100 4550 50  0001 C CNN
F 1 "GNDA" H 2105 4627 50  0000 C CNN
F 2 "" H 2100 4800 50  0001 C CNN
F 3 "" H 2100 4800 50  0001 C CNN
	1    2100 4800
	0    -1   -1   0   
$EndComp
Wire Wire Line
	2100 4800 2000 4800
Wire Wire Line
	1700 4800 1650 4800
Connection ~ 1650 4800
Wire Wire Line
	1650 4800 1650 5000
$Comp
L Diode:BAT54S D?
U 1 1 5D97236B
P 900 6200
F 0 "D?" V 946 6288 50  0000 L CNN
F 1 "BAT54S" V 855 6288 50  0000 L CNN
F 2 "Package_TO_SOT_SMD:SOT-23" H 975 6325 50  0001 L CNN
F 3 "https://www.diodes.com/assets/Datasheets/ds11005.pdf" H 780 6200 50  0001 C CNN
	1    900  6200
	0    -1   -1   0   
$EndComp
Wire Wire Line
	1250 6800 1350 6800
Wire Wire Line
	1100 6200 1350 6200
Wire Wire Line
	1350 6200 1350 6800
Connection ~ 1350 6800
Wire Wire Line
	1350 6800 1900 6800
Text Label 9400 5950 0    50   ~ 0
ADC_REF
Wire Wire Line
	9400 5950 9400 5500
Connection ~ 9400 5500
Wire Notes Line
	4000 3500 500  3500
Wire Notes Line
	4000 3500 4000 7750
Wire Notes Line
	500  3500 500  7750
$Comp
L lattice:ADA4817 U?
U 1 1 5DA39052
P 2350 6700
F 0 "U?" H 2794 6721 50  0000 L CNN
F 1 "ADA4817" H 2794 6630 50  0000 L CNN
F 2 "Housings_SOIC:SOIC-8-1EP_3.9x4.9mm_Pitch1.27mm" H 2100 7050 50  0001 C CNN
F 3 "https://www.analog.com/media/en/technical-documentation/data-sheets/ADA4817-1_4817-2.pdf" H 2100 7050 50  0001 C CNN
	1    2350 6700
	1    0    0    -1  
$EndComp
Wire Wire Line
	1900 6600 1750 6600
Wire Wire Line
	1750 6600 1750 6700
Wire Wire Line
	1900 6500 1850 6500
Wire Wire Line
	1850 6500 1850 6400
Wire Bus Line
	7950 1350 7950 2150
Wire Bus Line
	10600 1350 10600 2150
Wire Bus Line
	14400 1850 14400 2650
Wire Bus Line
	14400 3400 14400 4200
$EndSCHEMATC
