EESchema Schematic File Version 4
LIBS:lnboard-cache
EELAYER 29 0
EELAYER END
$Descr A4 11693 8268
encoding utf-8
Sheet 3 5
Title ""
Date ""
Rev ""
Comp ""
Comment1 ""
Comment2 ""
Comment3 ""
Comment4 ""
$EndDescr
$Comp
L lattice:LFE2-6E U5
U 1 1 5D580993
P 6800 1800
F 0 "U5" H 6775 2915 50  0000 C CNN
F 1 "LFE2-6E" H 6775 2824 50  0000 C CNN
F 2 "Housings_QFP:TQFP-144_20x20mm_Pitch0.5mm" H 6750 2850 50  0001 C CNN
F 3 "https://cz.mouser.com/datasheet/2/225/DS1006-1489590.pdf" H 6750 2450 50  0001 C CNN
	1    6800 1800
	1    0    0    -1  
$EndComp
$Comp
L power:GND #PWR029
U 1 1 5D626AFB
P 10250 2800
F 0 "#PWR029" H 10250 2550 50  0001 C CNN
F 1 "GND" H 10255 2627 50  0000 C CNN
F 2 "" H 10250 2800 50  0001 C CNN
F 3 "" H 10250 2800 50  0001 C CNN
	1    10250 2800
	1    0    0    -1  
$EndComp
Wire Wire Line
	10150 2700 10250 2700
Wire Wire Line
	10250 2700 10250 2800
Wire Wire Line
	10250 2700 10250 2600
Wire Wire Line
	10250 2600 10150 2600
Connection ~ 10250 2700
Wire Wire Line
	10150 2500 10250 2500
Wire Wire Line
	10250 2500 10250 2600
Connection ~ 10250 2600
Wire Wire Line
	10250 2500 10250 2400
Wire Wire Line
	10250 2400 10150 2400
Connection ~ 10250 2500
Wire Wire Line
	10250 2400 10250 2300
Wire Wire Line
	10250 2300 10150 2300
Connection ~ 10250 2400
Wire Wire Line
	10150 2200 10250 2200
Wire Wire Line
	10250 2200 10250 2300
Connection ~ 10250 2300
Wire Wire Line
	10250 2200 10250 2100
Wire Wire Line
	10250 2100 10150 2100
Connection ~ 10250 2200
Wire Wire Line
	10250 2100 10250 2000
Wire Wire Line
	10250 2000 10150 2000
Connection ~ 10250 2100
Wire Wire Line
	10150 1900 10250 1900
Wire Wire Line
	10250 1900 10250 2000
Connection ~ 10250 2000
Wire Wire Line
	10250 1900 10250 1800
Wire Wire Line
	10250 1800 10150 1800
Connection ~ 10250 1900
Wire Wire Line
	10150 1700 10250 1700
Wire Wire Line
	10250 1700 10250 1800
Connection ~ 10250 1800
Wire Wire Line
	10250 1700 10250 1600
Wire Wire Line
	10250 1600 10150 1600
Connection ~ 10250 1700
$Comp
L power:+1V2 #PWR024
U 1 1 5D63E04F
P 8500 1100
F 0 "#PWR024" H 8500 950 50  0001 C CNN
F 1 "+1V2" H 8515 1273 50  0000 C CNN
F 2 "" H 8500 1100 50  0001 C CNN
F 3 "" H 8500 1100 50  0001 C CNN
	1    8500 1100
	1    0    0    -1  
$EndComp
Wire Wire Line
	8600 1200 8500 1200
Wire Wire Line
	8500 1200 8500 1100
Wire Wire Line
	8600 1300 8500 1300
Wire Wire Line
	8500 1300 8500 1200
Connection ~ 8500 1200
Wire Wire Line
	8600 1400 8500 1400
Wire Wire Line
	8500 1400 8500 1300
Connection ~ 8500 1300
$Comp
L lattice:LFE2-6E U5
U 10 1 5D5AEADF
P 9400 1850
F 0 "U5" H 9375 2965 50  0000 C CNN
F 1 "LFE2-6E" H 9375 2874 50  0000 C CNN
F 2 "Housings_QFP:TQFP-144_20x20mm_Pitch0.5mm" H 9350 2900 50  0001 C CNN
F 3 "https://cz.mouser.com/datasheet/2/225/DS1006-1489590.pdf" H 9350 2500 50  0001 C CNN
	10   9400 1850
	1    0    0    -1  
$EndComp
Wire Wire Line
	8600 1500 8500 1500
Wire Wire Line
	8500 1500 8500 1400
Connection ~ 8500 1400
Wire Wire Line
	8600 1600 8500 1600
Wire Wire Line
	8500 1600 8500 1500
Connection ~ 8500 1500
Wire Wire Line
	8600 1700 8500 1700
Wire Wire Line
	8500 1700 8500 1600
Connection ~ 8500 1600
Wire Wire Line
	8500 2100 8500 2000
Connection ~ 8500 1700
Wire Wire Line
	8600 2100 8500 2100
Wire Wire Line
	8600 2000 8500 2000
Connection ~ 8500 2000
Wire Wire Line
	8500 2000 8500 1900
Wire Wire Line
	8600 1900 8500 1900
Connection ~ 8500 1900
Wire Wire Line
	8500 1900 8500 1800
Wire Wire Line
	8600 1800 8500 1800
Connection ~ 8500 1800
Wire Wire Line
	8500 1800 8500 1700
$Comp
L power:+3.3V #PWR023
U 1 1 5D648BA3
P 8350 2200
F 0 "#PWR023" H 8350 2050 50  0001 C CNN
F 1 "+3.3V" H 8365 2373 50  0000 C CNN
F 2 "" H 8350 2200 50  0001 C CNN
F 3 "" H 8350 2200 50  0001 C CNN
	1    8350 2200
	1    0    0    -1  
$EndComp
Wire Wire Line
	8600 2300 8350 2300
Wire Wire Line
	8350 2300 8350 2200
Wire Wire Line
	8350 2300 8350 2400
Wire Wire Line
	8350 2400 8600 2400
Connection ~ 8350 2300
Wire Wire Line
	8600 2500 8350 2500
Wire Wire Line
	8350 2500 8350 2400
Connection ~ 8350 2400
Wire Wire Line
	8600 2600 8350 2600
Wire Wire Line
	8350 2600 8350 2500
Connection ~ 8350 2500
$Comp
L Device:C C19
U 1 1 5D657685
P 10200 3650
F 0 "C19" H 10315 3696 50  0000 L CNN
F 1 "100n" H 10315 3605 50  0000 L CNN
F 2 "" H 10238 3500 50  0001 C CNN
F 3 "~" H 10200 3650 50  0001 C CNN
	1    10200 3650
	1    0    0    -1  
$EndComp
$Comp
L Device:C C6
U 1 1 5D6579A8
P 8600 3250
F 0 "C6" H 8715 3296 50  0000 L CNN
F 1 "100n" H 8715 3205 50  0000 L CNN
F 2 "" H 8638 3100 50  0001 C CNN
F 3 "~" H 8600 3250 50  0001 C CNN
	1    8600 3250
	1    0    0    -1  
$EndComp
$Comp
L Device:C C9
U 1 1 5D657D37
P 9000 3250
F 0 "C9" H 9115 3296 50  0000 L CNN
F 1 "100n" H 9115 3205 50  0000 L CNN
F 2 "" H 9038 3100 50  0001 C CNN
F 3 "~" H 9000 3250 50  0001 C CNN
	1    9000 3250
	1    0    0    -1  
$EndComp
$Comp
L Device:C C12
U 1 1 5D6580D4
P 9400 3250
F 0 "C12" H 9515 3296 50  0000 L CNN
F 1 "100n" H 9515 3205 50  0000 L CNN
F 2 "" H 9438 3100 50  0001 C CNN
F 3 "~" H 9400 3250 50  0001 C CNN
	1    9400 3250
	1    0    0    -1  
$EndComp
$Comp
L Device:C C15
U 1 1 5D6584CF
P 9800 3250
F 0 "C15" H 9915 3296 50  0000 L CNN
F 1 "100n" H 9915 3205 50  0000 L CNN
F 2 "" H 9838 3100 50  0001 C CNN
F 3 "~" H 9800 3250 50  0001 C CNN
	1    9800 3250
	1    0    0    -1  
$EndComp
$Comp
L Device:C C18
U 1 1 5D658895
P 10200 3250
F 0 "C18" H 10315 3296 50  0000 L CNN
F 1 "100n" H 10315 3205 50  0000 L CNN
F 2 "" H 10238 3100 50  0001 C CNN
F 3 "~" H 10200 3250 50  0001 C CNN
	1    10200 3250
	1    0    0    -1  
$EndComp
$Comp
L Device:C C13
U 1 1 5D658EAF
P 9400 3650
F 0 "C13" H 9515 3696 50  0000 L CNN
F 1 "100n" H 9515 3605 50  0000 L CNN
F 2 "" H 9438 3500 50  0001 C CNN
F 3 "~" H 9400 3650 50  0001 C CNN
	1    9400 3650
	1    0    0    -1  
$EndComp
$Comp
L Device:C C10
U 1 1 5D659261
P 9000 3650
F 0 "C10" H 9115 3696 50  0000 L CNN
F 1 "100n" H 9115 3605 50  0000 L CNN
F 2 "" H 9038 3500 50  0001 C CNN
F 3 "~" H 9000 3650 50  0001 C CNN
	1    9000 3650
	1    0    0    -1  
$EndComp
$Comp
L Device:C C7
U 1 1 5D65E8B0
P 8600 3650
F 0 "C7" H 8715 3696 50  0000 L CNN
F 1 "100n" H 8715 3605 50  0000 L CNN
F 2 "" H 8638 3500 50  0001 C CNN
F 3 "~" H 8600 3650 50  0001 C CNN
	1    8600 3650
	1    0    0    -1  
$EndComp
$Comp
L power:GND #PWR030
U 1 1 5D66A919
P 10450 3450
F 0 "#PWR030" H 10450 3200 50  0001 C CNN
F 1 "GND" V 10455 3322 50  0000 R CNN
F 2 "" H 10450 3450 50  0001 C CNN
F 3 "" H 10450 3450 50  0001 C CNN
	1    10450 3450
	0    -1   -1   0   
$EndComp
Wire Wire Line
	10450 3450 10200 3450
Wire Wire Line
	9000 3450 9000 3400
Wire Wire Line
	9000 3450 9000 3500
Connection ~ 9000 3450
Wire Wire Line
	10200 3400 10200 3450
Connection ~ 10200 3450
Wire Wire Line
	10200 3450 10200 3500
$Comp
L power:+1V2 #PWR025
U 1 1 5D67DEC2
P 9400 3000
F 0 "#PWR025" H 9400 2850 50  0001 C CNN
F 1 "+1V2" H 9415 3173 50  0000 C CNN
F 2 "" H 9400 3000 50  0001 C CNN
F 3 "" H 9400 3000 50  0001 C CNN
	1    9400 3000
	1    0    0    -1  
$EndComp
$Comp
L power:+1V2 #PWR026
U 1 1 5D680716
P 9400 3900
F 0 "#PWR026" H 9400 3750 50  0001 C CNN
F 1 "+1V2" H 9415 4073 50  0000 C CNN
F 2 "" H 9400 3900 50  0001 C CNN
F 3 "" H 9400 3900 50  0001 C CNN
	1    9400 3900
	-1   0    0    1   
$EndComp
$Comp
L Device:C C8
U 1 1 5D6843D0
P 8800 4650
F 0 "C8" H 8915 4696 50  0000 L CNN
F 1 "100n" H 8915 4605 50  0000 L CNN
F 2 "" H 8838 4500 50  0001 C CNN
F 3 "~" H 8800 4650 50  0001 C CNN
	1    8800 4650
	1    0    0    -1  
$EndComp
$Comp
L Device:C C11
U 1 1 5D684B70
P 9200 4650
F 0 "C11" H 9315 4696 50  0000 L CNN
F 1 "100n" H 9315 4605 50  0000 L CNN
F 2 "" H 9238 4500 50  0001 C CNN
F 3 "~" H 9200 4650 50  0001 C CNN
	1    9200 4650
	1    0    0    -1  
$EndComp
$Comp
L Device:C C14
U 1 1 5D684EC0
P 9600 4650
F 0 "C14" H 9715 4696 50  0000 L CNN
F 1 "100n" H 9715 4605 50  0000 L CNN
F 2 "" H 9638 4500 50  0001 C CNN
F 3 "~" H 9600 4650 50  0001 C CNN
	1    9600 4650
	1    0    0    -1  
$EndComp
$Comp
L Device:C C17
U 1 1 5D685434
P 10000 4650
F 0 "C17" H 10115 4696 50  0000 L CNN
F 1 "100n" H 10115 4605 50  0000 L CNN
F 2 "" H 10038 4500 50  0001 C CNN
F 3 "~" H 10000 4650 50  0001 C CNN
	1    10000 4650
	1    0    0    -1  
$EndComp
Connection ~ 9800 3100
Wire Wire Line
	9800 3100 10200 3100
Connection ~ 9400 3100
Wire Wire Line
	9000 3100 8600 3100
Connection ~ 9000 3100
Connection ~ 9400 3800
Wire Wire Line
	9000 3450 9400 3450
Wire Wire Line
	9000 3800 9400 3800
$Comp
L Device:C C16
U 1 1 5D6B665C
P 9800 3650
F 0 "C16" H 9915 3696 50  0000 L CNN
F 1 "100n" H 9915 3605 50  0000 L CNN
F 2 "" H 9838 3500 50  0001 C CNN
F 3 "~" H 9800 3650 50  0001 C CNN
	1    9800 3650
	1    0    0    -1  
$EndComp
Connection ~ 9800 3800
Wire Wire Line
	9800 3800 10200 3800
Wire Wire Line
	9800 3500 9800 3450
Connection ~ 9800 3450
Wire Wire Line
	9800 3450 10200 3450
Wire Wire Line
	9800 3400 9800 3450
Wire Wire Line
	9400 3400 9400 3450
Connection ~ 9400 3450
Wire Wire Line
	9400 3450 9800 3450
Wire Wire Line
	9400 3500 9400 3450
Wire Wire Line
	9000 3450 8600 3450
Wire Wire Line
	8600 3450 8600 3400
Wire Wire Line
	8600 3500 8600 3450
Connection ~ 8600 3450
Wire Wire Line
	8600 3800 9000 3800
Connection ~ 9000 3800
Wire Wire Line
	9400 3800 9800 3800
Wire Wire Line
	9400 3800 9400 3900
Wire Wire Line
	9400 3100 9800 3100
Wire Wire Line
	9400 3100 9400 3000
$Comp
L power:+3.3V #PWR027
U 1 1 5D6E579C
P 9400 4350
F 0 "#PWR027" H 9400 4200 50  0001 C CNN
F 1 "+3.3V" H 9415 4523 50  0000 C CNN
F 2 "" H 9400 4350 50  0001 C CNN
F 3 "" H 9400 4350 50  0001 C CNN
	1    9400 4350
	1    0    0    -1  
$EndComp
Wire Wire Line
	8800 4500 9200 4500
Wire Wire Line
	9400 4500 9400 4350
Connection ~ 9200 4500
Wire Wire Line
	9200 4500 9400 4500
Wire Wire Line
	10000 4500 9600 4500
Connection ~ 9400 4500
Connection ~ 9600 4500
Wire Wire Line
	9600 4500 9400 4500
Wire Wire Line
	8800 4800 9200 4800
Connection ~ 9200 4800
Wire Wire Line
	9200 4800 9400 4800
Connection ~ 9600 4800
Wire Wire Line
	9600 4800 10000 4800
$Comp
L power:GND #PWR028
U 1 1 5D6F32A3
P 9400 4950
F 0 "#PWR028" H 9400 4700 50  0001 C CNN
F 1 "GND" H 9405 4777 50  0000 C CNN
F 2 "" H 9400 4950 50  0001 C CNN
F 3 "" H 9400 4950 50  0001 C CNN
	1    9400 4950
	1    0    0    -1  
$EndComp
Connection ~ 9400 4800
Wire Wire Line
	9400 4800 9600 4800
Wire Wire Line
	9400 4800 9400 4950
Wire Notes Line
	8250 600  8250 5250
Wire Notes Line
	11150 600  11150 5250
Text Notes 8300 700  0    50   ~ 0
FPGA Power
Wire Wire Line
	7550 1300 7750 1300
Wire Wire Line
	7750 1400 7550 1400
Wire Wire Line
	7750 1500 7550 1500
Wire Wire Line
	7550 1600 7750 1600
Text GLabel 7750 1600 2    50   BiDi ~ 0
TMS
Text GLabel 7750 1500 2    50   BiDi ~ 0
TDO
Text GLabel 7750 1400 2    50   BiDi ~ 0
TDI
Text GLabel 7750 1300 2    50   BiDi ~ 0
TCK
$Comp
L Device:C C4
U 1 1 5DA4AB4F
P 5850 2800
F 0 "C4" H 5965 2846 50  0000 L CNN
F 1 "100n" H 5965 2755 50  0000 L CNN
F 2 "" H 5888 2650 50  0001 C CNN
F 3 "~" H 5850 2800 50  0001 C CNN
	1    5850 2800
	1    0    0    -1  
$EndComp
$Comp
L power:GND #PWR018
U 1 1 5DA4C4D3
P 5850 3050
F 0 "#PWR018" H 5850 2800 50  0001 C CNN
F 1 "GND" H 5855 2877 50  0000 C CNN
F 2 "" H 5850 3050 50  0001 C CNN
F 3 "" H 5850 3050 50  0001 C CNN
	1    5850 3050
	1    0    0    -1  
$EndComp
Wire Wire Line
	5850 2950 5850 3050
Wire Wire Line
	5850 2650 5850 2550
Wire Wire Line
	5850 2550 6000 2550
$Comp
L Device:R R1
U 1 1 5DA5898D
P 3450 1200
F 0 "R1" H 3520 1246 50  0000 L CNN
F 1 "270R" H 3520 1155 50  0000 L CNN
F 2 "" V 3380 1200 50  0001 C CNN
F 3 "~" H 3450 1200 50  0001 C CNN
	1    3450 1200
	1    0    0    -1  
$EndComp
$Comp
L Device:R R2
U 1 1 5DA58EC0
P 3750 1200
F 0 "R2" H 3820 1246 50  0000 L CNN
F 1 "270R" H 3820 1155 50  0000 L CNN
F 2 "" V 3680 1200 50  0001 C CNN
F 3 "~" H 3750 1200 50  0001 C CNN
	1    3750 1200
	1    0    0    -1  
$EndComp
$Comp
L Device:LED D1
U 1 1 5DA59A0C
P 3450 1600
F 0 "D1" V 3489 1483 50  0000 R CNN
F 1 "LED" V 3398 1483 50  0000 R CNN
F 2 "" H 3450 1600 50  0001 C CNN
F 3 "~" H 3450 1600 50  0001 C CNN
	1    3450 1600
	0    -1   -1   0   
$EndComp
$Comp
L Device:LED D2
U 1 1 5DA5A29F
P 3750 1600
F 0 "D2" V 3789 1483 50  0000 R CNN
F 1 "LED" V 3698 1483 50  0000 R CNN
F 2 "" H 3750 1600 50  0001 C CNN
F 3 "~" H 3750 1600 50  0001 C CNN
	1    3750 1600
	0    -1   -1   0   
$EndComp
$Comp
L Device:Q_NMOS_GSD Q1
U 1 1 5DA5D015
P 3350 2000
F 0 "Q1" H 3556 2046 50  0000 L CNN
F 1 "JTAG DONE" H 3556 1955 50  0000 L CNN
F 2 "" H 3550 2100 50  0001 C CNN
F 3 "~" H 3350 2000 50  0001 C CNN
	1    3350 2000
	1    0    0    -1  
$EndComp
$Comp
L Device:Q_NMOS_GSD Q2
U 1 1 5DA60C60
P 3650 2550
F 0 "Q2" H 3856 2596 50  0000 L CNN
F 1 "JTAG INIT" H 3856 2505 50  0000 L CNN
F 2 "" H 3850 2650 50  0001 C CNN
F 3 "~" H 3650 2550 50  0001 C CNN
	1    3650 2550
	1    0    0    -1  
$EndComp
Wire Wire Line
	3750 2350 3750 1750
Wire Wire Line
	3450 1750 3450 1800
Wire Wire Line
	3450 2200 3450 2250
$Comp
L power:GND #PWR06
U 1 1 5DA6EF6F
P 3450 2250
F 0 "#PWR06" H 3450 2000 50  0001 C CNN
F 1 "GND" H 3455 2077 50  0000 C CNN
F 2 "" H 3450 2250 50  0001 C CNN
F 3 "" H 3450 2250 50  0001 C CNN
	1    3450 2250
	1    0    0    -1  
$EndComp
$Comp
L power:GND #PWR09
U 1 1 5DA6F276
P 3750 2800
F 0 "#PWR09" H 3750 2550 50  0001 C CNN
F 1 "GND" H 3755 2627 50  0000 C CNN
F 2 "" H 3750 2800 50  0001 C CNN
F 3 "" H 3750 2800 50  0001 C CNN
	1    3750 2800
	1    0    0    -1  
$EndComp
Wire Wire Line
	3750 2800 3750 2750
Wire Wire Line
	2900 2000 3150 2000
Wire Wire Line
	2900 2550 3450 2550
Wire Wire Line
	3450 1450 3450 1350
Wire Wire Line
	3750 1350 3750 1450
$Comp
L power:+3.3V #PWR07
U 1 1 5DA85C8F
P 3600 850
F 0 "#PWR07" H 3600 700 50  0001 C CNN
F 1 "+3.3V" H 3615 1023 50  0000 C CNN
F 2 "" H 3600 850 50  0001 C CNN
F 3 "" H 3600 850 50  0001 C CNN
	1    3600 850 
	1    0    0    -1  
$EndComp
Wire Wire Line
	3750 1050 3750 950 
Wire Wire Line
	3750 950  3600 950 
Wire Wire Line
	3600 950  3600 850 
Wire Wire Line
	3600 950  3450 950 
Wire Wire Line
	3450 950  3450 1050
Connection ~ 3600 950 
Text Label 2900 2000 2    50   ~ 0
JTAG_DONE
Text Label 2900 2550 2    50   ~ 0
JTAG_INIT
$Comp
L Device:R R7
U 1 1 5DAA0E56
P 4950 1200
F 0 "R7" H 5020 1246 50  0000 L CNN
F 1 "270R" H 5020 1155 50  0000 L CNN
F 2 "" V 4880 1200 50  0001 C CNN
F 3 "~" H 4950 1200 50  0001 C CNN
	1    4950 1200
	1    0    0    -1  
$EndComp
$Comp
L Device:LED D3
U 1 1 5DAA1417
P 4950 1600
F 0 "D3" V 4989 1483 50  0000 R CNN
F 1 "LED" V 4898 1483 50  0000 R CNN
F 2 "" H 4950 1600 50  0001 C CNN
F 3 "~" H 4950 1600 50  0001 C CNN
	1    4950 1600
	0    -1   -1   0   
$EndComp
Wire Wire Line
	4950 1450 4950 1350
$Comp
L Device:R R5
U 1 1 5DABC124
P 4600 1200
F 0 "R5" H 4670 1246 50  0000 L CNN
F 1 "4K7" H 4670 1155 50  0000 L CNN
F 2 "" V 4530 1200 50  0001 C CNN
F 3 "~" H 4600 1200 50  0001 C CNN
	1    4600 1200
	1    0    0    -1  
$EndComp
$Comp
L power:+3.3V #PWR012
U 1 1 5DABC8A1
P 4600 850
F 0 "#PWR012" H 4600 700 50  0001 C CNN
F 1 "+3.3V" H 4615 1023 50  0000 C CNN
F 2 "" H 4600 850 50  0001 C CNN
F 3 "" H 4600 850 50  0001 C CNN
	1    4600 850 
	1    0    0    -1  
$EndComp
$Comp
L power:+3.3V #PWR013
U 1 1 5DABCE2C
P 4950 850
F 0 "#PWR013" H 4950 700 50  0001 C CNN
F 1 "+3.3V" H 4965 1023 50  0000 C CNN
F 2 "" H 4950 850 50  0001 C CNN
F 3 "" H 4950 850 50  0001 C CNN
	1    4950 850 
	1    0    0    -1  
$EndComp
Wire Wire Line
	4950 1050 4950 850 
Wire Wire Line
	4600 850  4600 1050
Wire Wire Line
	4600 1350 4600 1950
Wire Wire Line
	4600 1950 4950 1950
Wire Wire Line
	4950 1950 4950 1750
Wire Wire Line
	4600 1950 4250 1950
Connection ~ 4600 1950
Text Label 4250 1950 2    50   ~ 0
PROGRAM\
$Comp
L Switch:SW_Push SW1
U 1 1 5DAD0AD6
P 4950 2250
F 0 "SW1" V 4904 2398 50  0000 L CNN
F 1 "Program" V 4995 2398 50  0000 L CNN
F 2 "" H 4950 2450 50  0001 C CNN
F 3 "~" H 4950 2450 50  0001 C CNN
	1    4950 2250
	0    1    1    0   
$EndComp
Wire Wire Line
	4950 2050 4950 1950
Connection ~ 4950 1950
$Comp
L power:GND #PWR014
U 1 1 5DAD60C5
P 4950 2550
F 0 "#PWR014" H 4950 2300 50  0001 C CNN
F 1 "GND" H 4955 2377 50  0000 C CNN
F 2 "" H 4950 2550 50  0001 C CNN
F 3 "" H 4950 2550 50  0001 C CNN
	1    4950 2550
	1    0    0    -1  
$EndComp
Wire Wire Line
	4950 2550 4950 2450
Text Label 5800 1350 2    50   ~ 0
PROGRAM\
Text Label 5800 1750 2    50   ~ 0
JTAG_DONE
Text Label 5800 1450 2    50   ~ 0
JTAG_INIT
Text Label 5800 1650 2    50   ~ 0
CCLK
Text Label 5800 1550 2    50   ~ 0
CFG0
Text Label 5800 1250 2    50   ~ 0
CFG2
Text Label 5800 1150 2    50   ~ 0
CFG1
Wire Wire Line
	6000 1150 5800 1150
Wire Wire Line
	6000 1250 5800 1250
Wire Wire Line
	5800 1350 6000 1350
Wire Wire Line
	6000 1450 5800 1450
Wire Wire Line
	5800 1550 6000 1550
Wire Wire Line
	6000 1650 5800 1650
Wire Wire Line
	5800 1750 6000 1750
Text Label 5800 2050 2    50   ~ 0
SPIDO
Text Label 5800 2350 2    50   ~ 0
SISPI
Text Label 5800 2150 2    50   ~ 0
CSSPI
Wire Wire Line
	6000 2350 5800 2350
Wire Wire Line
	5800 2150 6000 2150
Wire Wire Line
	6000 2050 5800 2050
Text Label 5800 1850 2    50   ~ 0
SPIFAST\
Wire Wire Line
	6000 1850 5800 1850
Text Label 6650 4350 2    50   ~ 0
CFG0
Text Label 6650 4450 2    50   ~ 0
CFG1
Text Label 6650 4550 2    50   ~ 0
CFG2
Text Label 6650 4650 2    50   ~ 0
SPIFAST\
$Comp
L Device:R R8
U 1 1 5DB6C992
P 6800 3400
F 0 "R8" H 6870 3446 50  0000 L CNN
F 1 "10K" H 6870 3355 50  0000 L CNN
F 2 "" V 6730 3400 50  0001 C CNN
F 3 "~" H 6800 3400 50  0001 C CNN
	1    6800 3400
	1    0    0    -1  
$EndComp
$Comp
L Device:R R9
U 1 1 5DB6E48D
P 7100 3400
F 0 "R9" H 7170 3446 50  0000 L CNN
F 1 "10K" H 7170 3355 50  0000 L CNN
F 2 "" V 7030 3400 50  0001 C CNN
F 3 "~" H 7100 3400 50  0001 C CNN
	1    7100 3400
	1    0    0    -1  
$EndComp
$Comp
L Device:R R10
U 1 1 5DB6E771
P 7400 3400
F 0 "R10" H 7470 3446 50  0000 L CNN
F 1 "10K" H 7470 3355 50  0000 L CNN
F 2 "" V 7330 3400 50  0001 C CNN
F 3 "~" H 7400 3400 50  0001 C CNN
	1    7400 3400
	1    0    0    -1  
$EndComp
$Comp
L Device:R R11
U 1 1 5DB6EC84
P 7700 3400
F 0 "R11" H 7770 3446 50  0000 L CNN
F 1 "10K" H 7770 3355 50  0000 L CNN
F 2 "" V 7630 3400 50  0001 C CNN
F 3 "~" H 7700 3400 50  0001 C CNN
	1    7700 3400
	1    0    0    -1  
$EndComp
Wire Wire Line
	6800 3250 6800 3200
Wire Wire Line
	6800 3200 7100 3200
Wire Wire Line
	7100 3200 7100 3250
Wire Wire Line
	7100 3200 7250 3200
Wire Wire Line
	7250 3200 7250 3100
Connection ~ 7100 3200
Wire Wire Line
	7250 3200 7400 3200
Wire Wire Line
	7400 3200 7400 3250
Connection ~ 7250 3200
Wire Wire Line
	7400 3200 7700 3200
Wire Wire Line
	7700 3200 7700 3250
Connection ~ 7400 3200
$Comp
L power:GND #PWR020
U 1 1 5DBBEEBD
P 7200 5000
F 0 "#PWR020" H 7200 4750 50  0001 C CNN
F 1 "GND" H 7205 4827 50  0000 C CNN
F 2 "" H 7200 5000 50  0001 C CNN
F 3 "" H 7200 5000 50  0001 C CNN
	1    7200 5000
	1    0    0    -1  
$EndComp
Wire Wire Line
	6800 4900 7100 4900
Connection ~ 7100 4900
Wire Wire Line
	7100 4900 7200 4900
Wire Wire Line
	7400 4900 7200 4900
Connection ~ 7200 4900
Wire Wire Line
	7700 4900 7400 4900
Connection ~ 7400 4900
$Comp
L Device:Jumper JP4
U 1 1 5DBE6991
P 7700 3850
F 0 "JP4" V 7654 3977 50  0000 L CNN
F 1 "SPIFAST" V 7745 3977 50  0000 L CNN
F 2 "" H 7700 3850 50  0001 C CNN
F 3 "~" H 7700 3850 50  0001 C CNN
	1    7700 3850
	0    1    1    0   
$EndComp
$Comp
L Device:Jumper JP3
U 1 1 5DBF0B29
P 7400 3850
F 0 "JP3" V 7354 3976 50  0000 L CNN
F 1 "CFG2" V 7445 3976 50  0000 L CNN
F 2 "" H 7400 3850 50  0001 C CNN
F 3 "~" H 7400 3850 50  0001 C CNN
	1    7400 3850
	0    1    1    0   
$EndComp
$Comp
L Device:Jumper JP2
U 1 1 5DBF0EA0
P 7100 3850
F 0 "JP2" V 7054 3976 50  0000 L CNN
F 1 "CFG1" V 7145 3976 50  0000 L CNN
F 2 "" H 7100 3850 50  0001 C CNN
F 3 "~" H 7100 3850 50  0001 C CNN
	1    7100 3850
	0    1    1    0   
$EndComp
$Comp
L Device:Jumper JP1
U 1 1 5DBF11E6
P 6800 3850
F 0 "JP1" V 6754 3976 50  0000 L CNN
F 1 "CFG0" V 6845 3976 50  0000 L CNN
F 2 "" H 6800 3850 50  0001 C CNN
F 3 "~" H 6800 3850 50  0001 C CNN
	1    6800 3850
	0    1    1    0   
$EndComp
Wire Wire Line
	7200 5000 7200 4900
$Comp
L power:+3.3V #PWR021
U 1 1 5DC00BE2
P 7250 3100
F 0 "#PWR021" H 7250 2950 50  0001 C CNN
F 1 "+3.3V" H 7265 3273 50  0000 C CNN
F 2 "" H 7250 3100 50  0001 C CNN
F 3 "" H 7250 3100 50  0001 C CNN
	1    7250 3100
	1    0    0    -1  
$EndComp
Wire Wire Line
	6800 4150 6800 4350
Wire Wire Line
	7100 4150 7100 4450
Wire Wire Line
	7400 4150 7400 4550
Wire Wire Line
	7700 4150 7700 4650
Wire Wire Line
	6650 4350 6800 4350
Connection ~ 6800 4350
Wire Wire Line
	6800 4350 6800 4900
Wire Wire Line
	6650 4450 7100 4450
Connection ~ 7100 4450
Wire Wire Line
	7100 4450 7100 4900
Wire Wire Line
	6650 4550 7400 4550
Connection ~ 7400 4550
Wire Wire Line
	7400 4550 7400 4900
Wire Wire Line
	6650 4650 7700 4650
Connection ~ 7700 4650
Wire Wire Line
	7700 4650 7700 4900
Wire Notes Line
	8200 2800 6200 2800
Text Notes 7100 2900 2    50   ~ 0
Configuration Settings
Wire Notes Line
	6150 3300 3900 3300
Text Notes 4700 3450 2    50   ~ 0
Configuration Flash
Wire Notes Line
	8200 600  2250 600 
Wire Notes Line
	2250 5400 8200 5400
Text Notes 2800 700  2    50   ~ 0
Configuration
Wire Wire Line
	4650 4300 4350 4300
Text Label 4350 4300 2    50   ~ 0
CSSPI
Connection ~ 4550 4400
Wire Wire Line
	4550 4050 4550 4400
Wire Wire Line
	4550 3700 4550 3750
$Comp
L Device:R R3
U 1 1 5DD0E3EF
P 4550 3900
F 0 "R3" H 4620 3946 50  0000 L CNN
F 1 "10K" H 4620 3855 50  0000 L CNN
F 2 "" V 4480 3900 50  0001 C CNN
F 3 "~" H 4550 3900 50  0001 C CNN
	1    4550 3900
	1    0    0    -1  
$EndComp
$Comp
L power:+3.3V #PWR010
U 1 1 5DD0DD10
P 4550 3700
F 0 "#PWR010" H 4550 3550 50  0001 C CNN
F 1 "+3.3V" H 4565 3873 50  0000 C CNN
F 2 "" H 4550 3700 50  0001 C CNN
F 3 "" H 4550 3700 50  0001 C CNN
	1    4550 3700
	1    0    0    -1  
$EndComp
Wire Wire Line
	4550 4400 4650 4400
Wire Wire Line
	4550 4500 4550 4400
Wire Wire Line
	4650 4500 4550 4500
Wire Wire Line
	4350 4600 4550 4600
Text Label 4350 4600 2    50   ~ 0
CCLK
Wire Wire Line
	4350 4200 4650 4200
Text Label 4350 4200 2    50   ~ 0
SISPI
Wire Wire Line
	4650 4100 4350 4100
Text Label 4350 4100 2    50   ~ 0
SPIDO
Wire Wire Line
	5700 4200 5700 4300
Wire Wire Line
	5550 4200 5700 4200
Wire Wire Line
	5700 4100 5700 4000
Wire Wire Line
	5550 4100 5700 4100
$Comp
L power:GND #PWR016
U 1 1 5DCCC5B2
P 5700 4300
F 0 "#PWR016" H 5700 4050 50  0001 C CNN
F 1 "GND" H 5705 4127 50  0000 C CNN
F 2 "" H 5700 4300 50  0001 C CNN
F 3 "" H 5700 4300 50  0001 C CNN
	1    5700 4300
	1    0    0    -1  
$EndComp
$Comp
L power:+3.3V #PWR015
U 1 1 5DCCB46F
P 5700 4000
F 0 "#PWR015" H 5700 3850 50  0001 C CNN
F 1 "+3.3V" H 5715 4173 50  0000 C CNN
F 2 "" H 5700 4000 50  0001 C CNN
F 3 "" H 5700 4000 50  0001 C CNN
	1    5700 4000
	1    0    0    -1  
$EndComp
$Comp
L lattice:M25P16 U4
U 1 1 5DCC3DA0
P 5100 4300
F 0 "U4" H 5100 4765 50  0000 C CNN
F 1 "M25P16" H 5100 4674 50  0000 C CNN
F 2 "Power_Integrations:SO-8" H 5200 4000 50  0001 C CNN
F 3 "" H 5200 4000 50  0001 C CNN
	1    5100 4300
	1    0    0    -1  
$EndComp
$Comp
L Device:R R4
U 1 1 5DDEDCFA
P 4550 4900
F 0 "R4" H 4620 4946 50  0000 L CNN
F 1 "4K7" H 4620 4855 50  0000 L CNN
F 2 "" V 4480 4900 50  0001 C CNN
F 3 "~" H 4550 4900 50  0001 C CNN
	1    4550 4900
	1    0    0    -1  
$EndComp
$Comp
L power:GND #PWR011
U 1 1 5DDEE03A
P 4550 5150
F 0 "#PWR011" H 4550 4900 50  0001 C CNN
F 1 "GND" H 4555 4977 50  0000 C CNN
F 2 "" H 4550 5150 50  0001 C CNN
F 3 "" H 4550 5150 50  0001 C CNN
	1    4550 5150
	1    0    0    -1  
$EndComp
Wire Wire Line
	4550 5150 4550 5050
Wire Wire Line
	4550 4750 4550 4600
Connection ~ 4550 4600
Wire Wire Line
	4550 4600 4650 4600
$Comp
L power:+3.3V #PWR019
U 1 1 5DE30EAB
P 5950 4650
F 0 "#PWR019" H 5950 4500 50  0001 C CNN
F 1 "+3.3V" H 5965 4823 50  0000 C CNN
F 2 "" H 5950 4650 50  0001 C CNN
F 3 "" H 5950 4650 50  0001 C CNN
	1    5950 4650
	1    0    0    -1  
$EndComp
$Comp
L Device:C C5
U 1 1 5DE31779
P 5950 4900
F 0 "C5" H 6065 4946 50  0000 L CNN
F 1 "100n" H 6065 4855 50  0000 L CNN
F 2 "" H 5988 4750 50  0001 C CNN
F 3 "~" H 5950 4900 50  0001 C CNN
	1    5950 4900
	1    0    0    -1  
$EndComp
$Comp
L Device:C C3
U 1 1 5DE31F36
P 5550 4900
F 0 "C3" H 5665 4946 50  0000 L CNN
F 1 "100n" H 5665 4855 50  0000 L CNN
F 2 "" H 5588 4750 50  0001 C CNN
F 3 "~" H 5550 4900 50  0001 C CNN
	1    5550 4900
	1    0    0    -1  
$EndComp
$Comp
L power:GND #PWR017
U 1 1 5DE34040
P 5750 5150
F 0 "#PWR017" H 5750 4900 50  0001 C CNN
F 1 "GND" H 5755 4977 50  0000 C CNN
F 2 "" H 5750 5150 50  0001 C CNN
F 3 "" H 5750 5150 50  0001 C CNN
	1    5750 5150
	1    0    0    -1  
$EndComp
Wire Wire Line
	5750 5150 5950 5150
Wire Wire Line
	5950 5150 5950 5050
Wire Wire Line
	5750 5150 5550 5150
Wire Wire Line
	5550 5150 5550 5050
Connection ~ 5750 5150
Wire Wire Line
	5550 4750 5550 4700
Wire Wire Line
	5550 4700 5950 4700
Wire Wire Line
	5950 4700 5950 4650
Wire Wire Line
	5950 4750 5950 4700
Connection ~ 5950 4700
Wire Notes Line
	8200 600  8200 5400
Wire Notes Line
	6200 2800 6200 5400
Wire Notes Line
	6150 3300 6150 5400
Wire Notes Line
	3900 3300 3900 5400
Wire Notes Line
	2250 600  2250 5400
Wire Wire Line
	9000 3100 9400 3100
Wire Notes Line
	8250 600  11150 600 
Wire Notes Line
	8250 5250 11150 5250
$Comp
L Device:C C20
U 1 1 5E008D15
P 10350 1600
F 0 "C20" H 10465 1646 50  0000 L CNN
F 1 "5n6" H 10465 1555 50  0000 L CNN
F 2 "" H 10388 1450 50  0001 C CNN
F 3 "~" H 10350 1600 50  0001 C CNN
	1    10350 1600
	1    0    0    -1  
$EndComp
$Comp
L Device:C C21
U 1 1 5E0096B5
P 10700 1600
F 0 "C21" H 10815 1646 50  0000 L CNN
F 1 "5n6" H 10815 1555 50  0000 L CNN
F 2 "" H 10738 1450 50  0001 C CNN
F 3 "~" H 10700 1600 50  0001 C CNN
	1    10700 1600
	1    0    0    -1  
$EndComp
$Comp
L Device:R R12
U 1 1 5E009EA2
P 11000 1600
F 0 "R12" H 11070 1646 50  0000 L CNN
F 1 "10K" H 11070 1555 50  0000 L CNN
F 2 "" V 10930 1600 50  0001 C CNN
F 3 "~" H 11000 1600 50  0001 C CNN
	1    11000 1600
	1    0    0    -1  
$EndComp
Wire Wire Line
	11000 1800 11000 1750
Wire Wire Line
	11000 1450 11000 1200
Wire Wire Line
	11000 1200 10150 1200
Wire Wire Line
	10250 1800 10350 1800
Wire Wire Line
	10700 1750 10700 1800
Connection ~ 10700 1800
Wire Wire Line
	10700 1800 11000 1800
Wire Wire Line
	10350 1750 10350 1800
Connection ~ 10350 1800
Wire Wire Line
	10350 1800 10700 1800
Wire Wire Line
	10350 1450 10350 1400
Wire Wire Line
	10350 1400 10150 1400
Wire Wire Line
	10150 1300 10700 1300
Wire Wire Line
	10700 1300 10700 1450
Text GLabel 3300 4750 2    50   BiDi ~ 0
TMS
Text GLabel 3300 4650 2    50   BiDi ~ 0
TDO
Text GLabel 3300 4550 2    50   BiDi ~ 0
TDI
Text GLabel 3300 4450 2    50   BiDi ~ 0
TCK
$Comp
L power:+3.3V #PWR04
U 1 1 5D583AC4
P 3300 4850
F 0 "#PWR04" H 3300 4700 50  0001 C CNN
F 1 "+3.3V" V 3315 4978 50  0000 L CNN
F 2 "" H 3300 4850 50  0001 C CNN
F 3 "" H 3300 4850 50  0001 C CNN
	1    3300 4850
	0    1    1    0   
$EndComp
$Comp
L power:GND #PWR05
U 1 1 5D58F232
P 3300 4950
F 0 "#PWR05" H 3300 4700 50  0001 C CNN
F 1 "GND" H 3305 4777 50  0000 C CNN
F 2 "" H 3300 4950 50  0001 C CNN
F 3 "" H 3300 4950 50  0001 C CNN
	1    3300 4950
	1    0    0    -1  
$EndComp
$Comp
L Connector:Conn_01x06_Male J1
U 1 1 5D595157
P 2650 4650
F 0 "J1" H 2758 5031 50  0000 C CNN
F 1 "JTAG" H 2758 4940 50  0000 C CNN
F 2 "" H 2650 4650 50  0001 C CNN
F 3 "~" H 2650 4650 50  0001 C CNN
	1    2650 4650
	1    0    0    -1  
$EndComp
Wire Wire Line
	3300 4450 2850 4450
Wire Wire Line
	3300 4550 2850 4550
Wire Wire Line
	3300 4750 2850 4750
Wire Wire Line
	2850 4650 3300 4650
Wire Wire Line
	3300 4850 2850 4850
Wire Wire Line
	3300 4950 2850 4950
$Comp
L Oscillator:ASCO X1
U 1 1 5D61F862
P 3700 6400
F 0 "X1" H 4144 6446 50  0000 L CNN
F 1 "ASCO" H 4144 6355 50  0000 L CNN
F 2 "Oscillator:Oscillator_SMD_Abracon_ASCO-4Pin_1.6x1.2mm" H 3800 6050 50  0001 C CNN
F 3 "https://abracon.com/Oscillators/ASCO.pdf" H 3475 6525 50  0001 C CNN
	1    3700 6400
	1    0    0    -1  
$EndComp
$Comp
L power:+3.3V #PWR03
U 1 1 5D63B960
P 3150 5850
F 0 "#PWR03" H 3150 5700 50  0001 C CNN
F 1 "+3.3V" H 3165 6023 50  0000 C CNN
F 2 "" H 3150 5850 50  0001 C CNN
F 3 "" H 3150 5850 50  0001 C CNN
	1    3150 5850
	1    0    0    -1  
$EndComp
Wire Wire Line
	3150 6400 3150 6050
Wire Wire Line
	3700 6050 3150 6050
Connection ~ 3150 6050
Wire Wire Line
	3150 6050 3150 5850
Wire Wire Line
	3700 6100 3700 6050
$Comp
L power:GND #PWR08
U 1 1 5D665FF9
P 3700 6950
F 0 "#PWR08" H 3700 6700 50  0001 C CNN
F 1 "GND" H 3705 6777 50  0000 C CNN
F 2 "" H 3700 6950 50  0001 C CNN
F 3 "" H 3700 6950 50  0001 C CNN
	1    3700 6950
	1    0    0    -1  
$EndComp
Wire Wire Line
	3700 6700 3700 6850
$Comp
L Device:C C2
U 1 1 5D6732D2
P 3150 6650
F 0 "C2" H 3265 6696 50  0000 L CNN
F 1 "100n" H 3265 6605 50  0000 L CNN
F 2 "" H 3188 6500 50  0001 C CNN
F 3 "~" H 3150 6650 50  0001 C CNN
	1    3150 6650
	1    0    0    -1  
$EndComp
Wire Wire Line
	3150 6500 3150 6400
Connection ~ 3150 6400
Wire Wire Line
	3150 6800 3150 6850
Connection ~ 3700 6850
Wire Wire Line
	3700 6850 3700 6950
$Comp
L Device:C C1
U 1 1 5D68DE01
P 2750 6650
F 0 "C1" H 2865 6696 50  0000 L CNN
F 1 "1n" H 2865 6605 50  0000 L CNN
F 2 "" H 2788 6500 50  0001 C CNN
F 3 "~" H 2750 6650 50  0001 C CNN
	1    2750 6650
	1    0    0    -1  
$EndComp
Wire Wire Line
	3300 6400 3150 6400
Wire Wire Line
	3150 6400 2750 6400
Wire Wire Line
	2750 6400 2750 6500
Wire Wire Line
	2750 6800 2750 6850
Wire Wire Line
	2750 6850 3150 6850
Connection ~ 3150 6850
Wire Wire Line
	3150 6850 3700 6850
$Comp
L Device:R R6
U 1 1 5D6B96A0
P 4600 6400
F 0 "R6" V 4393 6400 50  0000 C CNN
F 1 "33" V 4484 6400 50  0000 C CNN
F 2 "" V 4530 6400 50  0001 C CNN
F 3 "~" H 4600 6400 50  0001 C CNN
	1    4600 6400
	0    1    1    0   
$EndComp
Wire Wire Line
	4450 6400 4100 6400
Wire Wire Line
	4750 6400 5050 6400
Text GLabel 5050 6400 2    50   Input ~ 0
25MHz
Wire Notes Line
	2250 5450 5700 5450
Wire Notes Line
	5700 5450 5700 7700
Wire Notes Line
	5700 7700 2250 7700
Wire Notes Line
	2250 7700 2250 5450
Text Notes 2300 5550 0    50   ~ 0
Clock Source
$Sheet
S 600  600  1550 1500
U 5D74FCF3
F0 "Bank 4" 50
F1 "lattice_b4.sch" 50
$EndSheet
$Sheet
S 650  2300 1500 1450
U 5E15E027
F0 "OsciloProbe" 50
F1 "lattice_sram.sch" 50
$EndSheet
Text GLabel 7750 1800 2    50   Input ~ 0
JTAG_VCC
Wire Wire Line
	7750 1800 7550 1800
$Comp
L power:+3.3V #PWR?
U 1 1 5D732FA7
P 5800 2550
F 0 "#PWR?" H 5800 2400 50  0001 C CNN
F 1 "+3.3V" H 5815 2723 50  0000 C CNN
F 2 "" H 5800 2550 50  0001 C CNN
F 3 "" H 5800 2550 50  0001 C CNN
	1    5800 2550
	0    -1   -1   0   
$EndComp
Wire Wire Line
	5800 2550 5850 2550
Connection ~ 5850 2550
$EndSCHEMATC
