EESchema Schematic File Version 4
LIBS:lnboard-cache
EELAYER 29 0
EELAYER END
$Descr A4 11693 8268
encoding utf-8
Sheet 1 5
Title ""
Date ""
Rev ""
Comp ""
Comment1 ""
Comment2 ""
Comment3 ""
Comment4 ""
$EndDescr
$Comp
L Allwinner_V3S:V3S_QFP-128 U1
U 1 1 5D2B65B6
P 14950 2000
F 0 "U1" H 15500 -900 0   0001 C CNN
F 1 "V3S_QFP-128" H 15500 -900 0   0001 C CNN
F 2 "Housings_QFP:LQFP-128_14x14mm_Pitch0.4mm" H 15000 800 0   0001 C CNN
F 3 "http://linux-sunxi.org/images/2/23/Allwinner_V3s_Datasheet_V1.0.pdf" H 15500 -900 0   0001 C CNN
	1    14950 2000
	1    0    0    -1  
$EndComp
$Comp
L Allwinner_V3S:V3S_QFP-128 U1
U 2 1 5D2BAF6B
P 15100 3700
F 0 "U1" H 15650 800 0   0001 C CNN
F 1 "V3S_QFP-128" H 15650 800 0   0001 C CNN
F 2 "Housings_QFP:LQFP-128_14x14mm_Pitch0.4mm" H 15150 2500 0   0001 C CNN
F 3 "http://linux-sunxi.org/images/2/23/Allwinner_V3s_Datasheet_V1.0.pdf" H 15650 800 0   0001 C CNN
	2    15100 3700
	1    0    0    -1  
$EndComp
$Comp
L Allwinner_V3S:V3S_QFP-128 U1
U 3 1 5D2BE4E5
P 17700 2900
F 0 "U1" H 18250 0   0   0001 C CNN
F 1 "V3S_QFP-128" H 18250 0   0   0001 C CNN
F 2 "Housings_QFP:LQFP-128_14x14mm_Pitch0.4mm" H 17750 1700 0   0001 C CNN
F 3 "http://linux-sunxi.org/images/2/23/Allwinner_V3s_Datasheet_V1.0.pdf" H 18250 0   0   0001 C CNN
	3    17700 2900
	1    0    0    -1  
$EndComp
$Comp
L Allwinner_V3S:V3S_QFP-128 U1
U 4 1 5D2C1DB3
P 20050 1800
F 0 "U1" H 20600 -1100 0   0001 C CNN
F 1 "V3S_QFP-128" H 20600 -1100 0   0001 C CNN
F 2 "Housings_QFP:LQFP-128_14x14mm_Pitch0.4mm" H 20100 600 0   0001 C CNN
F 3 "http://linux-sunxi.org/images/2/23/Allwinner_V3s_Datasheet_V1.0.pdf" H 20600 -1100 0   0001 C CNN
	4    20050 1800
	1    0    0    -1  
$EndComp
$Comp
L Allwinner_V3S:V3S_QFP-128 U1
U 5 1 5D2C59F9
P 20200 3450
F 0 "U1" H 20750 550 0   0001 C CNN
F 1 "V3S_QFP-128" H 20750 550 0   0001 C CNN
F 2 "Housings_QFP:LQFP-128_14x14mm_Pitch0.4mm" H 20250 2250 0   0001 C CNN
F 3 "http://linux-sunxi.org/images/2/23/Allwinner_V3s_Datasheet_V1.0.pdf" H 20750 550 0   0001 C CNN
	5    20200 3450
	1    0    0    -1  
$EndComp
$Comp
L Allwinner_V3S:V3S_QFP-128 U1
U 6 1 5D2CDD0A
P 20250 4500
F 0 "U1" H 20800 1600 0   0001 C CNN
F 1 "V3S_QFP-128" H 20800 1600 0   0001 C CNN
F 2 "Housings_QFP:LQFP-128_14x14mm_Pitch0.4mm" H 20300 3300 0   0001 C CNN
F 3 "http://linux-sunxi.org/images/2/23/Allwinner_V3s_Datasheet_V1.0.pdf" H 20800 1600 0   0001 C CNN
	6    20250 4500
	1    0    0    -1  
$EndComp
$Comp
L Allwinner_V3S:V3S_QFP-128 U1
U 7 1 5D2CF10A
P 15050 5950
F 0 "U1" H 15600 3050 0   0001 C CNN
F 1 "V3S_QFP-128" H 15600 3050 0   0001 C CNN
F 2 "Housings_QFP:LQFP-128_14x14mm_Pitch0.4mm" H 15100 4750 0   0001 C CNN
F 3 "http://linux-sunxi.org/images/2/23/Allwinner_V3s_Datasheet_V1.0.pdf" H 15600 3050 0   0001 C CNN
	7    15050 5950
	1    0    0    -1  
$EndComp
$Comp
L Allwinner_V3S:V3S_QFP-128 U1
U 8 1 5D2D37BE
P 18300 5900
F 0 "U1" H 18850 3000 0   0001 C CNN
F 1 "V3S_QFP-128" H 18850 3000 0   0001 C CNN
F 2 "Housings_QFP:LQFP-128_14x14mm_Pitch0.4mm" H 18350 4700 0   0001 C CNN
F 3 "http://linux-sunxi.org/images/2/23/Allwinner_V3s_Datasheet_V1.0.pdf" H 18850 3000 0   0001 C CNN
	8    18300 5900
	1    0    0    -1  
$EndComp
$Sheet
S 9000 3050 1100 1350
U 5D8B3E51
F0 "FTDI" 50
F1 "ftdi_bridge.sch" 50
$EndSheet
$Sheet
S 9000 850  1950 1950
U 5D57F3A9
F0 "FPGA" 50
F1 "lattice.sch" 50
$EndSheet
$Comp
L lattice:AP3429 U?
U 1 1 5D80479F
P 1700 1350
F 0 "U?" H 1675 1915 50  0000 C CNN
F 1 "AP3429" H 1675 1824 50  0000 C CNN
F 2 "TO_SOT_Packages_SMD:TSOT-23-5" H 1700 900 50  0001 C CNN
F 3 "https://cz.mouser.com/datasheet/2/115/AP3429_A-766309.pdf" H 1700 1000 50  0001 C CNN
	1    1700 1350
	1    0    0    -1  
$EndComp
$Comp
L power:+5V #PWR?
U 1 1 5D8067D2
P 850 1000
F 0 "#PWR?" H 850 850 50  0001 C CNN
F 1 "+5V" H 865 1173 50  0000 C CNN
F 2 "" H 850 1000 50  0001 C CNN
F 3 "" H 850 1000 50  0001 C CNN
	1    850  1000
	1    0    0    -1  
$EndComp
$Comp
L Device:C C?
U 1 1 5D8075AE
P 1000 1500
F 0 "C?" H 1115 1546 50  0000 L CNN
F 1 "22u" H 1115 1455 50  0000 L CNN
F 2 "" H 1038 1350 50  0001 C CNN
F 3 "~" H 1000 1500 50  0001 C CNN
	1    1000 1500
	1    0    0    -1  
$EndComp
$Comp
L power:GND #PWR?
U 1 1 5D807AAF
P 1000 1750
F 0 "#PWR?" H 1000 1500 50  0001 C CNN
F 1 "GND" H 1005 1577 50  0000 C CNN
F 2 "" H 1000 1750 50  0001 C CNN
F 3 "" H 1000 1750 50  0001 C CNN
	1    1000 1750
	1    0    0    -1  
$EndComp
Wire Wire Line
	1000 1750 1000 1650
$Comp
L Device:R R?
U 1 1 5D80822A
P 1000 1200
F 0 "R?" H 1070 1246 50  0000 L CNN
F 1 "10K" H 1070 1155 50  0000 L CNN
F 2 "" V 930 1200 50  0001 C CNN
F 3 "~" H 1000 1200 50  0001 C CNN
	1    1000 1200
	1    0    0    -1  
$EndComp
Wire Wire Line
	1200 1050 1000 1050
Wire Wire Line
	850  1350 1000 1350
Connection ~ 1000 1350
Wire Wire Line
	1200 1350 1000 1350
Wire Wire Line
	850  1000 850  1350
Wire Wire Line
	1200 1650 1000 1650
Connection ~ 1000 1650
$Comp
L Device:L L?
U 1 1 5D80A3F5
P 2350 1350
F 0 "L?" V 2540 1350 50  0000 C CNN
F 1 "2.2u" V 2449 1350 50  0000 C CNN
F 2 "" H 2350 1350 50  0001 C CNN
F 3 "~" H 2350 1350 50  0001 C CNN
	1    2350 1350
	0    -1   -1   0   
$EndComp
Wire Wire Line
	2200 1350 2150 1350
$Comp
L Device:C C?
U 1 1 5D80AFA1
P 2550 1500
F 0 "C?" H 2665 1546 50  0000 L CNN
F 1 "22p" H 2665 1455 50  0000 L CNN
F 2 "" H 2588 1350 50  0001 C CNN
F 3 "~" H 2550 1500 50  0001 C CNN
	1    2550 1500
	1    0    0    -1  
$EndComp
Wire Wire Line
	2550 1350 2500 1350
Wire Wire Line
	2550 1650 2150 1650
$Comp
L Device:R R?
U 1 1 5D80BB0F
P 6650 1850
F 0 "R?" H 6720 1896 50  0000 L CNN
F 1 "44.2k" H 6720 1805 50  0000 L CNN
F 2 "" V 6580 1850 50  0001 C CNN
F 3 "~" H 6650 1850 50  0001 C CNN
	1    6650 1850
	1    0    0    -1  
$EndComp
Connection ~ 2550 1350
$Comp
L Device:R R?
U 1 1 5D80BE45
P 2850 1800
F 0 "R?" H 2920 1846 50  0000 L CNN
F 1 "150K" H 2920 1755 50  0000 L CNN
F 2 "" V 2780 1800 50  0001 C CNN
F 3 "~" H 2850 1800 50  0001 C CNN
	1    2850 1800
	1    0    0    -1  
$EndComp
Wire Wire Line
	2850 1650 2550 1650
Connection ~ 2550 1650
$Comp
L power:GND #PWR?
U 1 1 5D80C7FF
P 2850 1950
F 0 "#PWR?" H 2850 1700 50  0001 C CNN
F 1 "GND" H 2855 1777 50  0000 C CNN
F 2 "" H 2850 1950 50  0001 C CNN
F 3 "" H 2850 1950 50  0001 C CNN
	1    2850 1950
	1    0    0    -1  
$EndComp
$Comp
L Device:C C?
U 1 1 5D80CA19
P 3250 1500
F 0 "C?" H 3365 1546 50  0000 L CNN
F 1 "22u" H 3365 1455 50  0000 L CNN
F 2 "" H 3288 1350 50  0001 C CNN
F 3 "~" H 3250 1500 50  0001 C CNN
	1    3250 1500
	1    0    0    -1  
$EndComp
$Comp
L power:GND #PWR?
U 1 1 5D80D671
P 3250 1650
F 0 "#PWR?" H 3250 1400 50  0001 C CNN
F 1 "GND" H 3255 1477 50  0000 C CNN
F 2 "" H 3250 1650 50  0001 C CNN
F 3 "" H 3250 1650 50  0001 C CNN
	1    3250 1650
	1    0    0    -1  
$EndComp
$Comp
L power:+5V #PWR?
U 1 1 5D815F6B
P 850 2300
F 0 "#PWR?" H 850 2150 50  0001 C CNN
F 1 "+5V" H 865 2473 50  0000 C CNN
F 2 "" H 850 2300 50  0001 C CNN
F 3 "" H 850 2300 50  0001 C CNN
	1    850  2300
	1    0    0    -1  
$EndComp
$Comp
L Device:C C?
U 1 1 5D815F71
P 1000 2800
F 0 "C?" H 1115 2846 50  0000 L CNN
F 1 "22u" H 1115 2755 50  0000 L CNN
F 2 "" H 1038 2650 50  0001 C CNN
F 3 "~" H 1000 2800 50  0001 C CNN
	1    1000 2800
	1    0    0    -1  
$EndComp
$Comp
L power:GND #PWR?
U 1 1 5D815F77
P 1000 3050
F 0 "#PWR?" H 1000 2800 50  0001 C CNN
F 1 "GND" H 1005 2877 50  0000 C CNN
F 2 "" H 1000 3050 50  0001 C CNN
F 3 "" H 1000 3050 50  0001 C CNN
	1    1000 3050
	1    0    0    -1  
$EndComp
Wire Wire Line
	1000 3050 1000 2950
$Comp
L Device:R R?
U 1 1 5D815F7E
P 1000 2500
F 0 "R?" H 1070 2546 50  0000 L CNN
F 1 "10K" H 1070 2455 50  0000 L CNN
F 2 "" V 930 2500 50  0001 C CNN
F 3 "~" H 1000 2500 50  0001 C CNN
	1    1000 2500
	1    0    0    -1  
$EndComp
Wire Wire Line
	1200 2350 1000 2350
Wire Wire Line
	850  2650 1000 2650
Connection ~ 1000 2650
Wire Wire Line
	1200 2650 1000 2650
Wire Wire Line
	850  2300 850  2650
Wire Wire Line
	1200 2950 1000 2950
Connection ~ 1000 2950
$Comp
L Device:L L?
U 1 1 5D815F8B
P 2350 2650
F 0 "L?" V 2540 2650 50  0000 C CNN
F 1 "2.2u" V 2449 2650 50  0000 C CNN
F 2 "" H 2350 2650 50  0001 C CNN
F 3 "~" H 2350 2650 50  0001 C CNN
	1    2350 2650
	0    -1   -1   0   
$EndComp
Wire Wire Line
	2200 2650 2150 2650
$Comp
L Device:C C?
U 1 1 5D815F92
P 2550 2800
F 0 "C?" H 2665 2846 50  0000 L CNN
F 1 "22p" H 2665 2755 50  0000 L CNN
F 2 "" H 2588 2650 50  0001 C CNN
F 3 "~" H 2550 2800 50  0001 C CNN
	1    2550 2800
	1    0    0    -1  
$EndComp
Wire Wire Line
	2550 2650 2500 2650
Wire Wire Line
	2550 2950 2150 2950
$Comp
L Device:R R?
U 1 1 5D815F9A
P 2850 2800
F 0 "R?" H 2920 2846 50  0000 L CNN
F 1 "300K" H 2920 2755 50  0000 L CNN
F 2 "" V 2780 2800 50  0001 C CNN
F 3 "~" H 2850 2800 50  0001 C CNN
	1    2850 2800
	1    0    0    -1  
$EndComp
Wire Wire Line
	2850 2650 2550 2650
Connection ~ 2550 2650
$Comp
L Device:R R?
U 1 1 5D815FA2
P 2850 3100
F 0 "R?" H 2920 3146 50  0000 L CNN
F 1 "150K" H 2920 3055 50  0000 L CNN
F 2 "" V 2780 3100 50  0001 C CNN
F 3 "~" H 2850 3100 50  0001 C CNN
	1    2850 3100
	1    0    0    -1  
$EndComp
Wire Wire Line
	2850 2950 2550 2950
Connection ~ 2850 2950
Connection ~ 2550 2950
$Comp
L power:GND #PWR?
U 1 1 5D815FAB
P 2850 3250
F 0 "#PWR?" H 2850 3000 50  0001 C CNN
F 1 "GND" H 2855 3077 50  0000 C CNN
F 2 "" H 2850 3250 50  0001 C CNN
F 3 "" H 2850 3250 50  0001 C CNN
	1    2850 3250
	1    0    0    -1  
$EndComp
$Comp
L Device:C C?
U 1 1 5D815FB1
P 3250 2800
F 0 "C?" H 3365 2846 50  0000 L CNN
F 1 "22u" H 3365 2755 50  0000 L CNN
F 2 "" H 3288 2650 50  0001 C CNN
F 3 "~" H 3250 2800 50  0001 C CNN
	1    3250 2800
	1    0    0    -1  
$EndComp
Wire Wire Line
	2850 2650 3100 2650
Connection ~ 2850 2650
$Comp
L power:GND #PWR?
U 1 1 5D815FB9
P 3250 2950
F 0 "#PWR?" H 3250 2700 50  0001 C CNN
F 1 "GND" H 3255 2777 50  0000 C CNN
F 2 "" H 3250 2950 50  0001 C CNN
F 3 "" H 3250 2950 50  0001 C CNN
	1    3250 2950
	1    0    0    -1  
$EndComp
$Comp
L lattice:AP3429 U?
U 1 1 5D815F65
P 1700 2650
F 0 "U?" H 1675 3215 50  0000 C CNN
F 1 "AP3429" H 1675 3124 50  0000 C CNN
F 2 "TO_SOT_Packages_SMD:TSOT-23-5" H 1700 2200 50  0001 C CNN
F 3 "https://cz.mouser.com/datasheet/2/115/AP3429_A-766309.pdf" H 1700 2300 50  0001 C CNN
	1    1700 2650
	1    0    0    -1  
$EndComp
$Comp
L lattice:AP3429 U?
U 1 1 5D81AB5F
P 1700 4050
F 0 "U?" H 1675 4615 50  0000 C CNN
F 1 "AP3429" H 1675 4524 50  0000 C CNN
F 2 "TO_SOT_Packages_SMD:TSOT-23-5" H 1700 3600 50  0001 C CNN
F 3 "https://cz.mouser.com/datasheet/2/115/AP3429_A-766309.pdf" H 1700 3700 50  0001 C CNN
	1    1700 4050
	1    0    0    -1  
$EndComp
$Comp
L power:+5V #PWR?
U 1 1 5D81AB65
P 850 3700
F 0 "#PWR?" H 850 3550 50  0001 C CNN
F 1 "+5V" H 865 3873 50  0000 C CNN
F 2 "" H 850 3700 50  0001 C CNN
F 3 "" H 850 3700 50  0001 C CNN
	1    850  3700
	1    0    0    -1  
$EndComp
$Comp
L Device:C C?
U 1 1 5D81AB6B
P 1000 4200
F 0 "C?" H 1115 4246 50  0000 L CNN
F 1 "22u" H 1115 4155 50  0000 L CNN
F 2 "" H 1038 4050 50  0001 C CNN
F 3 "~" H 1000 4200 50  0001 C CNN
	1    1000 4200
	1    0    0    -1  
$EndComp
$Comp
L power:GND #PWR?
U 1 1 5D81AB71
P 1000 4450
F 0 "#PWR?" H 1000 4200 50  0001 C CNN
F 1 "GND" H 1005 4277 50  0000 C CNN
F 2 "" H 1000 4450 50  0001 C CNN
F 3 "" H 1000 4450 50  0001 C CNN
	1    1000 4450
	1    0    0    -1  
$EndComp
Wire Wire Line
	1000 4450 1000 4350
$Comp
L Device:R R?
U 1 1 5D81AB78
P 1000 3900
F 0 "R?" H 1070 3946 50  0000 L CNN
F 1 "10K" H 1070 3855 50  0000 L CNN
F 2 "" V 930 3900 50  0001 C CNN
F 3 "~" H 1000 3900 50  0001 C CNN
	1    1000 3900
	1    0    0    -1  
$EndComp
Wire Wire Line
	1200 3750 1000 3750
Wire Wire Line
	850  4050 1000 4050
Connection ~ 1000 4050
Wire Wire Line
	1200 4050 1000 4050
Wire Wire Line
	850  3700 850  4050
Wire Wire Line
	1200 4350 1000 4350
Connection ~ 1000 4350
$Comp
L Device:L L?
U 1 1 5D81AB85
P 2350 4050
F 0 "L?" V 2540 4050 50  0000 C CNN
F 1 "2.2u" V 2449 4050 50  0000 C CNN
F 2 "" H 2350 4050 50  0001 C CNN
F 3 "~" H 2350 4050 50  0001 C CNN
	1    2350 4050
	0    -1   -1   0   
$EndComp
Wire Wire Line
	2200 4050 2150 4050
$Comp
L Device:C C?
U 1 1 5D81AB8C
P 2550 4200
F 0 "C?" H 2665 4246 50  0000 L CNN
F 1 "22p" H 2665 4155 50  0000 L CNN
F 2 "" H 2588 4050 50  0001 C CNN
F 3 "~" H 2550 4200 50  0001 C CNN
	1    2550 4200
	1    0    0    -1  
$EndComp
Wire Wire Line
	2550 4050 2500 4050
Wire Wire Line
	2550 4350 2150 4350
$Comp
L Device:R R?
U 1 1 5D81AB94
P 2850 4200
F 0 "R?" H 2920 4246 50  0000 L CNN
F 1 "600K" H 2920 4155 50  0000 L CNN
F 2 "" V 2780 4200 50  0001 C CNN
F 3 "~" H 2850 4200 50  0001 C CNN
	1    2850 4200
	1    0    0    -1  
$EndComp
Wire Wire Line
	2850 4050 2550 4050
Connection ~ 2550 4050
$Comp
L Device:R R?
U 1 1 5D81AB9C
P 2850 4500
F 0 "R?" H 2920 4546 50  0000 L CNN
F 1 "150K" H 2920 4455 50  0000 L CNN
F 2 "" V 2780 4500 50  0001 C CNN
F 3 "~" H 2850 4500 50  0001 C CNN
	1    2850 4500
	1    0    0    -1  
$EndComp
Wire Wire Line
	2850 4350 2550 4350
Connection ~ 2850 4350
Connection ~ 2550 4350
$Comp
L power:GND #PWR?
U 1 1 5D81ABA5
P 2850 4650
F 0 "#PWR?" H 2850 4400 50  0001 C CNN
F 1 "GND" H 2855 4477 50  0000 C CNN
F 2 "" H 2850 4650 50  0001 C CNN
F 3 "" H 2850 4650 50  0001 C CNN
	1    2850 4650
	1    0    0    -1  
$EndComp
$Comp
L Device:C C?
U 1 1 5D81ABAB
P 3250 4200
F 0 "C?" H 3365 4246 50  0000 L CNN
F 1 "22u" H 3365 4155 50  0000 L CNN
F 2 "" H 3288 4050 50  0001 C CNN
F 3 "~" H 3250 4200 50  0001 C CNN
	1    3250 4200
	1    0    0    -1  
$EndComp
Wire Wire Line
	2850 4050 3100 4050
Connection ~ 2850 4050
$Comp
L power:GND #PWR?
U 1 1 5D81ABB3
P 3250 4350
F 0 "#PWR?" H 3250 4100 50  0001 C CNN
F 1 "GND" H 3255 4177 50  0000 C CNN
F 2 "" H 3250 4350 50  0001 C CNN
F 3 "" H 3250 4350 50  0001 C CNN
	1    3250 4350
	1    0    0    -1  
$EndComp
$Comp
L lattice:AP3429 U?
U 1 1 5D81DBD4
P 1700 5550
F 0 "U?" H 1675 6115 50  0000 C CNN
F 1 "AP3429" H 1675 6024 50  0000 C CNN
F 2 "TO_SOT_Packages_SMD:TSOT-23-5" H 1700 5100 50  0001 C CNN
F 3 "https://cz.mouser.com/datasheet/2/115/AP3429_A-766309.pdf" H 1700 5200 50  0001 C CNN
	1    1700 5550
	1    0    0    -1  
$EndComp
$Comp
L power:+5V #PWR?
U 1 1 5D81DBDA
P 850 5200
F 0 "#PWR?" H 850 5050 50  0001 C CNN
F 1 "+5V" H 865 5373 50  0000 C CNN
F 2 "" H 850 5200 50  0001 C CNN
F 3 "" H 850 5200 50  0001 C CNN
	1    850  5200
	1    0    0    -1  
$EndComp
$Comp
L Device:C C?
U 1 1 5D81DBE0
P 1000 5700
F 0 "C?" H 1115 5746 50  0000 L CNN
F 1 "22u" H 1115 5655 50  0000 L CNN
F 2 "" H 1038 5550 50  0001 C CNN
F 3 "~" H 1000 5700 50  0001 C CNN
	1    1000 5700
	1    0    0    -1  
$EndComp
$Comp
L power:GND #PWR?
U 1 1 5D81DBE6
P 1000 5950
F 0 "#PWR?" H 1000 5700 50  0001 C CNN
F 1 "GND" H 1005 5777 50  0000 C CNN
F 2 "" H 1000 5950 50  0001 C CNN
F 3 "" H 1000 5950 50  0001 C CNN
	1    1000 5950
	1    0    0    -1  
$EndComp
Wire Wire Line
	1000 5950 1000 5850
$Comp
L Device:R R?
U 1 1 5D81DBED
P 1000 5400
F 0 "R?" H 1070 5446 50  0000 L CNN
F 1 "10K" H 1070 5355 50  0000 L CNN
F 2 "" V 930 5400 50  0001 C CNN
F 3 "~" H 1000 5400 50  0001 C CNN
	1    1000 5400
	1    0    0    -1  
$EndComp
Wire Wire Line
	1200 5250 1000 5250
Wire Wire Line
	850  5550 1000 5550
Connection ~ 1000 5550
Wire Wire Line
	1200 5550 1000 5550
Wire Wire Line
	850  5200 850  5550
Wire Wire Line
	1200 5850 1000 5850
Connection ~ 1000 5850
$Comp
L Device:L L?
U 1 1 5D81DBFA
P 2350 5550
F 0 "L?" V 2540 5550 50  0000 C CNN
F 1 "2.2u" V 2449 5550 50  0000 C CNN
F 2 "" H 2350 5550 50  0001 C CNN
F 3 "~" H 2350 5550 50  0001 C CNN
	1    2350 5550
	0    -1   -1   0   
$EndComp
Wire Wire Line
	2200 5550 2150 5550
$Comp
L Device:C C?
U 1 1 5D81DC01
P 2550 5700
F 0 "C?" H 2665 5746 50  0000 L CNN
F 1 "22p" H 2665 5655 50  0000 L CNN
F 2 "" H 2588 5550 50  0001 C CNN
F 3 "~" H 2550 5700 50  0001 C CNN
	1    2550 5700
	1    0    0    -1  
$EndComp
Wire Wire Line
	2550 5550 2500 5550
Wire Wire Line
	2550 5850 2150 5850
$Comp
L Device:R R?
U 1 1 5D81DC09
P 2850 5700
F 0 "R?" H 2920 5746 50  0000 L CNN
F 1 "680k" H 2920 5655 50  0000 L CNN
F 2 "" V 2780 5700 50  0001 C CNN
F 3 "~" H 2850 5700 50  0001 C CNN
	1    2850 5700
	1    0    0    -1  
$EndComp
Wire Wire Line
	2850 5550 2550 5550
Connection ~ 2550 5550
$Comp
L Device:R R?
U 1 1 5D81DC11
P 2850 6000
F 0 "R?" H 2920 6046 50  0000 L CNN
F 1 "150K" H 2920 5955 50  0000 L CNN
F 2 "" V 2780 6000 50  0001 C CNN
F 3 "~" H 2850 6000 50  0001 C CNN
	1    2850 6000
	1    0    0    -1  
$EndComp
Wire Wire Line
	2850 5850 2550 5850
Connection ~ 2850 5850
Connection ~ 2550 5850
$Comp
L power:GND #PWR?
U 1 1 5D81DC1A
P 2850 6150
F 0 "#PWR?" H 2850 5900 50  0001 C CNN
F 1 "GND" H 2855 5977 50  0000 C CNN
F 2 "" H 2850 6150 50  0001 C CNN
F 3 "" H 2850 6150 50  0001 C CNN
	1    2850 6150
	1    0    0    -1  
$EndComp
$Comp
L Device:C C?
U 1 1 5D81DC20
P 3250 5700
F 0 "C?" H 3365 5746 50  0000 L CNN
F 1 "22u" H 3365 5655 50  0000 L CNN
F 2 "" H 3288 5550 50  0001 C CNN
F 3 "~" H 3250 5700 50  0001 C CNN
	1    3250 5700
	1    0    0    -1  
$EndComp
Wire Wire Line
	2850 5550 3100 5550
Connection ~ 2850 5550
$Comp
L power:GND #PWR?
U 1 1 5D81DC28
P 3250 5850
F 0 "#PWR?" H 3250 5600 50  0001 C CNN
F 1 "GND" H 3255 5677 50  0000 C CNN
F 2 "" H 3250 5850 50  0001 C CNN
F 3 "" H 3250 5850 50  0001 C CNN
	1    3250 5850
	1    0    0    -1  
$EndComp
$Comp
L power:+1V2 #PWR?
U 1 1 5D82196B
P 3100 1150
F 0 "#PWR?" H 3100 1000 50  0001 C CNN
F 1 "+1V2" H 3115 1323 50  0000 C CNN
F 2 "" H 3100 1150 50  0001 C CNN
F 3 "" H 3100 1150 50  0001 C CNN
	1    3100 1150
	1    0    0    -1  
$EndComp
Wire Wire Line
	3100 1150 3100 1350
Connection ~ 3100 1350
$Comp
L power:+1V8 #PWR?
U 1 1 5D826C66
P 3100 2450
F 0 "#PWR?" H 3100 2300 50  0001 C CNN
F 1 "+1V8" H 3115 2623 50  0000 C CNN
F 2 "" H 3100 2450 50  0001 C CNN
F 3 "" H 3100 2450 50  0001 C CNN
	1    3100 2450
	1    0    0    -1  
$EndComp
Wire Wire Line
	3100 2450 3100 2650
$Comp
L power:+3V0 #PWR?
U 1 1 5D829A20
P 3100 3850
F 0 "#PWR?" H 3100 3700 50  0001 C CNN
F 1 "+3V0" H 3115 4023 50  0000 C CNN
F 2 "" H 3100 3850 50  0001 C CNN
F 3 "" H 3100 3850 50  0001 C CNN
	1    3100 3850
	1    0    0    -1  
$EndComp
Wire Wire Line
	3100 3850 3100 4050
$Comp
L power:+3.3V #PWR?
U 1 1 5D82BD30
P 3100 5350
F 0 "#PWR?" H 3100 5200 50  0001 C CNN
F 1 "+3.3V" H 3115 5523 50  0000 C CNN
F 2 "" H 3100 5350 50  0001 C CNN
F 3 "" H 3100 5350 50  0001 C CNN
	1    3100 5350
	1    0    0    -1  
$EndComp
Wire Wire Line
	3100 5350 3100 5550
Text Notes 2000 800  0    50   ~ 0
Vout = 0.6*(1 + Ra/Rb)\nRa=Top\nRb=Bot
Wire Wire Line
	3100 1350 3250 1350
Wire Wire Line
	3100 2650 3250 2650
Connection ~ 3100 2650
Wire Wire Line
	3250 4050 3100 4050
Connection ~ 3100 4050
Wire Wire Line
	3250 5550 3100 5550
Connection ~ 3100 5550
$Comp
L power:+12V #PWR?
U 1 1 5D87C57A
P 4150 1200
F 0 "#PWR?" H 4150 1050 50  0001 C CNN
F 1 "+12V" H 4165 1373 50  0000 C CNN
F 2 "" H 4150 1200 50  0001 C CNN
F 3 "" H 4150 1200 50  0001 C CNN
	1    4150 1200
	1    0    0    -1  
$EndComp
$Comp
L power:+5V #PWR?
U 1 1 5D88EEDC
P 7000 1400
F 0 "#PWR?" H 7000 1250 50  0001 C CNN
F 1 "+5V" H 7015 1573 50  0000 C CNN
F 2 "" H 7000 1400 50  0001 C CNN
F 3 "" H 7000 1400 50  0001 C CNN
	1    7000 1400
	1    0    0    -1  
$EndComp
$Comp
L lattice:MP2307 U?
U 1 1 5D8C00CA
P 5300 1750
F 0 "U?" H 5300 2375 50  0000 C CNN
F 1 "MP2307" H 5300 2284 50  0000 C CNN
F 2 "Housings_SOIC:SOIC-8-1EP_3.9x4.9mm_Pitch1.27mm" H 5350 2400 50  0001 C CNN
F 3 "https://cdn-shop.adafruit.com/datasheets/MP2307_r1.9.pdf" H 5350 2400 50  0001 C CNN
	1    5300 1750
	1    0    0    -1  
$EndComp
$Comp
L Device:R R?
U 1 1 5D8C760B
P 4650 1550
F 0 "R?" H 4720 1596 50  0000 L CNN
F 1 "10K" H 4720 1505 50  0000 L CNN
F 2 "" V 4580 1550 50  0001 C CNN
F 3 "~" H 4650 1550 50  0001 C CNN
	1    4650 1550
	1    0    0    -1  
$EndComp
Wire Wire Line
	4650 1400 4650 1350
Wire Wire Line
	4650 1350 4850 1350
$Comp
L Device:C C?
U 1 1 5D8CCED8
P 4350 2000
F 0 "C?" H 4465 2046 50  0000 L CNN
F 1 "22u" H 4465 1955 50  0000 L CNN
F 2 "" H 4388 1850 50  0001 C CNN
F 3 "~" H 4350 2000 50  0001 C CNN
	1    4350 2000
	1    0    0    -1  
$EndComp
$Comp
L Device:C C?
U 1 1 5D8CD3E4
P 4700 2000
F 0 "C?" H 4815 2046 50  0000 L CNN
F 1 "100n" H 4815 1955 50  0000 L CNN
F 2 "" H 4738 1850 50  0001 C CNN
F 3 "~" H 4700 2000 50  0001 C CNN
	1    4700 2000
	1    0    0    -1  
$EndComp
Wire Wire Line
	4850 2150 4700 2150
Wire Wire Line
	4350 2150 4700 2150
Connection ~ 4700 2150
Wire Wire Line
	4700 2250 4700 2150
Wire Wire Line
	4700 2250 4850 2250
Wire Wire Line
	4150 1200 4150 1700
Wire Wire Line
	4650 1700 4850 1700
Wire Wire Line
	4700 1800 4700 1850
Wire Wire Line
	4700 1800 4850 1800
Wire Wire Line
	4650 1700 4350 1700
Wire Wire Line
	4350 1700 4350 1850
Connection ~ 4650 1700
Wire Wire Line
	4150 1700 4350 1700
Connection ~ 4350 1700
$Comp
L power:GND #PWR?
U 1 1 5D8E145B
P 4700 2250
F 0 "#PWR?" H 4700 2000 50  0001 C CNN
F 1 "GND" H 4705 2077 50  0000 C CNN
F 2 "" H 4700 2250 50  0001 C CNN
F 3 "" H 4700 2250 50  0001 C CNN
	1    4700 2250
	1    0    0    -1  
$EndComp
Connection ~ 4700 2250
$Comp
L Device:C C?
U 1 1 5D8E3CE7
P 5900 1550
F 0 "C?" H 6100 1500 50  0000 R CNN
F 1 "10n" H 6150 1600 50  0000 R CNN
F 2 "" H 5938 1400 50  0001 C CNN
F 3 "~" H 5900 1550 50  0001 C CNN
	1    5900 1550
	-1   0    0    1   
$EndComp
Wire Wire Line
	5900 1400 5900 1350
Wire Wire Line
	5900 1350 5750 1350
Wire Wire Line
	5900 1700 5750 1700
$Comp
L Device:L L?
U 1 1 5D8ED14F
P 6100 1700
F 0 "L?" V 6290 1700 50  0000 C CNN
F 1 "2.2u" V 6199 1700 50  0000 C CNN
F 2 "" H 6100 1700 50  0001 C CNN
F 3 "~" H 6100 1700 50  0001 C CNN
	1    6100 1700
	0    -1   -1   0   
$EndComp
Wire Wire Line
	5950 1700 5900 1700
Connection ~ 5900 1700
Wire Wire Line
	6250 1700 6350 1700
$Comp
L Device:C C?
U 1 1 5D8F3F7B
P 7000 1850
F 0 "C?" H 7115 1896 50  0000 L CNN
F 1 "22u" H 7115 1805 50  0000 L CNN
F 2 "" H 7038 1700 50  0001 C CNN
F 3 "~" H 7000 1850 50  0001 C CNN
	1    7000 1850
	1    0    0    -1  
$EndComp
Connection ~ 6350 1700
$Comp
L power:GND #PWR?
U 1 1 5D8F6211
P 7000 2000
F 0 "#PWR?" H 7000 1750 50  0001 C CNN
F 1 "GND" H 7005 1827 50  0000 C CNN
F 2 "" H 7000 2000 50  0001 C CNN
F 3 "" H 7000 2000 50  0001 C CNN
	1    7000 2000
	1    0    0    -1  
$EndComp
$Comp
L Device:C C?
U 1 1 5D8F6FA9
P 6350 1850
F 0 "C?" H 6465 1896 50  0000 L CNN
F 1 "22p" H 6465 1805 50  0000 L CNN
F 2 "" H 6388 1700 50  0001 C CNN
F 3 "~" H 6350 1850 50  0001 C CNN
	1    6350 1850
	1    0    0    -1  
$EndComp
Wire Wire Line
	2550 1350 2850 1350
Wire Wire Line
	7000 1400 7000 1700
Wire Wire Line
	6350 1700 6650 1700
Connection ~ 7000 1700
Connection ~ 6650 1700
Wire Wire Line
	6650 1700 7000 1700
Wire Wire Line
	5750 2050 6350 2050
Wire Wire Line
	6350 2050 6350 2000
Wire Wire Line
	6650 2050 6650 2000
Wire Wire Line
	6350 2050 6650 2050
Connection ~ 6350 2050
$Comp
L Device:R R?
U 1 1 5D90CE47
P 6650 2250
F 0 "R?" H 6720 2296 50  0000 L CNN
F 1 "10K" H 6720 2205 50  0000 L CNN
F 2 "" V 6580 2250 50  0001 C CNN
F 3 "~" H 6650 2250 50  0001 C CNN
	1    6650 2250
	1    0    0    -1  
$EndComp
Wire Wire Line
	6650 2100 6650 2050
Connection ~ 6650 2050
$Comp
L power:GND #PWR?
U 1 1 5D910933
P 6650 2400
F 0 "#PWR?" H 6650 2150 50  0001 C CNN
F 1 "GND" H 6655 2227 50  0000 C CNN
F 2 "" H 6650 2400 50  0001 C CNN
F 3 "" H 6650 2400 50  0001 C CNN
	1    6650 2400
	1    0    0    -1  
$EndComp
$Comp
L Device:C C?
U 1 1 5D91280C
P 5850 2350
F 0 "C?" H 5965 2396 50  0000 L CNN
F 1 "3.9n" H 5965 2305 50  0000 L CNN
F 2 "" H 5888 2200 50  0001 C CNN
F 3 "~" H 5850 2350 50  0001 C CNN
	1    5850 2350
	1    0    0    -1  
$EndComp
$Comp
L Device:R R?
U 1 1 5D912BA2
P 5850 2750
F 0 "R?" H 5920 2796 50  0000 L CNN
F 1 "6.8k" H 5920 2705 50  0000 L CNN
F 2 "" V 5780 2750 50  0001 C CNN
F 3 "~" H 5850 2750 50  0001 C CNN
	1    5850 2750
	1    0    0    -1  
$EndComp
Wire Wire Line
	5850 2200 5850 2150
Wire Wire Line
	5850 2150 5750 2150
Wire Wire Line
	5850 2600 5850 2500
$Comp
L power:GND #PWR?
U 1 1 5D916DD1
P 5850 2900
F 0 "#PWR?" H 5850 2650 50  0001 C CNN
F 1 "GND" H 5855 2727 50  0000 C CNN
F 2 "" H 5850 2900 50  0001 C CNN
F 3 "" H 5850 2900 50  0001 C CNN
	1    5850 2900
	1    0    0    -1  
$EndComp
$Comp
L Device:R R?
U 1 1 5D926B2F
P 2850 1500
F 0 "R?" H 2920 1546 50  0000 L CNN
F 1 "150K" H 2920 1455 50  0000 L CNN
F 2 "" V 2780 1500 50  0001 C CNN
F 3 "~" H 2850 1500 50  0001 C CNN
	1    2850 1500
	1    0    0    -1  
$EndComp
Connection ~ 2850 1350
Wire Wire Line
	2850 1350 3100 1350
Connection ~ 2850 1650
$EndSCHEMATC
